(export (version D)
  (design
    (source C:\Users\IchWerSonst\Documents\Hobby--Projekte\LED_Heart\LED_Heart.sch)
    (date "28/11/2020 00:06:55")
    (tool "Eeschema (5.1.7)-1")
    (sheet (number 1) (name /) (tstamps /)
      (title_block
        (title LED_Heart)
        (company Septeract7)
        (rev 1.0)
        (date 2020-10-28)
        (source LED_Heart.sch)
        (comment (number 1) (value ""))
        (comment (number 2) (value ""))
        (comment (number 3) (value ""))
        (comment (number 4) (value "")))))
  (components
    (comp (ref U5)
      (value ATMEGA328P-AU)
      (footprint Housings_QFP:TQFP-32_7x7mm_Pitch0.8mm)
      (libsource (lib LED_Heart-rescue) (part ATMEGA328P-AU-atmel) (description ""))
      (sheetpath (names /) (tstamps /))
      (tstamp 5F99D20A))
    (comp (ref SW2)
      (value SW_Push)
      (footprint Button_Switch_THT:SW_PUSH_6mm)
      (datasheet ~)
      (libsource (lib Switch) (part SW_Push) (description "Push button switch, generic, two pins"))
      (sheetpath (names /) (tstamps /))
      (tstamp 5F9CBD80))
    (comp (ref C10)
      (value 100nF)
      (footprint Capacitor_SMD:C_0402_1005Metric)
      (datasheet ~)
      (libsource (lib Device) (part C_Small) (description "Unpolarized capacitor, small symbol"))
      (sheetpath (names /) (tstamps /))
      (tstamp 5F9D0AF8))
    (comp (ref C7)
      (value 100nF)
      (footprint Capacitor_SMD:C_0402_1005Metric)
      (datasheet ~)
      (libsource (lib Device) (part C_Small) (description "Unpolarized capacitor, small symbol"))
      (sheetpath (names /) (tstamps /))
      (tstamp 5F9DFAF4))
    (comp (ref U2)
      (value TP4057)
      (footprint Package_TO_SOT_SMD:SOT-23-6)
      (libsource (lib LED_Heart-rescue) (part TP4057-Septeract7) (description ""))
      (sheetpath (names /) (tstamps /))
      (tstamp 5F9F5D3A))
    (comp (ref C1)
      (value 1uF)
      (footprint Capacitor_SMD:C_0402_1005Metric)
      (datasheet ~)
      (libsource (lib Device) (part C_Small) (description "Unpolarized capacitor, small symbol"))
      (sheetpath (names /) (tstamps /))
      (tstamp 5F9F7660))
    (comp (ref R7)
      (value 2k)
      (footprint Resistor_SMD:R_0402_1005Metric)
      (datasheet ~)
      (libsource (lib Device) (part R_Small) (description "Resistor, small symbol"))
      (sheetpath (names /) (tstamps /))
      (tstamp 5F9FAD3A))
    (comp (ref C4)
      (value 10uF)
      (footprint Capacitor_SMD:C_0603_1608Metric)
      (datasheet ~)
      (libsource (lib Device) (part C_Small) (description "Unpolarized capacitor, small symbol"))
      (sheetpath (names /) (tstamps /))
      (tstamp 5F9FC65C))
    (comp (ref D3)
      (value Red)
      (footprint LEDs:LED_0603)
      (datasheet ~)
      (libsource (lib Device) (part LED_Small) (description "Light emitting diode, small symbol"))
      (sheetpath (names /) (tstamps /))
      (tstamp 5FA005B7))
    (comp (ref D2)
      (value Green)
      (footprint LEDs:LED_0603)
      (datasheet ~)
      (libsource (lib Device) (part LED_Small) (description "Light emitting diode, small symbol"))
      (sheetpath (names /) (tstamps /))
      (tstamp 5FA01F67))
    (comp (ref R16)
      (value 1K)
      (footprint Resistor_SMD:R_0402_1005Metric)
      (datasheet ~)
      (libsource (lib Device) (part R_Small) (description "Resistor, small symbol"))
      (sheetpath (names /) (tstamps /))
      (tstamp 5F9D901B))
    (comp (ref R15)
      (value 1K)
      (footprint Resistor_SMD:R_0402_1005Metric)
      (datasheet ~)
      (libsource (lib Device) (part R_Small) (description "Resistor, small symbol"))
      (sheetpath (names /) (tstamps /))
      (tstamp 5F9D8B5B))
    (comp (ref C9)
      (value 10pF)
      (footprint Capacitors_SMD:C_0402)
      (datasheet ~)
      (libsource (lib Device) (part C_Small) (description "Unpolarized capacitor, small symbol"))
      (sheetpath (names /) (tstamps /))
      (tstamp 5FA3B8C5))
    (comp (ref C8)
      (value 10pF)
      (footprint Capacitors_SMD:C_0402)
      (datasheet ~)
      (libsource (lib Device) (part C_Small) (description "Unpolarized capacitor, small symbol"))
      (sheetpath (names /) (tstamps /))
      (tstamp 5FA3C5E5))
    (comp (ref U1)
      (value AP2112K-3.3)
      (footprint Package_TO_SOT_SMD:SOT-23-5)
      (datasheet https://www.diodes.com/assets/Datasheets/AP2112.pdf)
      (libsource (lib Regulator_Linear) (part AP2112K-3.3) (description "600mA low dropout linear regulator, with enable pin, 3.8V-6V input voltage range, 3.3V fixed positive output, SOT-23-5"))
      (sheetpath (names /) (tstamps /))
      (tstamp 5FAB3D70))
    (comp (ref C2)
      (value 1uF)
      (footprint Capacitor_SMD:C_0402_1005Metric)
      (datasheet ~)
      (libsource (lib Device) (part C_Small) (description "Unpolarized capacitor, small symbol"))
      (sheetpath (names /) (tstamps /))
      (tstamp 5FAC05E5))
    (comp (ref C3)
      (value 1uF)
      (footprint Capacitor_SMD:C_0402_1005Metric)
      (datasheet ~)
      (libsource (lib Device) (part C_Small) (description "Unpolarized capacitor, small symbol"))
      (sheetpath (names /) (tstamps /))
      (tstamp 5FAC6F8E))
    (comp (ref SW1)
      (value SW_Push)
      (footprint Button_Switch_THT:SW_PUSH_6mm)
      (datasheet ~)
      (libsource (lib Switch) (part SW_Push) (description "Push button switch, generic, two pins"))
      (sheetpath (names /) (tstamps /))
      (tstamp 5FAD5025))
    (comp (ref D5)
      (value 1N4148WS)
      (footprint Diodes_SMD:D_SOD-323)
      (datasheet https://www.vishay.com/docs/85748/1n4148w.pdf)
      (libsource (lib Diode) (part 1N4148W) (description "75V 0.15A Fast Switching Diode, SOD-123"))
      (sheetpath (names /) (tstamps /))
      (tstamp 5FADB8CD))
    (comp (ref D1)
      (value 1N4148WS)
      (footprint Diodes_SMD:D_SOD-323)
      (datasheet https://www.vishay.com/docs/85748/1n4148w.pdf)
      (libsource (lib Diode) (part 1N4148W) (description "75V 0.15A Fast Switching Diode, SOD-123"))
      (sheetpath (names /) (tstamps /))
      (tstamp 5FAE7BC3))
    (comp (ref R5)
      (value 10K)
      (footprint Resistor_SMD:R_0402_1005Metric)
      (datasheet ~)
      (libsource (lib Device) (part R_Small) (description "Resistor, small symbol"))
      (sheetpath (names /) (tstamps /))
      (tstamp 5FAF0943))
    (comp (ref R6)
      (value 15K)
      (footprint Resistor_SMD:R_0402_1005Metric)
      (datasheet ~)
      (libsource (lib Device) (part R_Small) (description "Resistor, small symbol"))
      (sheetpath (names /) (tstamps /))
      (tstamp 5FAF0B1C))
    (comp (ref J1)
      (value CONN_01X01)
      (footprint Connector_Wire:SolderWire-1sqmm_1x01_D1.4mm_OD2.7mm)
      (libsource (lib LED_Heart-rescue) (part CONN_01X01-conn) (description ""))
      (sheetpath (names /) (tstamps /))
      (tstamp 5FAA68C2))
    (comp (ref J4)
      (value CONN_01X01)
      (footprint Connector_Wire:SolderWire-1sqmm_1x01_D1.4mm_OD2.7mm)
      (libsource (lib LED_Heart-rescue) (part CONN_01X01-conn) (description ""))
      (sheetpath (names /) (tstamps /))
      (tstamp 5FAA757F))
    (comp (ref J6)
      (value CONN_01X01)
      (footprint Connector_Wire:SolderWire-1sqmm_1x01_D1.4mm_OD2.7mm)
      (libsource (lib LED_Heart-rescue) (part CONN_01X01-conn) (description ""))
      (sheetpath (names /) (tstamps /))
      (tstamp 5FAA77B9))
    (comp (ref D101)
      (value WS2812B)
      (footprint LED_SMD:LED_WS2812B_PLCC4_5.0x5.0mm_P3.2mm)
      (datasheet https://cdn-shop.adafruit.com/datasheets/WS2812B.pdf)
      (libsource (lib LED) (part WS2812B) (description "RGB LED with integrated controller"))
      (sheetpath (names /) (tstamps /))
      (tstamp 5FAAD4A3))
    (comp (ref D102)
      (value WS2812B)
      (footprint LED_SMD:LED_WS2812B_PLCC4_5.0x5.0mm_P3.2mm)
      (datasheet https://cdn-shop.adafruit.com/datasheets/WS2812B.pdf)
      (libsource (lib LED) (part WS2812B) (description "RGB LED with integrated controller"))
      (sheetpath (names /) (tstamps /))
      (tstamp 5FAB2764))
    (comp (ref D103)
      (value WS2812B)
      (footprint LED_SMD:LED_WS2812B_PLCC4_5.0x5.0mm_P3.2mm)
      (datasheet https://cdn-shop.adafruit.com/datasheets/WS2812B.pdf)
      (libsource (lib LED) (part WS2812B) (description "RGB LED with integrated controller"))
      (sheetpath (names /) (tstamps /))
      (tstamp 5FAB4D16))
    (comp (ref D105)
      (value WS2812B)
      (footprint LED_SMD:LED_WS2812B_PLCC4_5.0x5.0mm_P3.2mm)
      (datasheet https://cdn-shop.adafruit.com/datasheets/WS2812B.pdf)
      (libsource (lib LED) (part WS2812B) (description "RGB LED with integrated controller"))
      (sheetpath (names /) (tstamps /))
      (tstamp 5FABFFAD))
    (comp (ref D106)
      (value WS2812B)
      (footprint LED_SMD:LED_WS2812B_PLCC4_5.0x5.0mm_P3.2mm)
      (datasheet https://cdn-shop.adafruit.com/datasheets/WS2812B.pdf)
      (libsource (lib LED) (part WS2812B) (description "RGB LED with integrated controller"))
      (sheetpath (names /) (tstamps /))
      (tstamp 5FABFFB3))
    (comp (ref D108)
      (value WS2812B)
      (footprint LED_SMD:LED_WS2812B_PLCC4_5.0x5.0mm_P3.2mm)
      (datasheet https://cdn-shop.adafruit.com/datasheets/WS2812B.pdf)
      (libsource (lib LED) (part WS2812B) (description "RGB LED with integrated controller"))
      (sheetpath (names /) (tstamps /))
      (tstamp 5FACD6BB))
    (comp (ref D109)
      (value WS2812B)
      (footprint LED_SMD:LED_WS2812B_PLCC4_5.0x5.0mm_P3.2mm)
      (datasheet https://cdn-shop.adafruit.com/datasheets/WS2812B.pdf)
      (libsource (lib LED) (part WS2812B) (description "RGB LED with integrated controller"))
      (sheetpath (names /) (tstamps /))
      (tstamp 5FACD6C1))
    (comp (ref D110)
      (value WS2812B)
      (footprint LED_SMD:LED_WS2812B_PLCC4_5.0x5.0mm_P3.2mm)
      (datasheet https://cdn-shop.adafruit.com/datasheets/WS2812B.pdf)
      (libsource (lib LED) (part WS2812B) (description "RGB LED with integrated controller"))
      (sheetpath (names /) (tstamps /))
      (tstamp 5FAD2811))
    (comp (ref D111)
      (value WS2812B)
      (footprint LED_SMD:LED_WS2812B_PLCC4_5.0x5.0mm_P3.2mm)
      (datasheet https://cdn-shop.adafruit.com/datasheets/WS2812B.pdf)
      (libsource (lib LED) (part WS2812B) (description "RGB LED with integrated controller"))
      (sheetpath (names /) (tstamps /))
      (tstamp 5FAD2817))
    (comp (ref D112)
      (value WS2812B)
      (footprint LED_SMD:LED_WS2812B_PLCC4_5.0x5.0mm_P3.2mm)
      (datasheet https://cdn-shop.adafruit.com/datasheets/WS2812B.pdf)
      (libsource (lib LED) (part WS2812B) (description "RGB LED with integrated controller"))
      (sheetpath (names /) (tstamps /))
      (tstamp 5FB17ADE))
    (comp (ref D113)
      (value WS2812B)
      (footprint LED_SMD:LED_WS2812B_PLCC4_5.0x5.0mm_P3.2mm)
      (datasheet https://cdn-shop.adafruit.com/datasheets/WS2812B.pdf)
      (libsource (lib LED) (part WS2812B) (description "RGB LED with integrated controller"))
      (sheetpath (names /) (tstamps /))
      (tstamp 5FB17AE4))
    (comp (ref D114)
      (value WS2812B)
      (footprint LED_SMD:LED_WS2812B_PLCC4_5.0x5.0mm_P3.2mm)
      (datasheet https://cdn-shop.adafruit.com/datasheets/WS2812B.pdf)
      (libsource (lib LED) (part WS2812B) (description "RGB LED with integrated controller"))
      (sheetpath (names /) (tstamps /))
      (tstamp 5FB17AEA))
    (comp (ref D115)
      (value WS2812B)
      (footprint LED_SMD:LED_WS2812B_PLCC4_5.0x5.0mm_P3.2mm)
      (datasheet https://cdn-shop.adafruit.com/datasheets/WS2812B.pdf)
      (libsource (lib LED) (part WS2812B) (description "RGB LED with integrated controller"))
      (sheetpath (names /) (tstamps /))
      (tstamp 5FB17AF0))
    (comp (ref D117)
      (value WS2812B)
      (footprint LED_SMD:LED_WS2812B_PLCC4_5.0x5.0mm_P3.2mm)
      (datasheet https://cdn-shop.adafruit.com/datasheets/WS2812B.pdf)
      (libsource (lib LED) (part WS2812B) (description "RGB LED with integrated controller"))
      (sheetpath (names /) (tstamps /))
      (tstamp 5FB23481))
    (comp (ref D118)
      (value WS2812B)
      (footprint LED_SMD:LED_WS2812B_PLCC4_5.0x5.0mm_P3.2mm)
      (datasheet https://cdn-shop.adafruit.com/datasheets/WS2812B.pdf)
      (libsource (lib LED) (part WS2812B) (description "RGB LED with integrated controller"))
      (sheetpath (names /) (tstamps /))
      (tstamp 5FB23487))
    (comp (ref D120)
      (value WS2812B)
      (footprint LED_SMD:LED_WS2812B_PLCC4_5.0x5.0mm_P3.2mm)
      (datasheet https://cdn-shop.adafruit.com/datasheets/WS2812B.pdf)
      (libsource (lib LED) (part WS2812B) (description "RGB LED with integrated controller"))
      (sheetpath (names /) (tstamps /))
      (tstamp 5FB38F83))
    (comp (ref D121)
      (value WS2812B)
      (footprint LED_SMD:LED_WS2812B_PLCC4_5.0x5.0mm_P3.2mm)
      (datasheet https://cdn-shop.adafruit.com/datasheets/WS2812B.pdf)
      (libsource (lib LED) (part WS2812B) (description "RGB LED with integrated controller"))
      (sheetpath (names /) (tstamps /))
      (tstamp 5FB38F89))
    (comp (ref R12)
      (value 1K)
      (footprint Resistor_SMD:R_0402_1005Metric)
      (datasheet ~)
      (libsource (lib Device) (part R_Small) (description "Resistor, small symbol"))
      (sheetpath (names /) (tstamps /))
      (tstamp 5FB8391C))
    (comp (ref Q1)
      (value IRLML6401)
      (footprint Package_TO_SOT_SMD:SOT-23)
      (datasheet https://www.infineon.com/dgdl/irlml6401pbf.pdf?fileId=5546d462533600a401535668b96d2634)
      (libsource (lib Transistor_FET) (part IRLML6401) (description "-4.3A Id, -12V Vds, 50mOhm Rds, P-Channel HEXFET Power MOSFET, SOT-23"))
      (sheetpath (names /) (tstamps /))
      (tstamp 5FADDF93))
    (comp (ref D4)
      (value 1N5817)
      (footprint Diodes_SMD:D_SOD-323)
      (datasheet http://www.vishay.com/docs/88525/1n5817.pdf)
      (libsource (lib Diode) (part 1N5817) (description "20V 1A Schottky Barrier Rectifier Diode, DO-41"))
      (sheetpath (names /) (tstamps /))
      (tstamp 5FAE620D))
    (comp (ref R9)
      (value 15k)
      (footprint Resistor_SMD:R_0402_1005Metric)
      (datasheet ~)
      (libsource (lib Device) (part R_Small) (description "Resistor, small symbol"))
      (sheetpath (names /) (tstamps /))
      (tstamp 5FB15CF3))
    (comp (ref R8)
      (value 10k)
      (footprint Resistor_SMD:R_0402_1005Metric)
      (datasheet ~)
      (libsource (lib Device) (part R_Small) (description "Resistor, small symbol"))
      (sheetpath (names /) (tstamps /))
      (tstamp 5FB156BB))
    (comp (ref C15)
      (value 100nF)
      (footprint Capacitor_SMD:C_0402_1005Metric)
      (datasheet ~)
      (libsource (lib Device) (part C_Small) (description "Unpolarized capacitor, small symbol"))
      (sheetpath (names /) (tstamps /))
      (tstamp 5FBE2E96))
    (comp (ref R13)
      (value 10K)
      (footprint Resistor_SMD:R_0402_1005Metric)
      (datasheet ~)
      (libsource (lib Device) (part R_Small) (description "Resistor, small symbol"))
      (sheetpath (names /) (tstamps /))
      (tstamp 5FBFAC20))
    (comp (ref R14)
      (value 10K)
      (footprint Resistor_SMD:R_0402_1005Metric)
      (datasheet ~)
      (libsource (lib Device) (part R_Small) (description "Resistor, small symbol"))
      (sheetpath (names /) (tstamps /))
      (tstamp 5FC0E956))
    (comp (ref C12)
      (value 1uF)
      (footprint Capacitor_SMD:C_0402_1005Metric)
      (datasheet ~)
      (libsource (lib Device) (part C_Small) (description "Unpolarized capacitor, small symbol"))
      (sheetpath (names /) (tstamps /))
      (tstamp 5FC2CA2F))
    (comp (ref C13)
      (value 1uF)
      (footprint Capacitor_SMD:C_0402_1005Metric)
      (datasheet ~)
      (libsource (lib Device) (part C_Small) (description "Unpolarized capacitor, small symbol"))
      (sheetpath (names /) (tstamps /))
      (tstamp 5FC2D9CD))
    (comp (ref C27)
      (value 10uF)
      (footprint Capacitor_SMD:C_0603_1608Metric)
      (datasheet ~)
      (libsource (lib Device) (part C_Small) (description "Unpolarized capacitor, small symbol"))
      (sheetpath (names /) (tstamps /))
      (tstamp 5FC80AAC))
    (comp (ref C28)
      (value 10uF)
      (footprint Capacitor_SMD:C_0603_1608Metric)
      (datasheet ~)
      (libsource (lib Device) (part C_Small) (description "Unpolarized capacitor, small symbol"))
      (sheetpath (names /) (tstamps /))
      (tstamp 5FC80AB2))
    (comp (ref R18)
      (value 0)
      (footprint Resistor_SMD:R_0402_1005Metric)
      (datasheet ~)
      (libsource (lib Device) (part R_Small) (description "Resistor, small symbol"))
      (sheetpath (names /) (tstamps /))
      (tstamp 5FC890CC))
    (comp (ref U3)
      (value LIS3DH)
      (footprint Package_LGA:LGA-16_3x3mm_P0.5mm_LayoutBorder3x5y)
      (datasheet https://www.st.com/resource/en/datasheet/cd00274221.pdf)
      (libsource (lib Sensor_Motion) (part LIS3DH) (description "3-Axis Accelerometer, 2/4/8/16g range, I2C/SPI interface, LGA-16"))
      (sheetpath (names /) (tstamps /))
      (tstamp 5FC9C622))
    (comp (ref C5)
      (value 10uF)
      (footprint Capacitor_SMD:C_0603_1608Metric)
      (datasheet ~)
      (libsource (lib Device) (part C_Small) (description "Unpolarized capacitor, small symbol"))
      (sheetpath (names /) (tstamps /))
      (tstamp 5FCD668B))
    (comp (ref C6)
      (value 100nF)
      (footprint Capacitor_SMD:C_0402_1005Metric)
      (datasheet ~)
      (libsource (lib Device) (part C_Small) (description "Unpolarized capacitor, small symbol"))
      (sheetpath (names /) (tstamps /))
      (tstamp 5FCD6691))
    (comp (ref J2)
      (value CONN_01X01)
      (footprint Connector_PinHeader_1.00mm:PinHeader_1x01_P1.00mm_Vertical)
      (libsource (lib LED_Heart-rescue) (part CONN_01X01-conn) (description ""))
      (sheetpath (names /) (tstamps /))
      (tstamp 5FD3F381))
    (comp (ref J5)
      (value CONN_01X01)
      (footprint Connector_PinHeader_1.00mm:PinHeader_1x01_P1.00mm_Vertical)
      (libsource (lib LED_Heart-rescue) (part CONN_01X01-conn) (description ""))
      (sheetpath (names /) (tstamps /))
      (tstamp 5FD49E7E))
    (comp (ref J7)
      (value CONN_01X01)
      (footprint Connector_Wire:SolderWire-1sqmm_1x01_D1.4mm_OD2.7mm)
      (libsource (lib LED_Heart-rescue) (part CONN_01X01-conn) (description ""))
      (sheetpath (names /) (tstamps /))
      (tstamp 5FD49E84))
    (comp (ref J8)
      (value CONN_01X01)
      (footprint Connector_Wire:SolderWire-1sqmm_1x01_D1.4mm_OD2.7mm)
      (libsource (lib LED_Heart-rescue) (part CONN_01X01-conn) (description ""))
      (sheetpath (names /) (tstamps /))
      (tstamp 5FD49E8A))
    (comp (ref D6)
      (value Red)
      (footprint LEDs:LED_0603)
      (datasheet ~)
      (libsource (lib Device) (part LED_Small) (description "Light emitting diode, small symbol"))
      (sheetpath (names /) (tstamps /))
      (tstamp 5FD7100E))
    (comp (ref Y1)
      (value 8MHz)
      (footprint Crystals:Crystal_SMD_3225-4pin_3.2x2.5mm)
      (datasheet ~)
      (libsource (lib Device) (part Crystal_GND24_Small) (description "Four pin crystal, GND on pins 2 and 4, small symbol"))
      (sheetpath (names /) (tstamps /))
      (tstamp 5FAE342C))
    (comp (ref U4)
      (value CH340C)
      (footprint Package_SO:SOIC-16_3.9x9.9mm_P1.27mm)
      (datasheet https://datasheet.lcsc.com/szlcsc/Jiangsu-Qin-Heng-CH340C_C84681.pdf)
      (libsource (lib Interface_USB) (part CH340C) (description "USB serial converter, UART, SOIC-16"))
      (sheetpath (names /) (tstamps /))
      (tstamp 5FB5726D))
    (comp (ref J12)
      (value USB_C_Receptacle_USB2.0)
      (footprint Connector_USB:USB_C_Receptacle_XKB_U262-16XN-4BVC11)
      (datasheet https://www.usb.org/sites/default/files/documents/usb_type-c.zip)
      (libsource (lib Connector) (part USB_C_Receptacle_USB2.0) (description "USB 2.0-only Type-C Receptacle connector"))
      (sheetpath (names /) (tstamps /))
      (tstamp 5FB5DC20))
    (comp (ref R10)
      (value 5k1)
      (footprint Resistor_SMD:R_0402_1005Metric)
      (datasheet ~)
      (libsource (lib Device) (part R_Small) (description "Resistor, small symbol"))
      (sheetpath (names /) (tstamps /))
      (tstamp 5FBCC910))
    (comp (ref R11)
      (value 5k1)
      (footprint Resistor_SMD:R_0402_1005Metric)
      (datasheet ~)
      (libsource (lib Device) (part R_Small) (description "Resistor, small symbol"))
      (sheetpath (names /) (tstamps /))
      (tstamp 5FBCDC89))
    (comp (ref J3)
      (value CONN_02X03)
      (footprint Connector_PinHeader_2.54mm:PinHeader_2x03_P2.54mm_Vertical)
      (libsource (lib LED_Heart-rescue) (part CONN_02X03-conn) (description ""))
      (sheetpath (names /) (tstamps /))
      (tstamp 5FC60550))
    (comp (ref R17)
      (value 0)
      (footprint Resistor_SMD:R_0402_1005Metric)
      (datasheet ~)
      (libsource (lib Device) (part R_Small) (description "Resistor, small symbol"))
      (sheetpath (names /) (tstamps /))
      (tstamp 5FCD5508))
    (comp (ref D104)
      (value SK6812_Sideview)
      (footprint LED_Heart:LED_SK6812_SIDEVIEW)
      (datasheet https://cdn-shop.adafruit.com/product-files/1138/SK6812+LED+datasheet+.pdf)
      (libsource (lib LED_Heart-rescue) (part SK6812_Sideview-Septeract7) (description ""))
      (sheetpath (names /) (tstamps /))
      (tstamp 5FDDAF15))
    (comp (ref D107)
      (value SK6812_Sideview)
      (footprint LED_Heart:LED_SK6812_SIDEVIEW)
      (datasheet https://cdn-shop.adafruit.com/product-files/1138/SK6812+LED+datasheet+.pdf)
      (libsource (lib LED_Heart-rescue) (part SK6812_Sideview-Septeract7) (description ""))
      (sheetpath (names /) (tstamps /))
      (tstamp 5FDDD3F4))
    (comp (ref D116)
      (value SK6812_Sideview)
      (footprint LED_Heart:LED_SK6812_SIDEVIEW)
      (datasheet https://cdn-shop.adafruit.com/product-files/1138/SK6812+LED+datasheet+.pdf)
      (libsource (lib LED_Heart-rescue) (part SK6812_Sideview-Septeract7) (description ""))
      (sheetpath (names /) (tstamps /))
      (tstamp 5FDDE246))
    (comp (ref D119)
      (value SK6812_Sideview)
      (footprint LED_Heart:LED_SK6812_SIDEVIEW)
      (datasheet https://cdn-shop.adafruit.com/product-files/1138/SK6812+LED+datasheet+.pdf)
      (libsource (lib LED_Heart-rescue) (part SK6812_Sideview-Septeract7) (description ""))
      (sheetpath (names /) (tstamps /))
      (tstamp 5FDDF0AE))
    (comp (ref C14)
      (value 100nF)
      (footprint Capacitor_SMD:C_0402_1005Metric)
      (datasheet ~)
      (libsource (lib Device) (part C_Small) (description "Unpolarized capacitor, small symbol"))
      (sheetpath (names /) (tstamps /))
      (tstamp 5FAFB3F8))
    (comp (ref C29)
      (value 10uF)
      (footprint Capacitor_SMD:C_0603_1608Metric)
      (datasheet ~)
      (libsource (lib Device) (part C_Small) (description "Unpolarized capacitor, small symbol"))
      (sheetpath (names /) (tstamps /))
      (tstamp 5FB559DF))
    (comp (ref C30)
      (value 10uF)
      (footprint Capacitor_SMD:C_0603_1608Metric)
      (datasheet ~)
      (libsource (lib Device) (part C_Small) (description "Unpolarized capacitor, small symbol"))
      (sheetpath (names /) (tstamps /))
      (tstamp 5FB559E5))
    (comp (ref C25)
      (value 10uF)
      (footprint Capacitor_SMD:C_0603_1608Metric)
      (datasheet ~)
      (libsource (lib Device) (part C_Small) (description "Unpolarized capacitor, small symbol"))
      (sheetpath (names /) (tstamps /))
      (tstamp 5FB602F0))
    (comp (ref C26)
      (value 10uF)
      (footprint Capacitor_SMD:C_0603_1608Metric)
      (datasheet ~)
      (libsource (lib Device) (part C_Small) (description "Unpolarized capacitor, small symbol"))
      (sheetpath (names /) (tstamps /))
      (tstamp 5FB602F6))
    (comp (ref C23)
      (value 10uF)
      (footprint Capacitor_SMD:C_0603_1608Metric)
      (datasheet ~)
      (libsource (lib Device) (part C_Small) (description "Unpolarized capacitor, small symbol"))
      (sheetpath (names /) (tstamps /))
      (tstamp 5FB6AAED))
    (comp (ref C24)
      (value 10uF)
      (footprint Capacitor_SMD:C_0603_1608Metric)
      (datasheet ~)
      (libsource (lib Device) (part C_Small) (description "Unpolarized capacitor, small symbol"))
      (sheetpath (names /) (tstamps /))
      (tstamp 5FB6AAF3))
    (comp (ref C31)
      (value 10uF)
      (footprint Capacitor_SMD:C_0603_1608Metric)
      (datasheet ~)
      (libsource (lib Device) (part C_Small) (description "Unpolarized capacitor, small symbol"))
      (sheetpath (names /) (tstamps /))
      (tstamp 5FB7FA65))
    (comp (ref C32)
      (value 10uF)
      (footprint Capacitor_SMD:C_0603_1608Metric)
      (datasheet ~)
      (libsource (lib Device) (part C_Small) (description "Unpolarized capacitor, small symbol"))
      (sheetpath (names /) (tstamps /))
      (tstamp 5FB7FA6B))
    (comp (ref C17)
      (value 10uF)
      (footprint Capacitor_SMD:C_0603_1608Metric)
      (datasheet ~)
      (libsource (lib Device) (part C_Small) (description "Unpolarized capacitor, small symbol"))
      (sheetpath (names /) (tstamps /))
      (tstamp 5FBD0279))
    (comp (ref C16)
      (value 10uF)
      (footprint Capacitor_SMD:C_0603_1608Metric)
      (datasheet ~)
      (libsource (lib Device) (part C_Small) (description "Unpolarized capacitor, small symbol"))
      (sheetpath (names /) (tstamps /))
      (tstamp 5FBD0273))
    (comp (ref C19)
      (value 10uF)
      (footprint Capacitor_SMD:C_0603_1608Metric)
      (datasheet ~)
      (libsource (lib Device) (part C_Small) (description "Unpolarized capacitor, small symbol"))
      (sheetpath (names /) (tstamps /))
      (tstamp 5FBD026D))
    (comp (ref C18)
      (value 10uF)
      (footprint Capacitor_SMD:C_0603_1608Metric)
      (datasheet ~)
      (libsource (lib Device) (part C_Small) (description "Unpolarized capacitor, small symbol"))
      (sheetpath (names /) (tstamps /))
      (tstamp 5FBD0267))
    (comp (ref C22)
      (value 10uF)
      (footprint Capacitor_SMD:C_0603_1608Metric)
      (datasheet ~)
      (libsource (lib Device) (part C_Small) (description "Unpolarized capacitor, small symbol"))
      (sheetpath (names /) (tstamps /))
      (tstamp 5FBD0261))
    (comp (ref C21)
      (value 10uF)
      (footprint Capacitor_SMD:C_0603_1608Metric)
      (datasheet ~)
      (libsource (lib Device) (part C_Small) (description "Unpolarized capacitor, small symbol"))
      (sheetpath (names /) (tstamps /))
      (tstamp 5FBD025B))
    (comp (ref C20)
      (value 10uF)
      (footprint Capacitor_SMD:C_0603_1608Metric)
      (datasheet ~)
      (libsource (lib Device) (part C_Small) (description "Unpolarized capacitor, small symbol"))
      (sheetpath (names /) (tstamps /))
      (tstamp 5FBD0255))
    (comp (ref C11)
      (value 10uF)
      (footprint Capacitor_SMD:C_0603_1608Metric)
      (datasheet ~)
      (libsource (lib Device) (part C_Small) (description "Unpolarized capacitor, small symbol"))
      (sheetpath (names /) (tstamps /))
      (tstamp 5FB41883))
    (comp (ref J11)
      (value CONN_01X01)
      (footprint Wire_Pads:SolderWirePad_single_SMD_5x10mm)
      (libsource (lib LED_Heart-rescue) (part CONN_01X01-conn) (description ""))
      (sheetpath (names /) (tstamps /))
      (tstamp 5FB6A694))
    (comp (ref H1)
      (value MountingHole_Pad)
      (footprint Mounting_Holes:MountingHole_3.2mm_M3_Pad)
      (datasheet ~)
      (libsource (lib Mechanical) (part MountingHole_Pad) (description "Mounting Hole with connection"))
      (sheetpath (names /) (tstamps /))
      (tstamp 5FB7A1A0))
    (comp (ref R3)
      (value 10k)
      (footprint Resistor_SMD:R_0402_1005Metric)
      (datasheet ~)
      (libsource (lib Device) (part R_Small) (description "Resistor, small symbol"))
      (sheetpath (names /) (tstamps /))
      (tstamp 5FC0DB08))
    (comp (ref R2)
      (value 10k)
      (footprint Resistor_SMD:R_0402_1005Metric)
      (datasheet ~)
      (libsource (lib Device) (part R_Small) (description "Resistor, small symbol"))
      (sheetpath (names /) (tstamps /))
      (tstamp 5FAFB07E))
    (comp (ref R1)
      (value 1k)
      (footprint Resistor_SMD:R_0402_1005Metric)
      (datasheet ~)
      (libsource (lib Device) (part R_Small) (description "Resistor, small symbol"))
      (sheetpath (names /) (tstamps /))
      (tstamp 5FA03038))
    (comp (ref R4)
      (value 1k)
      (footprint Resistor_SMD:R_0402_1005Metric)
      (datasheet ~)
      (libsource (lib Device) (part R_Small) (description "Resistor, small symbol"))
      (sheetpath (names /) (tstamps /))
      (tstamp 5FD7EDD1))
    (comp (ref H2)
      (value MountingHole_Pad)
      (footprint Mounting_Holes:MountingHole_3.2mm_M3_Pad)
      (datasheet ~)
      (libsource (lib Mechanical) (part MountingHole_Pad) (description "Mounting Hole with connection"))
      (sheetpath (names /) (tstamps /))
      (tstamp 5FE4501C))
    (comp (ref J9)
      (value CONN_01X02)
      (footprint Connector_PinHeader_2.54mm:PinHeader_1x02_P2.54mm_Vertical)
      (libsource (lib conn) (part CONN_01X02) (description "Connector, single row, 01x02, pin header"))
      (sheetpath (names /) (tstamps /))
      (tstamp 5FCD2D74)))
  (libparts
    (libpart (lib Connector) (part USB_C_Receptacle_USB2.0)
      (description "USB 2.0-only Type-C Receptacle connector")
      (docs https://www.usb.org/sites/default/files/documents/usb_type-c.zip)
      (footprints
        (fp USB*C*Receptacle*))
      (fields
        (field (name Reference) J)
        (field (name Value) USB_C_Receptacle_USB2.0))
      (pins
        (pin (num A1) (name GND) (type passive))
        (pin (num A4) (name VBUS) (type passive))
        (pin (num A5) (name CC1) (type BiDi))
        (pin (num A6) (name D+) (type BiDi))
        (pin (num A7) (name D-) (type BiDi))
        (pin (num A8) (name SBU1) (type BiDi))
        (pin (num A9) (name VBUS) (type passive))
        (pin (num A12) (name GND) (type passive))
        (pin (num B1) (name GND) (type passive))
        (pin (num B4) (name VBUS) (type passive))
        (pin (num B5) (name CC2) (type BiDi))
        (pin (num B6) (name D+) (type BiDi))
        (pin (num B7) (name D-) (type BiDi))
        (pin (num B8) (name SBU2) (type BiDi))
        (pin (num B9) (name VBUS) (type passive))
        (pin (num B12) (name GND) (type passive))
        (pin (num S1) (name SHIELD) (type passive))))
    (libpart (lib Device) (part C_Small)
      (description "Unpolarized capacitor, small symbol")
      (docs ~)
      (footprints
        (fp C_*))
      (fields
        (field (name Reference) C)
        (field (name Value) C_Small))
      (pins
        (pin (num 1) (name ~) (type passive))
        (pin (num 2) (name ~) (type passive))))
    (libpart (lib Device) (part Crystal_GND24_Small)
      (description "Four pin crystal, GND on pins 2 and 4, small symbol")
      (docs ~)
      (footprints
        (fp Crystal*))
      (fields
        (field (name Reference) Y)
        (field (name Value) Crystal_GND24_Small))
      (pins
        (pin (num 1) (name 1) (type passive))
        (pin (num 2) (name 2) (type passive))
        (pin (num 3) (name 3) (type passive))
        (pin (num 4) (name 4) (type passive))))
    (libpart (lib Device) (part LED_Small)
      (description "Light emitting diode, small symbol")
      (docs ~)
      (footprints
        (fp LED*)
        (fp LED_SMD:*)
        (fp LED_THT:*))
      (fields
        (field (name Reference) D)
        (field (name Value) LED_Small))
      (pins
        (pin (num 1) (name K) (type passive))
        (pin (num 2) (name A) (type passive))))
    (libpart (lib Device) (part R_Small)
      (description "Resistor, small symbol")
      (docs ~)
      (footprints
        (fp R_*))
      (fields
        (field (name Reference) R)
        (field (name Value) R_Small))
      (pins
        (pin (num 1) (name ~) (type passive))
        (pin (num 2) (name ~) (type passive))))
    (libpart (lib Diode) (part MMSD914)
      (aliases
        (alias 1N4148W)
        (alias BAV16W)
        (alias 1N4448W)
        (alias MMSD4148))
      (description "100V 0.2A Switching Diode, SOD-123")
      (docs https://www.onsemi.com/pub/Collateral/MMSD914T1-D.PDF)
      (footprints
        (fp D*SOD?123*))
      (fields
        (field (name Reference) D)
        (field (name Value) MMSD914)
        (field (name Footprint) Diode_SMD:D_SOD-123))
      (pins
        (pin (num 1) (name K) (type passive))
        (pin (num 2) (name A) (type passive))))
    (libpart (lib Diode) (part SB120)
      (aliases
        (alias SB130)
        (alias SB140)
        (alias SB150)
        (alias SB160)
        (alias 1N5817)
        (alias 1N5818)
        (alias 1N5819))
      (description "20V 1A Schottky Barrier Rectifier Diode, DO-41")
      (docs http://www.diodes.com/_files/datasheets/ds23022.pdf)
      (footprints
        (fp D*DO?41*))
      (fields
        (field (name Reference) D)
        (field (name Value) SB120)
        (field (name Footprint) Diode_THT:D_DO-41_SOD81_P10.16mm_Horizontal))
      (pins
        (pin (num 1) (name K) (type passive))
        (pin (num 2) (name A) (type passive))))
    (libpart (lib Interface_USB) (part CH340C)
      (description "USB serial converter, UART, SOIC-16")
      (docs https://datasheet.lcsc.com/szlcsc/Jiangsu-Qin-Heng-CH340C_C84681.pdf)
      (footprints
        (fp SOIC*3.9x9.9mm*P1.27mm*))
      (fields
        (field (name Reference) U)
        (field (name Value) CH340C)
        (field (name Footprint) Package_SO:SOIC-16_3.9x9.9mm_P1.27mm))
      (pins
        (pin (num 1) (name GND) (type power_in))
        (pin (num 2) (name TXD) (type output))
        (pin (num 3) (name RXD) (type input))
        (pin (num 4) (name V3) (type passive))
        (pin (num 5) (name UD+) (type BiDi))
        (pin (num 6) (name UD-) (type BiDi))
        (pin (num 7) (name NC) (type NotConnected))
        (pin (num 8) (name NC) (type NotConnected))
        (pin (num 9) (name ~CTS) (type input))
        (pin (num 10) (name ~DSR) (type input))
        (pin (num 11) (name ~RI) (type input))
        (pin (num 12) (name ~DCD) (type input))
        (pin (num 13) (name ~DTR) (type output))
        (pin (num 14) (name ~RTS) (type output))
        (pin (num 15) (name R232) (type input))
        (pin (num 16) (name VCC) (type power_in))))
    (libpart (lib LED) (part WS2812B)
      (description "RGB LED with integrated controller")
      (docs https://cdn-shop.adafruit.com/datasheets/WS2812B.pdf)
      (footprints
        (fp LED*WS2812*PLCC*5.0x5.0mm*P3.2mm*))
      (fields
        (field (name Reference) D)
        (field (name Value) WS2812B)
        (field (name Footprint) LED_SMD:LED_WS2812B_PLCC4_5.0x5.0mm_P3.2mm))
      (pins
        (pin (num 1) (name VDD) (type power_in))
        (pin (num 2) (name DOUT) (type output))
        (pin (num 3) (name VSS) (type power_in))
        (pin (num 4) (name DIN) (type input))))
    (libpart (lib LED_Heart-rescue) (part ATMEGA328P-AU-atmel)
      (footprints
        (fp TQFP*7x7mm*Pitch0.8mm*))
      (fields
        (field (name Reference) U)
        (field (name Value) ATMEGA328P-AU-atmel)
        (field (name Footprint) Housings_QFP:TQFP-32_7x7mm_Pitch0.8mm))
      (pins
        (pin (num 1) (name "(PCINT19/OC2B/INT1)PD3") (type BiDi))
        (pin (num 2) (name "(PCINT20/XCK/T0)PD4") (type BiDi))
        (pin (num 3) (name GND) (type power_in))
        (pin (num 4) (name VCC) (type power_in))
        (pin (num 5) (name GND) (type power_in))
        (pin (num 6) (name VCC) (type power_in))
        (pin (num 7) (name "(PCINT6/XTAL1/TOSC1)PB6") (type BiDi))
        (pin (num 8) (name "(PCINT7/XTAL2/TOSC2)PB7") (type BiDi))
        (pin (num 9) (name "(PCINT21/OC0B/T1)PD5") (type BiDi))
        (pin (num 10) (name "(PCINT22/OC0A/AIN0)PD6") (type BiDi))
        (pin (num 11) (name "(PCINT23/AIN1)PD7") (type BiDi))
        (pin (num 12) (name "(PCINT0/CLKO/ICP1)PB0") (type BiDi))
        (pin (num 13) (name "(PCINT1/OC1A)PB1") (type BiDi))
        (pin (num 14) (name "(PCINT2/OC1B/~SS~)PB2") (type BiDi))
        (pin (num 15) (name "(PCINT3/OC2A/MOSI)PB3") (type BiDi))
        (pin (num 16) (name "(PCINT4/MISO)PB4") (type BiDi))
        (pin (num 17) (name "(PCINT5/SCK)PB5") (type BiDi))
        (pin (num 18) (name AVCC) (type power_in))
        (pin (num 19) (name ADC6) (type input))
        (pin (num 20) (name AREF) (type BiDi))
        (pin (num 21) (name GND) (type power_in))
        (pin (num 22) (name ADC7) (type input))
        (pin (num 23) (name "(PCINT8/ADC0)PC0") (type BiDi))
        (pin (num 24) (name "(PCINT9/ADC1)PC1") (type BiDi))
        (pin (num 25) (name "(PCINT10/ADC2)PC2") (type BiDi))
        (pin (num 26) (name "(PCINT11/ADC3)PC3") (type BiDi))
        (pin (num 27) (name "(PCINT12/SDA/ADC4)PC4") (type BiDi))
        (pin (num 28) (name "(PCINT13/SCL/ADC5)PC5") (type BiDi))
        (pin (num 29) (name "(PCINT14/~RESET~)PC6") (type BiDi))
        (pin (num 30) (name "(PCINT16/RXD)PD0") (type BiDi))
        (pin (num 31) (name "(PCINT17/TXD)PD1") (type BiDi))
        (pin (num 32) (name "(PCINT18/INT0)PD2") (type BiDi))))
    (libpart (lib LED_Heart-rescue) (part CONN_01X01-conn)
      (footprints
        (fp Pin_Header_Straight_1X*)
        (fp Pin_Header_Angled_1X*)
        (fp Socket_Strip_Straight_1X*)
        (fp Socket_Strip_Angled_1X*))
      (fields
        (field (name Reference) J)
        (field (name Value) CONN_01X01-conn))
      (pins
        (pin (num 1) (name P1) (type passive))))
    (libpart (lib LED_Heart-rescue) (part CONN_02X03-conn)
      (footprints
        (fp Pin_Header_Straight_2X*)
        (fp Pin_Header_Angled_2X*)
        (fp Socket_Strip_Straight_2X*)
        (fp Socket_Strip_Angled_2X*)
        (fp IDC_Header_Straight_*))
      (fields
        (field (name Reference) J)
        (field (name Value) CONN_02X03-conn))
      (pins
        (pin (num 1) (name P1) (type passive))
        (pin (num 2) (name P2) (type passive))
        (pin (num 3) (name P3) (type passive))
        (pin (num 4) (name P4) (type passive))
        (pin (num 5) (name P5) (type passive))
        (pin (num 6) (name P6) (type passive))))
    (libpart (lib LED_Heart-rescue) (part SK6812_Sideview-Septeract7)
      (footprints
        (fp LED*SK6812*PLCC*5.0x5.0mm*P3.2mm*))
      (fields
        (field (name Reference) D)
        (field (name Value) SK6812_Sideview-Septeract7)
        (field (name Footprint) LED_Heart:LED_SK6812_SIDEVIEW))
      (pins
        (pin (num 1) (name DIN) (type input))
        (pin (num 2) (name VDD) (type power_in))
        (pin (num 3) (name DOUT) (type output))
        (pin (num 4) (name GND) (type power_in))))
    (libpart (lib LED_Heart-rescue) (part TP4057-Septeract7)
      (fields
        (field (name Reference) U)
        (field (name Value) TP4057-Septeract7))
      (pins
        (pin (num 1) (name /CHRG) (type openCol))
        (pin (num 2) (name GND) (type power_in))
        (pin (num 3) (name BAT) (type power_out))
        (pin (num 4) (name VCC) (type power_in))
        (pin (num 5) (name /STDBY) (type openCol))
        (pin (num 6) (name PROG) (type passive))))
    (libpart (lib Mechanical) (part MountingHole_Pad)
      (description "Mounting Hole with connection")
      (docs ~)
      (footprints
        (fp MountingHole*Pad*))
      (fields
        (field (name Reference) H)
        (field (name Value) MountingHole_Pad))
      (pins
        (pin (num 1) (name 1) (type input))))
    (libpart (lib Regulator_Linear) (part AP2204K-1.5)
      (aliases
        (alias AP2204K-1.8)
        (alias AP2204K-2.5)
        (alias AP2204K-2.8)
        (alias AP2204K-3.0)
        (alias AP2204K-3.3)
        (alias AP2204K-5.0)
        (alias AP2127K-1.0)
        (alias AP2127K-1.2)
        (alias AP2127K-1.5)
        (alias AP2127K-1.8)
        (alias AP2127K-2.5)
        (alias AP2127K-2.8)
        (alias AP2127K-3.0)
        (alias AP2127K-3.3)
        (alias AP2127K-4.2)
        (alias AP2127K-4.75)
        (alias AP2112K-1.2)
        (alias AP2112K-1.8)
        (alias AP2112K-2.5)
        (alias AP2112K-2.6)
        (alias AP2112K-3.3))
      (description "150mA low dropout linear regulator, wide input voltage range, 1.5V fixed positive output, SOT-23-5")
      (docs https://www.diodes.com/assets/Datasheets/AP2204.pdf)
      (footprints
        (fp SOT?23?5*))
      (fields
        (field (name Reference) U)
        (field (name Value) AP2204K-1.5)
        (field (name Footprint) Package_TO_SOT_SMD:SOT-23-5))
      (pins
        (pin (num 1) (name VIN) (type power_in))
        (pin (num 2) (name GND) (type power_in))
        (pin (num 3) (name EN) (type input))
        (pin (num 4) (name NC) (type NotConnected))
        (pin (num 5) (name VOUT) (type power_out))))
    (libpart (lib Sensor_Motion) (part LIS3DH)
      (description "3-Axis Accelerometer, 2/4/8/16g range, I2C/SPI interface, LGA-16")
      (docs https://www.st.com/resource/en/datasheet/cd00274221.pdf)
      (footprints
        (fp LGA*3x3mm*P0.5mm*LayoutBorder3x5y*))
      (fields
        (field (name Reference) U)
        (field (name Value) LIS3DH)
        (field (name Footprint) Package_LGA:LGA-16_3x3mm_P0.5mm_LayoutBorder3x5y))
      (pins
        (pin (num 1) (name VDD_IO) (type power_in))
        (pin (num 2) (name NC) (type NotConnected))
        (pin (num 3) (name NC) (type NotConnected))
        (pin (num 4) (name SCL/SPC) (type input))
        (pin (num 5) (name GND) (type passive))
        (pin (num 6) (name SDA/SDI/SDO) (type BiDi))
        (pin (num 7) (name SDO/SA0) (type BiDi))
        (pin (num 8) (name CS) (type input))
        (pin (num 9) (name INT2) (type output))
        (pin (num 10) (name GND) (type passive))
        (pin (num 11) (name INT1) (type output))
        (pin (num 12) (name GND) (type power_in))
        (pin (num 13) (name ADC3) (type input))
        (pin (num 14) (name VDD) (type power_in))
        (pin (num 15) (name ADC2) (type input))
        (pin (num 16) (name ADC1) (type input))))
    (libpart (lib Switch) (part SW_Push)
      (description "Push button switch, generic, two pins")
      (docs ~)
      (fields
        (field (name Reference) SW)
        (field (name Value) SW_Push))
      (pins
        (pin (num 1) (name 1) (type passive))
        (pin (num 2) (name 2) (type passive))))
    (libpart (lib Transistor_FET) (part TP0610T)
      (aliases
        (alias VP0610T)
        (alias BSS84)
        (alias NTR2101P)
        (alias BSS83P)
        (alias Si2319CDS)
        (alias IRLML6401)
        (alias IRLML6402)
        (alias DMG2301L)
        (alias AO3401A)
        (alias IRLML9301)
        (alias IRLML5203)
        (alias Si2371EDS)
        (alias TSM2301ACX)
        (alias FDN340P))
      (description "-0.18A Id, -60V Vds, P-Channel MOSFET, SOT-23")
      (docs http://www.vishay.com/docs/70209/70209.pdf)
      (footprints
        (fp SOT?23*))
      (fields
        (field (name Reference) Q)
        (field (name Value) TP0610T)
        (field (name Footprint) Package_TO_SOT_SMD:SOT-23))
      (pins
        (pin (num 1) (name G) (type input))
        (pin (num 2) (name S) (type passive))
        (pin (num 3) (name D) (type passive))))
    (libpart (lib conn) (part CONN_01X02)
      (description "Connector, single row, 01x02, pin header")
      (footprints
        (fp Pin_Header_Straight_1X*)
        (fp Pin_Header_Angled_1X*)
        (fp Socket_Strip_Straight_1X*)
        (fp Socket_Strip_Angled_1X*))
      (fields
        (field (name Reference) J)
        (field (name Value) CONN_01X02))
      (pins
        (pin (num 1) (name P1) (type passive))
        (pin (num 2) (name P2) (type passive)))))
  (libraries
    (library (logical Connector)
      (uri "D:\\Program Files\\KiCad\\share\\kicad\\library/Connector.lib"))
    (library (logical Device)
      (uri "D:\\Program Files\\KiCad\\share\\kicad\\library/Device.lib"))
    (library (logical Diode)
      (uri "D:\\Program Files\\KiCad\\share\\kicad\\library/Diode.lib"))
    (library (logical Interface_USB)
      (uri "D:\\Program Files\\KiCad\\share\\kicad\\library/Interface_USB.lib"))
    (library (logical LED)
      (uri "D:\\Program Files\\KiCad\\share\\kicad\\library/LED.lib"))
    (library (logical LED_Heart-rescue)
      (uri C:\Users\IchWerSonst\Documents\Hobby--Projekte\LED_Heart/LED_Heart-rescue.lib))
    (library (logical Mechanical)
      (uri "D:\\Program Files\\KiCad\\share\\kicad\\library/Mechanical.lib"))
    (library (logical Regulator_Linear)
      (uri "D:\\Program Files\\KiCad\\share\\kicad\\library/Regulator_Linear.lib"))
    (library (logical Sensor_Motion)
      (uri "D:\\Program Files\\KiCad\\share\\kicad\\library/Sensor_Motion.lib"))
    (library (logical Switch)
      (uri "D:\\Program Files\\KiCad\\share\\kicad\\library/Switch.lib"))
    (library (logical Transistor_FET)
      (uri "D:\\Program Files\\KiCad\\share\\kicad\\library/Transistor_FET.lib"))
    (library (logical conn)
      (uri "D:\\Program Files\\KiCad\\share\\kicad\\library/conn.lib")))
  (nets
    (net (code 1) (name GND)
      (node (ref C9) (pin 2))
      (node (ref U3) (pin 10))
      (node (ref C8) (pin 2))
      (node (ref U3) (pin 12))
      (node (ref C23) (pin 2))
      (node (ref C24) (pin 2))
      (node (ref C31) (pin 2))
      (node (ref U3) (pin 5))
      (node (ref SW2) (pin 1))
      (node (ref C15) (pin 2))
      (node (ref C7) (pin 2))
      (node (ref C6) (pin 2))
      (node (ref R6) (pin 2))
      (node (ref C26) (pin 2))
      (node (ref C5) (pin 2))
      (node (ref U1) (pin 2))
      (node (ref C2) (pin 2))
      (node (ref C3) (pin 2))
      (node (ref J3) (pin 6))
      (node (ref C32) (pin 2))
      (node (ref J9) (pin 2))
      (node (ref D104) (pin 4))
      (node (ref D107) (pin 4))
      (node (ref R3) (pin 2))
      (node (ref D116) (pin 4))
      (node (ref C19) (pin 2))
      (node (ref C11) (pin 2))
      (node (ref C29) (pin 2))
      (node (ref C20) (pin 2))
      (node (ref D119) (pin 4))
      (node (ref C21) (pin 2))
      (node (ref C22) (pin 2))
      (node (ref C14) (pin 2))
      (node (ref C18) (pin 2))
      (node (ref C16) (pin 2))
      (node (ref C17) (pin 2))
      (node (ref C30) (pin 2))
      (node (ref C25) (pin 2))
      (node (ref D6) (pin 1))
      (node (ref D106) (pin 3))
      (node (ref D108) (pin 3))
      (node (ref J12) (pin S1))
      (node (ref D109) (pin 3))
      (node (ref D110) (pin 3))
      (node (ref D111) (pin 3))
      (node (ref D105) (pin 3))
      (node (ref D101) (pin 3))
      (node (ref D102) (pin 3))
      (node (ref D103) (pin 3))
      (node (ref D112) (pin 3))
      (node (ref D113) (pin 3))
      (node (ref D114) (pin 3))
      (node (ref R10) (pin 2))
      (node (ref C28) (pin 2))
      (node (ref D117) (pin 3))
      (node (ref R9) (pin 2))
      (node (ref Y1) (pin 2))
      (node (ref Y1) (pin 4))
      (node (ref U4) (pin 1))
      (node (ref C12) (pin 2))
      (node (ref U2) (pin 2))
      (node (ref C1) (pin 2))
      (node (ref J12) (pin B12))
      (node (ref J12) (pin B1))
      (node (ref R7) (pin 2))
      (node (ref U5) (pin 5))
      (node (ref C27) (pin 2))
      (node (ref U5) (pin 21))
      (node (ref U5) (pin 3))
      (node (ref C4) (pin 2))
      (node (ref C13) (pin 2))
      (node (ref D121) (pin 3))
      (node (ref D115) (pin 3))
      (node (ref D120) (pin 3))
      (node (ref J12) (pin A12))
      (node (ref D118) (pin 3))
      (node (ref J12) (pin A1))
      (node (ref R11) (pin 2)))
    (net (code 2) (name "Net-(U4-Pad10)")
      (node (ref U4) (pin 10)))
    (net (code 3) (name "Net-(U4-Pad11)")
      (node (ref U4) (pin 11)))
    (net (code 4) (name +3V3)
      (node (ref U5) (pin 4))
      (node (ref C7) (pin 1))
      (node (ref U5) (pin 18))
      (node (ref C14) (pin 1))
      (node (ref U1) (pin 5))
      (node (ref C3) (pin 1))
      (node (ref U5) (pin 6))
      (node (ref R12) (pin 1))
      (node (ref J3) (pin 2))
      (node (ref R4) (pin 1))
      (node (ref C5) (pin 1))
      (node (ref C6) (pin 1))
      (node (ref U3) (pin 8))
      (node (ref U3) (pin 7))
      (node (ref U3) (pin 14))
      (node (ref C13) (pin 1))
      (node (ref R13) (pin 1))
      (node (ref U4) (pin 16))
      (node (ref U4) (pin 4))
      (node (ref R14) (pin 1))
      (node (ref U3) (pin 1))
      (node (ref C12) (pin 1)))
    (net (code 5) (name ACCEL_INT1)
      (node (ref U5) (pin 32))
      (node (ref U3) (pin 11)))
    (net (code 6) (name ACCEL_INT2)
      (node (ref U5) (pin 1))
      (node (ref U3) (pin 9)))
    (net (code 7) (name D9)
      (node (ref U5) (pin 13))
      (node (ref J2) (pin 1)))
    (net (code 8) (name D10)
      (node (ref U5) (pin 14))
      (node (ref J5) (pin 1)))
    (net (code 9) (name "Net-(U4-Pad12)")
      (node (ref U4) (pin 12)))
    (net (code 10) (name "Net-(D6-Pad2)")
      (node (ref D6) (pin 2))
      (node (ref R4) (pin 2)))
    (net (code 11) (name +5V)
      (node (ref C11) (pin 1))
      (node (ref J12) (pin B9))
      (node (ref D4) (pin 2))
      (node (ref Q1) (pin 1))
      (node (ref J12) (pin A4))
      (node (ref R1) (pin 1))
      (node (ref R2) (pin 1))
      (node (ref J12) (pin A9))
      (node (ref J12) (pin B4))
      (node (ref C1) (pin 1))
      (node (ref U2) (pin 4)))
    (net (code 12) (name "Net-(J12-PadA8)")
      (node (ref J12) (pin A8)))
    (net (code 13) (name "Net-(J12-PadB8)")
      (node (ref J12) (pin B8)))
    (net (code 14) (name "Net-(U4-Pad14)")
      (node (ref U4) (pin 14)))
    (net (code 15) (name "Net-(U4-Pad15)")
      (node (ref U4) (pin 15)))
    (net (code 16) (name RX_USB)
      (node (ref R16) (pin 1))
      (node (ref U4) (pin 3)))
    (net (code 17) (name "Net-(U4-Pad7)")
      (node (ref U4) (pin 7)))
    (net (code 18) (name "Net-(U4-Pad8)")
      (node (ref U4) (pin 8)))
    (net (code 19) (name "Net-(U4-Pad9)")
      (node (ref U4) (pin 9)))
    (net (code 20) (name USB_CC1)
      (node (ref J12) (pin A5))
      (node (ref R10) (pin 1)))
    (net (code 21) (name USB_CC2)
      (node (ref R11) (pin 1))
      (node (ref J12) (pin B5)))
    (net (code 22) (name I2C_SDA)
      (node (ref U3) (pin 6))
      (node (ref U5) (pin 27))
      (node (ref R13) (pin 2)))
    (net (code 23) (name I2C_SCL)
      (node (ref R14) (pin 2))
      (node (ref U5) (pin 28))
      (node (ref U3) (pin 4)))
    (net (code 24) (name "Net-(U3-Pad3)")
      (node (ref U3) (pin 3)))
    (net (code 25) (name "Net-(D101-Pad4)")
      (node (ref D101) (pin 4))
      (node (ref R18) (pin 1)))
    (net (code 26) (name "Net-(U3-Pad13)")
      (node (ref U3) (pin 13)))
    (net (code 27) (name "Net-(U3-Pad15)")
      (node (ref U3) (pin 15)))
    (net (code 28) (name "Net-(U3-Pad16)")
      (node (ref U3) (pin 16)))
    (net (code 29) (name "Net-(U3-Pad2)")
      (node (ref U3) (pin 2)))
    (net (code 30) (name VDD)
      (node (ref D118) (pin 1))
      (node (ref D121) (pin 1))
      (node (ref C28) (pin 1))
      (node (ref D120) (pin 1))
      (node (ref U1) (pin 1))
      (node (ref C2) (pin 1))
      (node (ref C27) (pin 1))
      (node (ref D117) (pin 1))
      (node (ref D110) (pin 1))
      (node (ref D115) (pin 1))
      (node (ref D111) (pin 1))
      (node (ref D107) (pin 2))
      (node (ref D112) (pin 1))
      (node (ref D113) (pin 1))
      (node (ref D104) (pin 2))
      (node (ref D114) (pin 1))
      (node (ref D116) (pin 2))
      (node (ref D103) (pin 1))
      (node (ref D102) (pin 1))
      (node (ref D101) (pin 1))
      (node (ref C18) (pin 1))
      (node (ref C32) (pin 1))
      (node (ref D119) (pin 2))
      (node (ref D106) (pin 1))
      (node (ref D105) (pin 1))
      (node (ref D4) (pin 1))
      (node (ref Q1) (pin 2))
      (node (ref D108) (pin 1))
      (node (ref SW1) (pin 1))
      (node (ref D109) (pin 1))
      (node (ref C20) (pin 1))
      (node (ref C21) (pin 1))
      (node (ref C22) (pin 1))
      (node (ref C19) (pin 1))
      (node (ref C16) (pin 1))
      (node (ref C17) (pin 1))
      (node (ref C29) (pin 1))
      (node (ref C31) (pin 1))
      (node (ref C30) (pin 1))
      (node (ref C25) (pin 1))
      (node (ref C26) (pin 1))
      (node (ref C24) (pin 1))
      (node (ref C23) (pin 1)))
    (net (code 31) (name "Net-(J11-Pad1)")
      (node (ref J11) (pin 1)))
    (net (code 32) (name "Net-(D2-Pad2)")
      (node (ref D2) (pin 2))
      (node (ref D3) (pin 2))
      (node (ref R1) (pin 2)))
    (net (code 33) (name "Net-(H1-Pad1)")
      (node (ref H1) (pin 1)))
    (net (code 34) (name USB_D+)
      (node (ref J12) (pin A6))
      (node (ref J12) (pin B6))
      (node (ref U4) (pin 5)))
    (net (code 35) (name USB_D-)
      (node (ref J12) (pin B7))
      (node (ref J12) (pin A7))
      (node (ref U4) (pin 6)))
    (net (code 36) (name "Net-(H2-Pad1)")
      (node (ref H2) (pin 1)))
    (net (code 37) (name VBAT)
      (node (ref Q1) (pin 3))
      (node (ref R8) (pin 1))
      (node (ref C4) (pin 1))
      (node (ref U2) (pin 3))
      (node (ref J9) (pin 1)))
    (net (code 38) (name MOSI)
      (node (ref J3) (pin 4))
      (node (ref U5) (pin 15)))
    (net (code 39) (name MISO)
      (node (ref U5) (pin 16))
      (node (ref J3) (pin 1)))
    (net (code 40) (name SCK)
      (node (ref J3) (pin 3))
      (node (ref U5) (pin 17)))
    (net (code 41) (name XTAL1)
      (node (ref C8) (pin 1))
      (node (ref Y1) (pin 1))
      (node (ref U5) (pin 7)))
    (net (code 42) (name XTAL2)
      (node (ref Y1) (pin 3))
      (node (ref U5) (pin 8))
      (node (ref C9) (pin 1)))
    (net (code 43) (name TOUCH_2)
      (node (ref U5) (pin 24))
      (node (ref J4) (pin 1)))
    (net (code 44) (name TOUCH_3)
      (node (ref J6) (pin 1))
      (node (ref U5) (pin 25)))
    (net (code 45) (name NRST)
      (node (ref J3) (pin 5))
      (node (ref R12) (pin 2))
      (node (ref U5) (pin 29))
      (node (ref SW2) (pin 2))
      (node (ref C10) (pin 1)))
    (net (code 46) (name RGB_SIDE)
      (node (ref U5) (pin 9))
      (node (ref R17) (pin 2)))
    (net (code 47) (name RGB_FRONT)
      (node (ref R18) (pin 2))
      (node (ref U5) (pin 10)))
    (net (code 48) (name "Net-(D107-Pad3)")
      (node (ref D107) (pin 3))
      (node (ref D116) (pin 1)))
    (net (code 49) (name "Net-(D103-Pad2)")
      (node (ref D105) (pin 4))
      (node (ref D103) (pin 2)))
    (net (code 50) (name "Net-(D104-Pad1)")
      (node (ref D104) (pin 1))
      (node (ref R17) (pin 1)))
    (net (code 51) (name "Net-(D106-Pad2)")
      (node (ref D106) (pin 2))
      (node (ref D108) (pin 4)))
    (net (code 52) (name "Net-(D104-Pad3)")
      (node (ref D104) (pin 3))
      (node (ref D107) (pin 1)))
    (net (code 53) (name "Net-(D115-Pad2)")
      (node (ref D117) (pin 4))
      (node (ref D115) (pin 2)))
    (net (code 54) (name "Net-(D118-Pad2)")
      (node (ref D120) (pin 4))
      (node (ref D118) (pin 2)))
    (net (code 55) (name "Net-(D119-Pad3)")
      (node (ref D119) (pin 3)))
    (net (code 56) (name "Net-(D116-Pad3)")
      (node (ref D119) (pin 1))
      (node (ref D116) (pin 3)))
    (net (code 57) (name USB_SENSE)
      (node (ref R3) (pin 1))
      (node (ref R2) (pin 2))
      (node (ref U5) (pin 2)))
    (net (code 58) (name TX_MCU)
      (node (ref R16) (pin 2))
      (node (ref U5) (pin 31)))
    (net (code 59) (name RX_MCU)
      (node (ref R15) (pin 2))
      (node (ref U5) (pin 30)))
    (net (code 60) (name TX_USB)
      (node (ref U4) (pin 2))
      (node (ref R15) (pin 1)))
    (net (code 61) (name "Net-(D1-Pad1)")
      (node (ref U1) (pin 3))
      (node (ref D1) (pin 1))
      (node (ref D5) (pin 1)))
    (net (code 62) (name PWR_EN)
      (node (ref U5) (pin 12))
      (node (ref D1) (pin 2)))
    (net (code 63) (name "Net-(D5-Pad2)")
      (node (ref R5) (pin 1))
      (node (ref SW1) (pin 2))
      (node (ref D5) (pin 2)))
    (net (code 64) (name PWR_SENSE)
      (node (ref R6) (pin 1))
      (node (ref R5) (pin 2))
      (node (ref U5) (pin 11)))
    (net (code 65) (name "Net-(U1-Pad4)")
      (node (ref U1) (pin 4)))
    (net (code 66) (name "Net-(C10-Pad2)")
      (node (ref C10) (pin 2))
      (node (ref U4) (pin 13)))
    (net (code 67) (name TOUCH_AUX_1)
      (node (ref U5) (pin 19))
      (node (ref J7) (pin 1)))
    (net (code 68) (name AREF)
      (node (ref U5) (pin 20))
      (node (ref C15) (pin 1)))
    (net (code 69) (name TOUCH_AUX_2)
      (node (ref J8) (pin 1))
      (node (ref U5) (pin 22)))
    (net (code 70) (name "Net-(D2-Pad1)")
      (node (ref D2) (pin 1))
      (node (ref U2) (pin 5)))
    (net (code 71) (name "Net-(D3-Pad1)")
      (node (ref D3) (pin 1))
      (node (ref U2) (pin 1)))
    (net (code 72) (name "Net-(R7-Pad1)")
      (node (ref R7) (pin 1))
      (node (ref U2) (pin 6)))
    (net (code 73) (name "Net-(D120-Pad2)")
      (node (ref D121) (pin 4))
      (node (ref D120) (pin 2)))
    (net (code 74) (name "Net-(D117-Pad2)")
      (node (ref D117) (pin 2))
      (node (ref D118) (pin 4)))
    (net (code 75) (name "Net-(D121-Pad2)")
      (node (ref D121) (pin 2)))
    (net (code 76) (name "Net-(D114-Pad2)")
      (node (ref D115) (pin 4))
      (node (ref D114) (pin 2)))
    (net (code 77) (name BAT_SENSE)
      (node (ref R9) (pin 1))
      (node (ref U5) (pin 26))
      (node (ref R8) (pin 2)))
    (net (code 78) (name "Net-(D109-Pad2)")
      (node (ref D110) (pin 4))
      (node (ref D109) (pin 2)))
    (net (code 79) (name "Net-(D105-Pad2)")
      (node (ref D106) (pin 4))
      (node (ref D105) (pin 2)))
    (net (code 80) (name "Net-(D108-Pad2)")
      (node (ref D109) (pin 4))
      (node (ref D108) (pin 2)))
    (net (code 81) (name "Net-(D102-Pad2)")
      (node (ref D103) (pin 4))
      (node (ref D102) (pin 2)))
    (net (code 82) (name "Net-(D110-Pad2)")
      (node (ref D110) (pin 2))
      (node (ref D111) (pin 4)))
    (net (code 83) (name "Net-(D111-Pad2)")
      (node (ref D111) (pin 2))
      (node (ref D112) (pin 4)))
    (net (code 84) (name TOUCH_1)
      (node (ref J1) (pin 1))
      (node (ref U5) (pin 23)))
    (net (code 85) (name "Net-(D101-Pad2)")
      (node (ref D101) (pin 2))
      (node (ref D102) (pin 4)))
    (net (code 86) (name "Net-(D112-Pad2)")
      (node (ref D113) (pin 4))
      (node (ref D112) (pin 2)))
    (net (code 87) (name "Net-(D113-Pad2)")
      (node (ref D114) (pin 4))
      (node (ref D113) (pin 2)))))