EESchema Schematic File Version 4
EELAYER 30 0
EELAYER END
$Descr A3 16535 11693
encoding utf-8
Sheet 1 1
Title "LED_Heart"
Date "2020-10-28"
Rev "1.0"
Comp "Septeract7"
Comment1 ""
Comment2 ""
Comment3 ""
Comment4 ""
$EndDescr
$Comp
L LED_Heart-rescue:ATMEGA328P-AU-atmel U5
U 1 1 5F99D20A
P 2600 5675
F 0 "U5" H 1850 6925 50  0000 L BNN
F 1 "ATMEGA328P-AU" H 2300 4275 50  0000 L BNN
F 2 "Housings_QFP:TQFP-32_7x7mm_Pitch0.8mm" H 2600 5675 50  0001 C CIN
F 3 "" H 2600 5675 50  0001 C CNN
	1    2600 5675
	1    0    0    -1  
$EndComp
Text GLabel 6075 6850 2    60   Input ~ 0
NRST
$Comp
L Switch:SW_Push SW2
U 1 1 5F9CBD80
P 5625 6850
F 0 "SW2" H 5625 7135 50  0000 C CNN
F 1 "SW_Push" H 5625 7044 50  0000 C CNN
F 2 "Button_Switch_THT:SW_PUSH_6mm" H 5625 7050 50  0001 C CNN
F 3 "~" H 5625 7050 50  0001 C CNN
	1    5625 6850
	1    0    0    -1  
$EndComp
$Comp
L power:GND #PWR041
U 1 1 5F9CCA39
P 5325 6925
F 0 "#PWR041" H 5325 6675 50  0001 C CNN
F 1 "GND" H 5330 6752 50  0000 C CNN
F 2 "" H 5325 6925 50  0001 C CNN
F 3 "" H 5325 6925 50  0001 C CNN
	1    5325 6925
	1    0    0    -1  
$EndComp
Wire Wire Line
	5325 6925 5325 6850
Wire Wire Line
	5325 6850 5425 6850
$Comp
L Device:C_Small C10
U 1 1 5F9D0AF8
P 14650 5700
F 0 "C10" V 14421 5700 50  0000 C CNN
F 1 "100nF" V 14512 5700 50  0000 C CNN
F 2 "Septeract7:C_0402_1005Metric_NOSILK" H 14650 5700 50  0001 C CNN
F 3 "~" H 14650 5700 50  0001 C CNN
	1    14650 5700
	0    1    1    0   
$EndComp
Wire Wire Line
	14550 5700 14325 5700
Text GLabel 14825 5700 2    60   Input ~ 0
NRST
Wire Wire Line
	14825 5700 14750 5700
$Comp
L power:GND #PWR037
U 1 1 5F9D6BA4
P 12075 6275
F 0 "#PWR037" H 12075 6025 50  0001 C CNN
F 1 "GND" H 12080 6102 50  0000 C CNN
F 2 "" H 12075 6275 50  0001 C CNN
F 3 "" H 12075 6275 50  0001 C CNN
	1    12075 6275
	1    0    0    -1  
$EndComp
$Comp
L power:GND #PWR035
U 1 1 5F9D76DD
P 13925 6075
F 0 "#PWR035" H 13925 5825 50  0001 C CNN
F 1 "GND" H 13930 5902 50  0000 C CNN
F 2 "" H 13925 6075 50  0001 C CNN
F 3 "" H 13925 6075 50  0001 C CNN
	1    13925 6075
	1    0    0    -1  
$EndComp
$Comp
L power:GND #PWR028
U 1 1 5F9E33B9
P 14250 4600
F 0 "#PWR028" H 14250 4350 50  0001 C CNN
F 1 "GND" H 14255 4427 50  0000 C CNN
F 2 "" H 14250 4600 50  0001 C CNN
F 3 "" H 14250 4600 50  0001 C CNN
	1    14250 4600
	1    0    0    -1  
$EndComp
Wire Wire Line
	14250 4550 14250 4600
Wire Wire Line
	14250 4300 13925 4300
Wire Wire Line
	14250 4350 14250 4300
$Comp
L Device:C_Small C7
U 1 1 5F9DFAF4
P 14250 4450
F 0 "C7" H 14342 4496 50  0000 L CNN
F 1 "100nF" H 14342 4405 50  0000 L CNN
F 2 "Septeract7:C_0402_1005Metric_NOSILK" H 14250 4450 50  0001 C CNN
F 3 "~" H 14250 4450 50  0001 C CNN
	1    14250 4450
	1    0    0    -1  
$EndComp
NoConn ~ 14325 5300
NoConn ~ 14325 5400
NoConn ~ 14325 5500
NoConn ~ 14325 5600
NoConn ~ 14325 5800
NoConn ~ 13525 5100
Text GLabel 3675 6175 2    50   Input ~ 0
RX_MCU
$Comp
L LED_Heart-rescue:TP4057-Septeract7 U2
U 1 1 5F9F5D3A
P 7450 2300
F 0 "U2" H 7150 2850 50  0000 C CNN
F 1 "TP4057" H 7450 2275 50  0000 C CNN
F 2 "Package_TO_SOT_SMD:SOT-23-6" H 7450 2300 50  0001 C CNN
F 3 "" H 7450 2300 50  0001 C CNN
	1    7450 2300
	1    0    0    -1  
$EndComp
$Comp
L power:+5V #PWR03
U 1 1 5F9F6E3C
P 7450 1150
F 0 "#PWR03" H 7450 1000 50  0001 C CNN
F 1 "+5V" H 7465 1323 50  0000 C CNN
F 2 "" H 7450 1150 50  0001 C CNN
F 3 "" H 7450 1150 50  0001 C CNN
	1    7450 1150
	1    0    0    -1  
$EndComp
$Comp
L Device:C_Small C1
U 1 1 5F9F7660
P 7775 1400
F 0 "C1" H 7867 1446 50  0000 L CNN
F 1 "1uF" H 7867 1355 50  0000 L CNN
F 2 "Septeract7:C_0402_1005Metric_NOSILK" H 7775 1400 50  0001 C CNN
F 3 "~" H 7775 1400 50  0001 C CNN
	1    7775 1400
	1    0    0    -1  
$EndComp
$Comp
L power:GND #PWR04
U 1 1 5F9F84E6
P 7775 1500
F 0 "#PWR04" H 7775 1250 50  0001 C CNN
F 1 "GND" H 7780 1327 50  0000 C CNN
F 2 "" H 7775 1500 50  0001 C CNN
F 3 "" H 7775 1500 50  0001 C CNN
	1    7775 1500
	1    0    0    -1  
$EndComp
$Comp
L power:GND #PWR019
U 1 1 5F9F8B4E
P 7450 3000
F 0 "#PWR019" H 7450 2750 50  0001 C CNN
F 1 "GND" H 7455 2827 50  0000 C CNN
F 2 "" H 7450 3000 50  0001 C CNN
F 3 "" H 7450 3000 50  0001 C CNN
	1    7450 3000
	1    0    0    -1  
$EndComp
$Comp
L power:GND #PWR020
U 1 1 5F9F9054
P 8150 3000
F 0 "#PWR020" H 8150 2750 50  0001 C CNN
F 1 "GND" H 8155 2827 50  0000 C CNN
F 2 "" H 8150 3000 50  0001 C CNN
F 3 "" H 8150 3000 50  0001 C CNN
	1    8150 3000
	1    0    0    -1  
$EndComp
Wire Wire Line
	7450 1150 7450 1250
Wire Wire Line
	7775 1300 7775 1250
Wire Wire Line
	7775 1250 7450 1250
Connection ~ 7450 1250
Wire Wire Line
	7450 1250 7450 1600
$Comp
L Device:R_Small R7
U 1 1 5F9FAD3A
P 8150 2800
F 0 "R7" H 8209 2846 50  0000 L CNN
F 1 "2k" H 8209 2755 50  0000 L CNN
F 2 "Septeract7:R_0402_1005Metric_NOSILK" H 8150 2800 50  0001 C CNN
F 3 "~" H 8150 2800 50  0001 C CNN
	1    8150 2800
	1    0    0    -1  
$EndComp
Wire Wire Line
	8025 2500 8150 2500
Wire Wire Line
	8150 2500 8150 2700
Wire Wire Line
	8150 2900 8150 3000
$Comp
L Device:C_Small C4
U 1 1 5F9FC65C
P 8650 2325
F 0 "C4" H 8742 2371 50  0000 L CNN
F 1 "10uF" H 8742 2280 50  0000 L CNN
F 2 "Septeract7:C_0603_1608Metric_NOSILK" H 8650 2325 50  0001 C CNN
F 3 "~" H 8650 2325 50  0001 C CNN
	1    8650 2325
	1    0    0    -1  
$EndComp
Wire Wire Line
	8025 2100 8650 2100
Wire Wire Line
	8650 2100 8650 2225
$Comp
L power:GND #PWR015
U 1 1 5F9FE354
P 8650 2550
F 0 "#PWR015" H 8650 2300 50  0001 C CNN
F 1 "GND" H 8655 2377 50  0000 C CNN
F 2 "" H 8650 2550 50  0001 C CNN
F 3 "" H 8650 2550 50  0001 C CNN
	1    8650 2550
	1    0    0    -1  
$EndComp
Connection ~ 8650 2100
Text GLabel 9250 2300 3    50   Input ~ 0
VBAT
Wire Wire Line
	8650 2425 8650 2550
$Comp
L Device:LED_Small D3
U 1 1 5FA005B7
P 6525 1800
F 0 "D3" V 6571 1730 50  0000 R CNN
F 1 "Red" V 6480 1730 50  0000 R CNN
F 2 "Septeract7:LED_0603_NOSILK" V 6525 1800 50  0001 C CNN
F 3 "~" V 6525 1800 50  0001 C CNN
	1    6525 1800
	0    -1   -1   0   
$EndComp
$Comp
L Device:LED_Small D2
U 1 1 5FA01F67
P 6025 1800
F 0 "D2" V 6071 1730 50  0000 R CNN
F 1 "Green" V 5980 1730 50  0000 R CNN
F 2 "Septeract7:LED_0603_NOSILK" V 6025 1800 50  0001 C CNN
F 3 "~" V 6025 1800 50  0001 C CNN
	1    6025 1800
	0    -1   -1   0   
$EndComp
$Comp
L power:+5V #PWR02
U 1 1 5FA0283D
P 6275 1150
F 0 "#PWR02" H 6275 1000 50  0001 C CNN
F 1 "+5V" H 6290 1323 50  0000 C CNN
F 2 "" H 6275 1150 50  0001 C CNN
F 3 "" H 6275 1150 50  0001 C CNN
	1    6275 1150
	1    0    0    -1  
$EndComp
Wire Wire Line
	6275 1150 6275 1300
Wire Wire Line
	6275 1500 6275 1575
Wire Wire Line
	6275 1575 6525 1575
Wire Wire Line
	6525 1575 6525 1700
Wire Wire Line
	6275 1575 6025 1575
Wire Wire Line
	6025 1575 6025 1700
Connection ~ 6275 1575
Wire Wire Line
	6875 2100 6525 2100
Wire Wire Line
	6525 2100 6525 1900
Wire Wire Line
	6025 1900 6025 2500
Wire Wire Line
	6025 2500 6875 2500
Text GLabel 3675 6275 2    50   Input ~ 0
TX_MCU
Text GLabel 14325 5000 2    50   Input ~ 0
TX_USB
Text GLabel 14325 5100 2    50   Input ~ 0
RX_USB
Wire Wire Line
	7500 7100 7625 7100
Wire Wire Line
	7500 6925 7625 6925
Text GLabel 7500 7100 0    50   Input ~ 0
TX_MCU
Text GLabel 7500 6925 0    50   Input ~ 0
RX_MCU
$Comp
L Device:R_Small R16
U 1 1 5F9D901B
P 7725 7100
F 0 "R16" V 7875 7100 50  0000 C CNN
F 1 "1K" V 7800 7100 50  0000 C CNN
F 2 "Septeract7:R_0402_1005Metric_NOSILK" H 7725 7100 50  0001 C CNN
F 3 "~" H 7725 7100 50  0001 C CNN
	1    7725 7100
	0    1    1    0   
$EndComp
$Comp
L Device:R_Small R15
U 1 1 5F9D8B5B
P 7725 6925
F 0 "R15" V 7550 6925 50  0000 C CNN
F 1 "1K" V 7620 6925 50  0000 C CNN
F 2 "Septeract7:R_0402_1005Metric_NOSILK" H 7725 6925 50  0001 C CNN
F 3 "~" H 7725 6925 50  0001 C CNN
	1    7725 6925
	0    1    1    0   
$EndComp
Text GLabel 7950 7100 2    50   Input ~ 0
RX_USB
Text GLabel 7950 6925 2    50   Input ~ 0
TX_USB
Text GLabel 3675 6775 2    50   Input ~ 0
RGB_FRONT
$Comp
L Device:C_Small C9
U 1 1 5FA3B8C5
P 6125 5450
F 0 "C9" H 6217 5496 50  0000 L CNN
F 1 "10pF" H 6217 5405 50  0000 L CNN
F 2 "Septeract7:C_0402_1005Metric_NOSILK" H 6125 5450 50  0001 C CNN
F 3 "~" H 6125 5450 50  0001 C CNN
	1    6125 5450
	1    0    0    -1  
$EndComp
$Comp
L Device:C_Small C8
U 1 1 5FA3C5E5
P 5175 5450
F 0 "C8" H 5267 5496 50  0000 L CNN
F 1 "10pF" H 5267 5405 50  0000 L CNN
F 2 "Septeract7:C_0402_1005Metric_NOSILK" H 5175 5450 50  0001 C CNN
F 3 "~" H 5175 5450 50  0001 C CNN
	1    5175 5450
	1    0    0    -1  
$EndComp
Wire Wire Line
	6125 5250 6125 5350
$Comp
L power:GND #PWR034
U 1 1 5FA3F5A0
P 5650 5775
F 0 "#PWR034" H 5650 5525 50  0001 C CNN
F 1 "GND" H 5655 5602 50  0000 C CNN
F 2 "" H 5650 5775 50  0001 C CNN
F 3 "" H 5650 5775 50  0001 C CNN
	1    5650 5775
	1    0    0    -1  
$EndComp
Wire Wire Line
	6125 5700 6125 5550
Wire Wire Line
	5650 5775 5650 5700
Wire Wire Line
	5175 5250 5175 5350
Wire Wire Line
	5175 5550 5175 5700
Connection ~ 6125 5250
Wire Wire Line
	6125 5250 6250 5250
Wire Wire Line
	5175 5250 5050 5250
Connection ~ 5175 5250
Text GLabel 5050 5250 0    50   Input ~ 0
XTAL1
Text GLabel 6250 5250 2    50   Input ~ 0
XTAL2
Text GLabel 3675 5175 2    50   Input ~ 0
XTAL1
Text GLabel 3675 5275 2    50   Input ~ 0
XTAL2
Text GLabel 3675 5075 2    50   Input ~ 0
SCK
Text GLabel 3675 4975 2    50   Input ~ 0
MISO
Text GLabel 3675 4875 2    50   Input ~ 0
MOSI
Text GLabel 11075 1575 0    50   Input ~ 0
MISO
Text GLabel 11575 1675 2    50   Input ~ 0
MOSI
Text GLabel 11075 1675 0    50   Input ~ 0
SCK
$Comp
L power:GND #PWR09
U 1 1 5FA5FD84
P 11675 1825
F 0 "#PWR09" H 11675 1575 50  0001 C CNN
F 1 "GND" H 11680 1652 50  0000 C CNN
F 2 "" H 11675 1825 50  0001 C CNN
F 3 "" H 11675 1825 50  0001 C CNN
	1    11675 1825
	1    0    0    -1  
$EndComp
Wire Wire Line
	11675 1825 11675 1775
Text GLabel 3675 6025 2    50   Input ~ 0
NRST
Text GLabel 11075 1775 0    50   Input ~ 0
NRST
$Comp
L power:GND #PWR042
U 1 1 5FA69ADE
P 1575 7025
F 0 "#PWR042" H 1575 6775 50  0001 C CNN
F 1 "GND" H 1580 6852 50  0000 C CNN
F 2 "" H 1575 7025 50  0001 C CNN
F 3 "" H 1575 7025 50  0001 C CNN
	1    1575 7025
	1    0    0    -1  
$EndComp
Wire Wire Line
	1700 6675 1575 6675
Wire Wire Line
	1575 6675 1575 6775
Wire Wire Line
	1700 6875 1575 6875
Connection ~ 1575 6875
Wire Wire Line
	1575 6875 1575 7025
Wire Wire Line
	1700 6775 1575 6775
Connection ~ 1575 6775
Wire Wire Line
	1575 6775 1575 6875
$Comp
L power:+3V3 #PWR024
U 1 1 5FA8870B
P 13925 4200
F 0 "#PWR024" H 13925 4050 50  0001 C CNN
F 1 "+3V3" H 13940 4373 50  0000 C CNN
F 2 "" H 13925 4200 50  0001 C CNN
F 3 "" H 13925 4200 50  0001 C CNN
	1    13925 4200
	1    0    0    -1  
$EndComp
Wire Wire Line
	13825 4800 13825 4700
Wire Wire Line
	13825 4700 13925 4700
Wire Wire Line
	13925 4700 13925 4800
Connection ~ 13925 4700
Connection ~ 13925 4300
Wire Wire Line
	13925 4300 13925 4700
Wire Wire Line
	13925 4200 13925 4300
Wire Wire Line
	11675 1525 11675 1575
Wire Wire Line
	7950 6925 7825 6925
Wire Wire Line
	7825 7100 7950 7100
$Comp
L Regulator_Linear:AP2112K-3.3 U1
U 1 1 5FAB3D70
P 3150 1675
F 0 "U1" H 3150 2017 50  0000 C CNN
F 1 "AP2112K-3.3" H 3150 1926 50  0000 C CNN
F 2 "Package_TO_SOT_SMD:SOT-23-5" H 3150 2000 50  0001 C CNN
F 3 "https://www.diodes.com/assets/Datasheets/AP2112.pdf" H 3150 1775 50  0001 C CNN
	1    3150 1675
	1    0    0    -1  
$EndComp
$Comp
L power:GND #PWR013
U 1 1 5FAB5C5D
P 3150 2075
F 0 "#PWR013" H 3150 1825 50  0001 C CNN
F 1 "GND" H 3155 1902 50  0000 C CNN
F 2 "" H 3150 2075 50  0001 C CNN
F 3 "" H 3150 2075 50  0001 C CNN
	1    3150 2075
	1    0    0    -1  
$EndComp
$Comp
L power:+3V3 #PWR08
U 1 1 5FABCEEF
P 4375 1575
F 0 "#PWR08" H 4375 1425 50  0001 C CNN
F 1 "+3V3" V 4390 1703 50  0000 L CNN
F 2 "" H 4375 1575 50  0001 C CNN
F 3 "" H 4375 1575 50  0001 C CNN
	1    4375 1575
	0    1    1    0   
$EndComp
Wire Wire Line
	2850 1575 2775 1575
$Comp
L Device:C_Small C2
U 1 1 5FAC05E5
P 2775 1850
F 0 "C2" H 2867 1896 50  0000 L CNN
F 1 "1uF" H 2867 1805 50  0000 L CNN
F 2 "Septeract7:C_0402_1005Metric_NOSILK" H 2775 1850 50  0001 C CNN
F 3 "~" H 2775 1850 50  0001 C CNN
	1    2775 1850
	1    0    0    -1  
$EndComp
Wire Wire Line
	2775 1575 2775 1750
Connection ~ 2775 1575
Wire Wire Line
	2775 1575 2675 1575
$Comp
L Device:C_Small C3
U 1 1 5FAC6F8E
P 3525 1850
F 0 "C3" H 3617 1896 50  0000 L CNN
F 1 "1uF" H 3617 1805 50  0000 L CNN
F 2 "Septeract7:C_0402_1005Metric_NOSILK" H 3525 1850 50  0001 C CNN
F 3 "~" H 3525 1850 50  0001 C CNN
	1    3525 1850
	1    0    0    -1  
$EndComp
Wire Wire Line
	3525 1575 3525 1750
$Comp
L power:GND #PWR014
U 1 1 5FACE0C9
P 3525 2075
F 0 "#PWR014" H 3525 1825 50  0001 C CNN
F 1 "GND" H 3530 1902 50  0000 C CNN
F 2 "" H 3525 2075 50  0001 C CNN
F 3 "" H 3525 2075 50  0001 C CNN
	1    3525 2075
	1    0    0    -1  
$EndComp
Wire Wire Line
	3525 1950 3525 2075
Wire Wire Line
	3150 1975 3150 2075
$Comp
L power:GND #PWR012
U 1 1 5FAD160B
P 2775 2075
F 0 "#PWR012" H 2775 1825 50  0001 C CNN
F 1 "GND" H 2780 1902 50  0000 C CNN
F 2 "" H 2775 2075 50  0001 C CNN
F 3 "" H 2775 2075 50  0001 C CNN
	1    2775 2075
	1    0    0    -1  
$EndComp
Wire Wire Line
	2775 1950 2775 2075
$Comp
L Switch:SW_Push SW1
U 1 1 5FAD5025
P 1250 1675
F 0 "SW1" H 1250 1960 50  0000 C CNN
F 1 "SW_Push" H 1250 1869 50  0000 C CNN
F 2 "Button_Switch_THT:SW_PUSH_6mm" H 1250 1875 50  0001 C CNN
F 3 "~" H 1250 1875 50  0001 C CNN
	1    1250 1675
	1    0    0    -1  
$EndComp
$Comp
L Diode:1N4148W D5
U 1 1 5FADB8CD
P 1750 1675
F 0 "D5" H 1750 1458 50  0000 C CNN
F 1 "1N4148WS" H 1750 1549 50  0000 C CNN
F 2 "Septeract7:D_SOD-323_NOSILK" H 1750 1500 50  0001 C CNN
F 3 "https://www.vishay.com/docs/85748/1n4148w.pdf" H 1750 1675 50  0001 C CNN
	1    1750 1675
	-1   0    0    1   
$EndComp
Wire Wire Line
	1450 1675 1525 1675
Wire Wire Line
	1900 1675 2100 1675
$Comp
L Diode:1N4148W D1
U 1 1 5FAE7BC3
P 2100 1400
F 0 "D1" V 2146 1320 50  0000 R CNN
F 1 "1N4148WS" V 2055 1320 50  0000 R CNN
F 2 "Septeract7:D_SOD-323_NOSILK" H 2100 1225 50  0001 C CNN
F 3 "https://www.vishay.com/docs/85748/1n4148w.pdf" H 2100 1400 50  0001 C CNN
	1    2100 1400
	0    -1   -1   0   
$EndComp
Wire Wire Line
	2100 1550 2100 1675
Connection ~ 2100 1675
Wire Wire Line
	2100 1675 2400 1675
Text GLabel 2100 1150 1    50   Input ~ 0
PWR_EN
Wire Wire Line
	2100 1150 2100 1250
$Comp
L Device:R_Small R5
U 1 1 5FAF0943
P 1525 1975
F 0 "R5" H 1584 2021 50  0000 L CNN
F 1 "10K" H 1584 1930 50  0000 L CNN
F 2 "Septeract7:R_0402_1005Metric_NOSILK" H 1525 1975 50  0001 C CNN
F 3 "~" H 1525 1975 50  0001 C CNN
	1    1525 1975
	1    0    0    -1  
$EndComp
$Comp
L Device:R_Small R6
U 1 1 5FAF0B1C
P 1525 2325
F 0 "R6" H 1584 2371 50  0000 L CNN
F 1 "15K" H 1584 2280 50  0000 L CNN
F 2 "Septeract7:R_0402_1005Metric_NOSILK" H 1525 2325 50  0001 C CNN
F 3 "~" H 1525 2325 50  0001 C CNN
	1    1525 2325
	1    0    0    -1  
$EndComp
$Comp
L power:GND #PWR017
U 1 1 5FAF0E7B
P 1525 2550
F 0 "#PWR017" H 1525 2300 50  0001 C CNN
F 1 "GND" H 1530 2377 50  0000 C CNN
F 2 "" H 1525 2550 50  0001 C CNN
F 3 "" H 1525 2550 50  0001 C CNN
	1    1525 2550
	1    0    0    -1  
$EndComp
Wire Wire Line
	1525 2550 1525 2425
Wire Wire Line
	1525 2225 1525 2150
Wire Wire Line
	1525 1875 1525 1675
Connection ~ 1525 1675
Wire Wire Line
	1525 1675 1600 1675
Text GLabel 1350 2150 0    50   Input ~ 0
PWR_SENSE
Wire Wire Line
	1350 2150 1525 2150
Connection ~ 1525 2150
Wire Wire Line
	1525 2150 1525 2075
Text GLabel 3675 6875 2    50   Input ~ 0
PWR_SENSE
Text GLabel 3675 4575 2    50   Input ~ 0
PWR_EN
Wire Wire Line
	3450 1575 3525 1575
Connection ~ 3525 1575
Text GLabel 3675 5425 2    50   Input ~ 0
TOUCH_1
Text GLabel 3675 5525 2    50   Input ~ 0
TOUCH_2
Text GLabel 3675 5625 2    50   Input ~ 0
TOUCH_3
Text GLabel 3675 5725 2    50   Input ~ 0
BAT_SENSE
$Comp
L LED_Heart-rescue:CONN_01X01-conn J1
U 1 1 5FAA68C2
P 13575 1250
F 0 "J1" H 13653 1291 50  0000 L CNN
F 1 "CONN_01X01" H 13653 1200 50  0000 L CNN
F 2 "Connector_Wire:SolderWire-1sqmm_1x01_D1.4mm_OD2.7mm" H 13575 1250 50  0001 C CNN
F 3 "" H 13575 1250 50  0001 C CNN
	1    13575 1250
	1    0    0    -1  
$EndComp
$Comp
L LED_Heart-rescue:CONN_01X01-conn J4
U 1 1 5FAA757F
P 13575 1500
F 0 "J4" H 13653 1541 50  0000 L CNN
F 1 "CONN_01X01" H 13653 1450 50  0000 L CNN
F 2 "Connector_Wire:SolderWire-1sqmm_1x01_D1.4mm_OD2.7mm" H 13575 1500 50  0001 C CNN
F 3 "" H 13575 1500 50  0001 C CNN
	1    13575 1500
	1    0    0    -1  
$EndComp
$Comp
L LED_Heart-rescue:CONN_01X01-conn J6
U 1 1 5FAA77B9
P 13575 1750
F 0 "J6" H 13653 1791 50  0000 L CNN
F 1 "CONN_01X01" H 13653 1700 50  0000 L CNN
F 2 "Connector_Wire:SolderWire-1sqmm_1x01_D1.4mm_OD2.7mm" H 13575 1750 50  0001 C CNN
F 3 "" H 13575 1750 50  0001 C CNN
	1    13575 1750
	1    0    0    -1  
$EndComp
Text GLabel 13375 1250 0    50   Input ~ 0
TOUCH_1
Text GLabel 13375 1500 0    50   Input ~ 0
TOUCH_2
Text GLabel 13375 1750 0    50   Input ~ 0
TOUCH_3
$Comp
L LED:WS2812B D101
U 1 1 5FAAD4A3
P 1700 8875
F 0 "D101" H 1750 9125 50  0000 L CNN
F 1 "WS2812B" H 1725 8625 50  0000 L CNN
F 2 "Septeract7:LED_WS2812B_PLCC4_5.0x5.0mm_P3.2mm_NOSILK" H 1750 8575 50  0001 L TNN
F 3 "https://cdn-shop.adafruit.com/datasheets/WS2812B.pdf" H 1800 8500 50  0001 L TNN
	1    1700 8875
	1    0    0    -1  
$EndComp
$Comp
L LED:WS2812B D102
U 1 1 5FAB2764
P 2300 8875
F 0 "D102" H 2350 9125 50  0000 L CNN
F 1 "WS2812B" H 2325 8625 50  0000 L CNN
F 2 "Septeract7:LED_WS2812B_PLCC4_5.0x5.0mm_P3.2mm_NOSILK" H 2350 8575 50  0001 L TNN
F 3 "https://cdn-shop.adafruit.com/datasheets/WS2812B.pdf" H 2400 8500 50  0001 L TNN
	1    2300 8875
	1    0    0    -1  
$EndComp
$Comp
L LED:WS2812B D103
U 1 1 5FAB4D16
P 2900 8875
F 0 "D103" H 2950 9125 50  0000 L CNN
F 1 "WS2812B" H 2925 8625 50  0000 L CNN
F 2 "Septeract7:LED_WS2812B_PLCC4_5.0x5.0mm_P3.2mm_NOSILK" H 2950 8575 50  0001 L TNN
F 3 "https://cdn-shop.adafruit.com/datasheets/WS2812B.pdf" H 3000 8500 50  0001 L TNN
	1    2900 8875
	1    0    0    -1  
$EndComp
Text GLabel 1100 8875 0    50   Input ~ 0
RGB_FRONT
Text Notes 3125 8075 0    50   ~ 0
Side LED\nBottom Right
$Comp
L LED:WS2812B D105
U 1 1 5FABFFAD
P 4700 8875
F 0 "D105" H 4750 9125 50  0000 L CNN
F 1 "WS2812B" H 4725 8625 50  0000 L CNN
F 2 "Septeract7:LED_WS2812B_PLCC4_5.0x5.0mm_P3.2mm_NOSILK" H 4750 8575 50  0001 L TNN
F 3 "https://cdn-shop.adafruit.com/datasheets/WS2812B.pdf" H 4800 8500 50  0001 L TNN
	1    4700 8875
	1    0    0    -1  
$EndComp
$Comp
L LED:WS2812B D106
U 1 1 5FABFFB3
P 5300 8875
F 0 "D106" H 5350 9125 50  0000 L CNN
F 1 "WS2812B" H 5325 8625 50  0000 L CNN
F 2 "Septeract7:LED_WS2812B_PLCC4_5.0x5.0mm_P3.2mm_NOSILK" H 5350 8575 50  0001 L TNN
F 3 "https://cdn-shop.adafruit.com/datasheets/WS2812B.pdf" H 5400 8500 50  0001 L TNN
	1    5300 8875
	1    0    0    -1  
$EndComp
Text Notes 5700 8075 0    50   ~ 0
Side LED\nTop Right
$Comp
L LED:WS2812B D108
U 1 1 5FACD6BB
P 7100 8875
F 0 "D108" H 7150 9125 50  0000 L CNN
F 1 "WS2812B" H 7125 8625 50  0000 L CNN
F 2 "Septeract7:LED_WS2812B_PLCC4_5.0x5.0mm_P3.2mm_NOSILK" H 7150 8575 50  0001 L TNN
F 3 "https://cdn-shop.adafruit.com/datasheets/WS2812B.pdf" H 7200 8500 50  0001 L TNN
	1    7100 8875
	1    0    0    -1  
$EndComp
$Comp
L LED:WS2812B D109
U 1 1 5FACD6C1
P 7700 8875
F 0 "D109" H 7750 9125 50  0000 L CNN
F 1 "WS2812B" H 7725 8625 50  0000 L CNN
F 2 "Septeract7:LED_WS2812B_PLCC4_5.0x5.0mm_P3.2mm_NOSILK" H 7750 8575 50  0001 L TNN
F 3 "https://cdn-shop.adafruit.com/datasheets/WS2812B.pdf" H 7800 8500 50  0001 L TNN
	1    7700 8875
	1    0    0    -1  
$EndComp
$Comp
L LED:WS2812B D110
U 1 1 5FAD2811
P 8300 8875
F 0 "D110" H 8350 9125 50  0000 L CNN
F 1 "WS2812B" H 8325 8625 50  0000 L CNN
F 2 "Septeract7:LED_WS2812B_PLCC4_5.0x5.0mm_P3.2mm_NOSILK" H 8350 8575 50  0001 L TNN
F 3 "https://cdn-shop.adafruit.com/datasheets/WS2812B.pdf" H 8400 8500 50  0001 L TNN
	1    8300 8875
	1    0    0    -1  
$EndComp
$Comp
L LED:WS2812B D111
U 1 1 5FAD2817
P 8900 8875
F 0 "D111" H 8950 9125 50  0000 L CNN
F 1 "WS2812B" H 8925 8625 50  0000 L CNN
F 2 "Septeract7:LED_WS2812B_PLCC4_5.0x5.0mm_P3.2mm_NOSILK" H 8950 8575 50  0001 L TNN
F 3 "https://cdn-shop.adafruit.com/datasheets/WS2812B.pdf" H 9000 8500 50  0001 L TNN
	1    8900 8875
	1    0    0    -1  
$EndComp
Wire Wire Line
	9200 8875 9450 8875
Wire Wire Line
	9450 8875 9450 9925
Wire Wire Line
	9450 9925 9225 9925
$Comp
L power:GND #PWR075
U 1 1 5FAE9F4A
P 8900 9175
F 0 "#PWR075" H 8900 8925 50  0001 C CNN
F 1 "GND" H 8905 9002 50  0000 C CNN
F 2 "" H 8900 9175 50  0001 C CNN
F 3 "" H 8900 9175 50  0001 C CNN
	1    8900 9175
	1    0    0    -1  
$EndComp
$Comp
L power:GND #PWR074
U 1 1 5FAEABA5
P 8300 9175
F 0 "#PWR074" H 8300 8925 50  0001 C CNN
F 1 "GND" H 8305 9002 50  0000 C CNN
F 2 "" H 8300 9175 50  0001 C CNN
F 3 "" H 8300 9175 50  0001 C CNN
	1    8300 9175
	1    0    0    -1  
$EndComp
$Comp
L power:GND #PWR073
U 1 1 5FAEAEE1
P 7700 9175
F 0 "#PWR073" H 7700 8925 50  0001 C CNN
F 1 "GND" H 7705 9002 50  0000 C CNN
F 2 "" H 7700 9175 50  0001 C CNN
F 3 "" H 7700 9175 50  0001 C CNN
	1    7700 9175
	1    0    0    -1  
$EndComp
$Comp
L power:GND #PWR072
U 1 1 5FAEB06E
P 7100 9175
F 0 "#PWR072" H 7100 8925 50  0001 C CNN
F 1 "GND" H 7105 9002 50  0000 C CNN
F 2 "" H 7100 9175 50  0001 C CNN
F 3 "" H 7100 9175 50  0001 C CNN
	1    7100 9175
	1    0    0    -1  
$EndComp
$Comp
L power:GND #PWR063
U 1 1 5FAEB2CC
P 6200 8600
F 0 "#PWR063" H 6200 8350 50  0001 C CNN
F 1 "GND" H 6205 8427 50  0000 C CNN
F 2 "" H 6200 8600 50  0001 C CNN
F 3 "" H 6200 8600 50  0001 C CNN
	1    6200 8600
	1    0    0    -1  
$EndComp
$Comp
L power:GND #PWR071
U 1 1 5FAEBC56
P 5300 9175
F 0 "#PWR071" H 5300 8925 50  0001 C CNN
F 1 "GND" H 5305 9002 50  0000 C CNN
F 2 "" H 5300 9175 50  0001 C CNN
F 3 "" H 5300 9175 50  0001 C CNN
	1    5300 9175
	1    0    0    -1  
$EndComp
$Comp
L power:GND #PWR070
U 1 1 5FAEBC5C
P 4700 9175
F 0 "#PWR070" H 4700 8925 50  0001 C CNN
F 1 "GND" H 4705 9002 50  0000 C CNN
F 2 "" H 4700 9175 50  0001 C CNN
F 3 "" H 4700 9175 50  0001 C CNN
	1    4700 9175
	1    0    0    -1  
$EndComp
$Comp
L power:GND #PWR068
U 1 1 5FAF02C4
P 2300 9175
F 0 "#PWR068" H 2300 8925 50  0001 C CNN
F 1 "GND" H 2305 9002 50  0000 C CNN
F 2 "" H 2300 9175 50  0001 C CNN
F 3 "" H 2300 9175 50  0001 C CNN
	1    2300 9175
	1    0    0    -1  
$EndComp
$Comp
L power:GND #PWR067
U 1 1 5FAF02CA
P 1700 9175
F 0 "#PWR067" H 1700 8925 50  0001 C CNN
F 1 "GND" H 1705 9002 50  0000 C CNN
F 2 "" H 1700 9175 50  0001 C CNN
F 3 "" H 1700 9175 50  0001 C CNN
	1    1700 9175
	1    0    0    -1  
$EndComp
$Comp
L power:GND #PWR062
U 1 1 5FAF46B0
P 3800 8600
F 0 "#PWR062" H 3800 8350 50  0001 C CNN
F 1 "GND" H 3805 8427 50  0000 C CNN
F 2 "" H 3800 8600 50  0001 C CNN
F 3 "" H 3800 8600 50  0001 C CNN
	1    3800 8600
	1    0    0    -1  
$EndComp
$Comp
L power:GND #PWR069
U 1 1 5FAF46B6
P 2900 9175
F 0 "#PWR069" H 2900 8925 50  0001 C CNN
F 1 "GND" H 2905 9002 50  0000 C CNN
F 2 "" H 2900 9175 50  0001 C CNN
F 3 "" H 2900 9175 50  0001 C CNN
	1    2900 9175
	1    0    0    -1  
$EndComp
$Comp
L LED:WS2812B D112
U 1 1 5FB17ADE
P 8925 9925
F 0 "D112" H 8975 10175 50  0000 L CNN
F 1 "WS2812B" H 8950 9675 50  0000 L CNN
F 2 "Septeract7:LED_WS2812B_PLCC4_5.0x5.0mm_P3.2mm_NOSILK" H 8975 9625 50  0001 L TNN
F 3 "https://cdn-shop.adafruit.com/datasheets/WS2812B.pdf" H 9025 9550 50  0001 L TNN
	1    8925 9925
	-1   0    0    1   
$EndComp
$Comp
L LED:WS2812B D113
U 1 1 5FB17AE4
P 8325 9925
F 0 "D113" H 8375 10175 50  0000 L CNN
F 1 "WS2812B" H 8350 9675 50  0000 L CNN
F 2 "Septeract7:LED_WS2812B_PLCC4_5.0x5.0mm_P3.2mm_NOSILK" H 8375 9625 50  0001 L TNN
F 3 "https://cdn-shop.adafruit.com/datasheets/WS2812B.pdf" H 8425 9550 50  0001 L TNN
	1    8325 9925
	-1   0    0    1   
$EndComp
$Comp
L LED:WS2812B D114
U 1 1 5FB17AEA
P 7725 9925
F 0 "D114" H 7775 10175 50  0000 L CNN
F 1 "WS2812B" H 7750 9675 50  0000 L CNN
F 2 "Septeract7:LED_WS2812B_PLCC4_5.0x5.0mm_P3.2mm_NOSILK" H 7775 9625 50  0001 L TNN
F 3 "https://cdn-shop.adafruit.com/datasheets/WS2812B.pdf" H 7825 9550 50  0001 L TNN
	1    7725 9925
	-1   0    0    1   
$EndComp
$Comp
L LED:WS2812B D115
U 1 1 5FB17AF0
P 7125 9925
F 0 "D115" H 7175 10175 50  0000 L CNN
F 1 "WS2812B" H 7150 9675 50  0000 L CNN
F 2 "Septeract7:LED_WS2812B_PLCC4_5.0x5.0mm_P3.2mm_NOSILK" H 7175 9625 50  0001 L TNN
F 3 "https://cdn-shop.adafruit.com/datasheets/WS2812B.pdf" H 7225 9550 50  0001 L TNN
	1    7125 9925
	-1   0    0    1   
$EndComp
$Comp
L power:GND #PWR082
U 1 1 5FB17AF6
P 7125 9625
F 0 "#PWR082" H 7125 9375 50  0001 C CNN
F 1 "GND" H 7130 9452 50  0000 C CNN
F 2 "" H 7125 9625 50  0001 C CNN
F 3 "" H 7125 9625 50  0001 C CNN
	1    7125 9625
	-1   0    0    1   
$EndComp
$Comp
L power:GND #PWR083
U 1 1 5FB17AFC
P 7725 9625
F 0 "#PWR083" H 7725 9375 50  0001 C CNN
F 1 "GND" H 7730 9452 50  0000 C CNN
F 2 "" H 7725 9625 50  0001 C CNN
F 3 "" H 7725 9625 50  0001 C CNN
	1    7725 9625
	-1   0    0    1   
$EndComp
$Comp
L power:GND #PWR084
U 1 1 5FB17B02
P 8325 9625
F 0 "#PWR084" H 8325 9375 50  0001 C CNN
F 1 "GND" H 8330 9452 50  0000 C CNN
F 2 "" H 8325 9625 50  0001 C CNN
F 3 "" H 8325 9625 50  0001 C CNN
	1    8325 9625
	-1   0    0    1   
$EndComp
$Comp
L power:GND #PWR085
U 1 1 5FB17B08
P 8925 9625
F 0 "#PWR085" H 8925 9375 50  0001 C CNN
F 1 "GND" H 8930 9452 50  0000 C CNN
F 2 "" H 8925 9625 50  0001 C CNN
F 3 "" H 8925 9625 50  0001 C CNN
	1    8925 9625
	-1   0    0    1   
$EndComp
$Comp
L power:GND #PWR087
U 1 1 5FB1C829
P 6225 10175
F 0 "#PWR087" H 6225 9925 50  0001 C CNN
F 1 "GND" H 6125 10175 50  0000 C CNN
F 2 "" H 6225 10175 50  0001 C CNN
F 3 "" H 6225 10175 50  0001 C CNN
	1    6225 10175
	-1   0    0    1   
$EndComp
$Comp
L LED:WS2812B D117
U 1 1 5FB23481
P 5300 9925
F 0 "D117" H 5350 10175 50  0000 L CNN
F 1 "WS2812B" H 5325 9675 50  0000 L CNN
F 2 "Septeract7:LED_WS2812B_PLCC4_5.0x5.0mm_P3.2mm_NOSILK" H 5350 9625 50  0001 L TNN
F 3 "https://cdn-shop.adafruit.com/datasheets/WS2812B.pdf" H 5400 9550 50  0001 L TNN
	1    5300 9925
	-1   0    0    1   
$EndComp
$Comp
L LED:WS2812B D118
U 1 1 5FB23487
P 4700 9925
F 0 "D118" H 4750 10175 50  0000 L CNN
F 1 "WS2812B" H 4725 9675 50  0000 L CNN
F 2 "Septeract7:LED_WS2812B_PLCC4_5.0x5.0mm_P3.2mm_NOSILK" H 4750 9625 50  0001 L TNN
F 3 "https://cdn-shop.adafruit.com/datasheets/WS2812B.pdf" H 4800 9550 50  0001 L TNN
	1    4700 9925
	-1   0    0    1   
$EndComp
$Comp
L power:GND #PWR080
U 1 1 5FB2348D
P 4700 9625
F 0 "#PWR080" H 4700 9375 50  0001 C CNN
F 1 "GND" H 4705 9452 50  0000 C CNN
F 2 "" H 4700 9625 50  0001 C CNN
F 3 "" H 4700 9625 50  0001 C CNN
	1    4700 9625
	-1   0    0    1   
$EndComp
$Comp
L power:GND #PWR081
U 1 1 5FB23493
P 5300 9625
F 0 "#PWR081" H 5300 9375 50  0001 C CNN
F 1 "GND" H 5305 9452 50  0000 C CNN
F 2 "" H 5300 9625 50  0001 C CNN
F 3 "" H 5300 9625 50  0001 C CNN
	1    5300 9625
	-1   0    0    1   
$EndComp
$Comp
L power:GND #PWR086
U 1 1 5FB2837C
P 3825 10175
F 0 "#PWR086" H 3825 9925 50  0001 C CNN
F 1 "GND" H 3725 10175 50  0000 C CNN
F 2 "" H 3825 10175 50  0001 C CNN
F 3 "" H 3825 10175 50  0001 C CNN
	1    3825 10175
	-1   0    0    1   
$EndComp
$Comp
L LED:WS2812B D120
U 1 1 5FB38F83
P 2900 9925
F 0 "D120" H 2950 10175 50  0000 L CNN
F 1 "WS2812B" H 2925 9675 50  0000 L CNN
F 2 "Septeract7:LED_WS2812B_PLCC4_5.0x5.0mm_P3.2mm_NOSILK" H 2950 9625 50  0001 L TNN
F 3 "https://cdn-shop.adafruit.com/datasheets/WS2812B.pdf" H 3000 9550 50  0001 L TNN
	1    2900 9925
	-1   0    0    1   
$EndComp
$Comp
L LED:WS2812B D121
U 1 1 5FB38F89
P 2300 9925
F 0 "D121" H 2350 10175 50  0000 L CNN
F 1 "WS2812B" H 2325 9675 50  0000 L CNN
F 2 "Septeract7:LED_WS2812B_PLCC4_5.0x5.0mm_P3.2mm_NOSILK" H 2350 9625 50  0001 L TNN
F 3 "https://cdn-shop.adafruit.com/datasheets/WS2812B.pdf" H 2400 9550 50  0001 L TNN
	1    2300 9925
	-1   0    0    1   
$EndComp
$Comp
L power:GND #PWR078
U 1 1 5FB38F95
P 2300 9625
F 0 "#PWR078" H 2300 9375 50  0001 C CNN
F 1 "GND" H 2305 9452 50  0000 C CNN
F 2 "" H 2300 9625 50  0001 C CNN
F 3 "" H 2300 9625 50  0001 C CNN
	1    2300 9625
	-1   0    0    1   
$EndComp
$Comp
L power:GND #PWR079
U 1 1 5FB38F9B
P 2900 9625
F 0 "#PWR079" H 2900 9375 50  0001 C CNN
F 1 "GND" H 2905 9452 50  0000 C CNN
F 2 "" H 2900 9625 50  0001 C CNN
F 3 "" H 2900 9625 50  0001 C CNN
	1    2900 9625
	-1   0    0    1   
$EndComp
Text Notes 6400 10850 0    50   ~ 0
Side LED\nTop Left
Text Notes 4000 10850 0    50   ~ 0
Side LED\nBottom Left
NoConn ~ 2000 9925
Text Notes 625  7800 0    118  ~ 0
LEDs
$Comp
L power:+3V3 #PWR038
U 1 1 5FB83182
P 5950 6375
F 0 "#PWR038" H 5950 6225 50  0001 C CNN
F 1 "+3V3" H 5965 6548 50  0000 C CNN
F 2 "" H 5950 6375 50  0001 C CNN
F 3 "" H 5950 6375 50  0001 C CNN
	1    5950 6375
	1    0    0    -1  
$EndComp
Wire Wire Line
	5825 6850 5950 6850
$Comp
L Device:R_Small R12
U 1 1 5FB8391C
P 5950 6550
F 0 "R12" H 5800 6600 50  0000 L CNN
F 1 "1K" H 5800 6500 50  0000 L CNN
F 2 "Septeract7:R_0402_1005Metric_NOSILK" H 5950 6550 50  0001 C CNN
F 3 "~" H 5950 6550 50  0001 C CNN
	1    5950 6550
	1    0    0    -1  
$EndComp
Wire Wire Line
	5950 6375 5950 6450
Wire Wire Line
	5950 6650 5950 6850
Connection ~ 5950 6850
Wire Wire Line
	5950 6850 6075 6850
$Comp
L power:VDD #PWR06
U 1 1 5FB8DBB7
P 2675 1350
F 0 "#PWR06" H 2675 1200 50  0001 C CNN
F 1 "VDD" H 2690 1523 50  0000 C CNN
F 2 "" H 2675 1350 50  0001 C CNN
F 3 "" H 2675 1350 50  0001 C CNN
	1    2675 1350
	1    0    0    -1  
$EndComp
Wire Wire Line
	2675 1350 2675 1575
$Comp
L power:VDD #PWR07
U 1 1 5FB93978
P 925 1375
F 0 "#PWR07" H 925 1225 50  0001 C CNN
F 1 "VDD" H 940 1548 50  0000 C CNN
F 2 "" H 925 1375 50  0001 C CNN
F 3 "" H 925 1375 50  0001 C CNN
	1    925  1375
	1    0    0    -1  
$EndComp
Wire Wire Line
	925  1375 925  1675
Wire Wire Line
	925  1675 1050 1675
Wire Wire Line
	9250 2100 9250 2300
Wire Wire Line
	8650 2100 9250 2100
$Comp
L power:VDD #PWR011
U 1 1 5FBA3D8F
P 10250 2100
F 0 "#PWR011" H 10250 1950 50  0001 C CNN
F 1 "VDD" V 10265 2228 50  0000 L CNN
F 2 "" H 10250 2100 50  0001 C CNN
F 3 "" H 10250 2100 50  0001 C CNN
	1    10250 2100
	0    1    1    0   
$EndComp
$Comp
L Transistor_FET:IRLML6401 Q1
U 1 1 5FADDF93
P 9550 2000
F 0 "Q1" V 9799 2000 50  0000 C CNN
F 1 "IRLML6401" V 9890 2000 50  0000 C CNN
F 2 "Package_TO_SOT_SMD:SOT-23" H 9750 1925 50  0001 L CIN
F 3 "https://www.infineon.com/dgdl/irlml6401pbf.pdf?fileId=5546d462533600a401535668b96d2634" H 9550 2000 50  0001 L CNN
	1    9550 2000
	0    -1   1    0   
$EndComp
Wire Wire Line
	9350 2100 9250 2100
Connection ~ 9250 2100
$Comp
L Diode:1N5817 D4
U 1 1 5FAE620D
P 10000 1850
F 0 "D4" V 10046 1770 50  0000 R CNN
F 1 "1N5817" V 9955 1770 50  0000 R CNN
F 2 "Septeract7:D_SOD-323_NOSILK" H 10000 1675 50  0001 C CNN
F 3 "http://www.vishay.com/docs/88525/1n5817.pdf" H 10000 1850 50  0001 C CNN
	1    10000 1850
	0    -1   -1   0   
$EndComp
Wire Wire Line
	9750 2100 10000 2100
Wire Wire Line
	10000 2100 10000 2000
Wire Wire Line
	10000 2100 10250 2100
Connection ~ 10000 2100
Wire Wire Line
	10000 1700 10000 1250
Wire Wire Line
	10000 1250 9550 1250
Wire Wire Line
	9550 1250 9550 1800
$Comp
L power:GND #PWR010
U 1 1 5FAFB8FA
P 9025 1875
F 0 "#PWR010" H 9025 1625 50  0001 C CNN
F 1 "GND" H 9030 1702 50  0000 C CNN
F 2 "" H 9025 1875 50  0001 C CNN
F 3 "" H 9025 1875 50  0001 C CNN
	1    9025 1875
	1    0    0    -1  
$EndComp
Wire Wire Line
	9025 1250 9550 1250
Connection ~ 9550 1250
Wire Wire Line
	9025 1250 9025 1050
$Comp
L power:+5V #PWR01
U 1 1 5FB0C4E4
P 9025 1050
F 0 "#PWR01" H 9025 900 50  0001 C CNN
F 1 "+5V" H 9040 1223 50  0000 C CNN
F 2 "" H 9025 1050 50  0001 C CNN
F 3 "" H 9025 1050 50  0001 C CNN
	1    9025 1050
	1    0    0    -1  
$EndComp
$Comp
L Device:R_Small R9
U 1 1 5FB15CF3
P 6125 4625
F 0 "R9" H 5975 4675 50  0000 L CNN
F 1 "15k" H 5975 4575 50  0000 L CNN
F 2 "Septeract7:R_0402_1005Metric_NOSILK" H 6125 4625 50  0001 C CNN
F 3 "~" H 6125 4625 50  0001 C CNN
	1    6125 4625
	1    0    0    -1  
$EndComp
$Comp
L power:GND #PWR031
U 1 1 5FB15EF1
P 6125 4800
F 0 "#PWR031" H 6125 4550 50  0001 C CNN
F 1 "GND" H 6130 4627 50  0000 C CNN
F 2 "" H 6125 4800 50  0001 C CNN
F 3 "" H 6125 4800 50  0001 C CNN
	1    6125 4800
	1    0    0    -1  
$EndComp
Text GLabel 5800 4475 0    50   Input ~ 0
BAT_SENSE
Wire Wire Line
	6125 4125 6125 4225
Wire Wire Line
	6125 4425 6125 4475
Wire Wire Line
	6125 4725 6125 4800
Wire Wire Line
	5800 4475 6125 4475
Connection ~ 6125 4475
Wire Wire Line
	6125 4475 6125 4525
$Comp
L Device:R_Small R8
U 1 1 5FB156BB
P 6125 4325
F 0 "R8" H 5975 4375 50  0000 L CNN
F 1 "10k" H 5975 4275 50  0000 L CNN
F 2 "Septeract7:R_0402_1005Metric_NOSILK" H 6125 4325 50  0001 C CNN
F 3 "~" H 6125 4325 50  0001 C CNN
	1    6125 4325
	1    0    0    -1  
$EndComp
Text GLabel 3675 5825 2    50   Input ~ 0
I2C_SDA
Text GLabel 3675 5925 2    50   Input ~ 0
I2C_SCL
Text Notes 525  775  0    118  ~ 0
On/Off switch & 3.3V regulator
Text Notes 5950 825  0    118  ~ 0
Battery management & voltage selector
Wire Notes Line
	475  3500 16075 3500
Text Notes 10775 800  0    118  ~ 0
Connectors / Touch pads
Wire Notes Line
	10675 475  10675 3500
Wire Notes Line
	5800 475  5800 3500
Text Notes 725  3825 0    118  ~ 0
MCU
Wire Notes Line
	11250 3500 11250 7500
Text Notes 11425 3775 0    118  ~ 0
USB
Wire Notes Line
	10225 7500 10225 11225
$Comp
L power:GND #PWR065
U 1 1 5FBE2E8F
P 11250 8850
F 0 "#PWR065" H 11250 8600 50  0001 C CNN
F 1 "GND" H 11255 8677 50  0000 C CNN
F 2 "" H 11250 8850 50  0001 C CNN
F 3 "" H 11250 8850 50  0001 C CNN
	1    11250 8850
	1    0    0    -1  
$EndComp
$Comp
L Device:C_Small C15
U 1 1 5FBE2E96
P 11250 8650
F 0 "C15" H 11342 8696 50  0000 L CNN
F 1 "100nF" H 11342 8605 50  0000 L CNN
F 2 "Septeract7:C_0402_1005Metric_NOSILK" H 11250 8650 50  0001 C CNN
F 3 "~" H 11250 8650 50  0001 C CNN
	1    11250 8650
	1    0    0    -1  
$EndComp
Text Notes 10450 7825 0    118  ~ 0
Caps
Text GLabel 1700 5175 0    50   Input ~ 0
AREF
Text GLabel 11250 8475 1    50   Input ~ 0
AREF
Text GLabel 9500 7075 0    50   Input ~ 0
I2C_SDA
$Comp
L power:+3V3 #PWR043
U 1 1 5FBFAC1A
P 9650 6700
F 0 "#PWR043" H 9650 6550 50  0001 C CNN
F 1 "+3V3" H 9665 6873 50  0000 C CNN
F 2 "" H 9650 6700 50  0001 C CNN
F 3 "" H 9650 6700 50  0001 C CNN
	1    9650 6700
	1    0    0    -1  
$EndComp
$Comp
L Device:R_Small R13
U 1 1 5FBFAC20
P 9650 6875
F 0 "R13" H 9500 6925 50  0000 L CNN
F 1 "10K" H 9500 6825 50  0000 L CNN
F 2 "Septeract7:R_0402_1005Metric_NOSILK" H 9650 6875 50  0001 C CNN
F 3 "~" H 9650 6875 50  0001 C CNN
	1    9650 6875
	1    0    0    -1  
$EndComp
Wire Wire Line
	9650 6700 9650 6775
Wire Wire Line
	9650 6975 9650 7075
Wire Wire Line
	9650 7075 9500 7075
Text GLabel 10250 7075 0    50   Input ~ 0
I2C_SCL
$Comp
L power:+3V3 #PWR044
U 1 1 5FC0E950
P 10400 6700
F 0 "#PWR044" H 10400 6550 50  0001 C CNN
F 1 "+3V3" H 10415 6873 50  0000 C CNN
F 2 "" H 10400 6700 50  0001 C CNN
F 3 "" H 10400 6700 50  0001 C CNN
	1    10400 6700
	1    0    0    -1  
$EndComp
$Comp
L Device:R_Small R14
U 1 1 5FC0E956
P 10400 6875
F 0 "R14" H 10250 6925 50  0000 L CNN
F 1 "10K" H 10250 6825 50  0000 L CNN
F 2 "Septeract7:R_0402_1005Metric_NOSILK" H 10400 6875 50  0001 C CNN
F 3 "~" H 10400 6875 50  0001 C CNN
	1    10400 6875
	1    0    0    -1  
$EndComp
Wire Wire Line
	10400 6700 10400 6775
Wire Wire Line
	10400 6975 10400 7075
Wire Wire Line
	10400 7075 10250 7075
$Comp
L power:+3V3 #PWR026
U 1 1 5FC14DB3
P 1500 4350
F 0 "#PWR026" H 1500 4200 50  0001 C CNN
F 1 "+3V3" H 1515 4523 50  0000 C CNN
F 2 "" H 1500 4350 50  0001 C CNN
F 3 "" H 1500 4350 50  0001 C CNN
	1    1500 4350
	1    0    0    -1  
$EndComp
Wire Wire Line
	1700 4875 1500 4875
Wire Wire Line
	1500 4875 1500 4675
Wire Wire Line
	1700 4675 1500 4675
Connection ~ 1500 4675
Wire Wire Line
	1500 4675 1500 4575
Wire Wire Line
	1700 4575 1500 4575
Connection ~ 1500 4575
Wire Wire Line
	1500 4575 1500 4350
$Comp
L power:+3V3 #PWR046
U 1 1 5FC2BFC9
P 11950 8150
F 0 "#PWR046" H 11950 8000 50  0001 C CNN
F 1 "+3V3" H 11965 8323 50  0000 C CNN
F 2 "" H 11950 8150 50  0001 C CNN
F 3 "" H 11950 8150 50  0001 C CNN
	1    11950 8150
	1    0    0    -1  
$EndComp
$Comp
L Device:C_Small C12
U 1 1 5FC2CA2F
P 11700 8475
F 0 "C12" H 11792 8521 50  0000 L CNN
F 1 "1uF" H 11792 8430 50  0000 L CNN
F 2 "Septeract7:C_0402_1005Metric_NOSILK" H 11700 8475 50  0001 C CNN
F 3 "~" H 11700 8475 50  0001 C CNN
	1    11700 8475
	1    0    0    -1  
$EndComp
$Comp
L Device:C_Small C13
U 1 1 5FC2D9CD
P 12200 8475
F 0 "C13" H 12292 8521 50  0000 L CNN
F 1 "1uF" H 12292 8430 50  0000 L CNN
F 2 "Septeract7:C_0402_1005Metric_NOSILK" H 12200 8475 50  0001 C CNN
F 3 "~" H 12200 8475 50  0001 C CNN
	1    12200 8475
	1    0    0    -1  
$EndComp
Wire Wire Line
	11950 8150 11950 8300
Wire Wire Line
	11950 8300 11700 8300
Wire Wire Line
	11950 8300 12200 8300
Connection ~ 11950 8300
$Comp
L power:GND #PWR051
U 1 1 5FC3DB58
P 11950 8700
F 0 "#PWR051" H 11950 8450 50  0001 C CNN
F 1 "GND" H 11955 8527 50  0000 C CNN
F 2 "" H 11950 8700 50  0001 C CNN
F 3 "" H 11950 8700 50  0001 C CNN
	1    11950 8700
	1    0    0    -1  
$EndComp
Wire Wire Line
	11700 8675 11950 8675
Wire Wire Line
	11950 8675 11950 8700
Wire Wire Line
	11950 8675 12200 8675
Connection ~ 11950 8675
Wire Wire Line
	11250 8750 11250 8850
Wire Wire Line
	11250 8550 11250 8475
Wire Wire Line
	11700 8575 11700 8675
Wire Wire Line
	12200 8575 12200 8675
Wire Wire Line
	12200 8375 12200 8300
Wire Wire Line
	11700 8300 11700 8375
$Comp
L Device:C_Small C27
U 1 1 5FC80AAC
P 13750 9550
F 0 "C27" H 13842 9596 50  0000 L CNN
F 1 "10uF" H 13842 9505 50  0000 L CNN
F 2 "Septeract7:C_0603_1608Metric_NOSILK" H 13750 9550 50  0001 C CNN
F 3 "~" H 13750 9550 50  0001 C CNN
	1    13750 9550
	1    0    0    -1  
$EndComp
$Comp
L Device:C_Small C28
U 1 1 5FC80AB2
P 14150 9550
F 0 "C28" H 14242 9596 50  0000 L CNN
F 1 "10uF" H 14242 9505 50  0000 L CNN
F 2 "Septeract7:C_0603_1608Metric_NOSILK" H 14150 9550 50  0001 C CNN
F 3 "~" H 14150 9550 50  0001 C CNN
	1    14150 9550
	1    0    0    -1  
$EndComp
$Comp
L power:GND #PWR077
U 1 1 5FC80ABC
P 13950 9650
F 0 "#PWR077" H 13950 9400 50  0001 C CNN
F 1 "GND" H 13955 9477 50  0000 C CNN
F 2 "" H 13950 9650 50  0001 C CNN
F 3 "" H 13950 9650 50  0001 C CNN
	1    13950 9650
	1    0    0    -1  
$EndComp
$Comp
L Device:R_Small R18
U 1 1 5FC890CC
P 1250 8875
F 0 "R18" H 1100 8925 50  0000 L CNN
F 1 "0" H 1100 8825 50  0000 L CNN
F 2 "Septeract7:R_0402_1005Metric_NOSILK" H 1250 8875 50  0001 C CNN
F 3 "~" H 1250 8875 50  0001 C CNN
	1    1250 8875
	0    1    1    0   
$EndComp
Wire Wire Line
	1100 8875 1150 8875
Wire Wire Line
	1350 8875 1400 8875
$Comp
L Sensor_Motion:LIS3DH U3
U 1 1 5FC9C622
P 9725 4950
F 0 "U3" H 10025 5425 50  0000 C CNN
F 1 "LIS3DH" H 9950 4400 50  0000 C CNN
F 2 "Package_LGA:LGA-16_3x3mm_P0.5mm_LayoutBorder3x5y" H 9825 3900 50  0001 C CNN
F 3 "https://www.st.com/resource/en/datasheet/cd00274221.pdf" H 9525 4850 50  0001 C CNN
	1    9725 4950
	1    0    0    -1  
$EndComp
NoConn ~ 10225 4850
NoConn ~ 10225 4950
NoConn ~ 10225 5050
$Comp
L power:+3V3 #PWR025
U 1 1 5FCBFC0E
P 9825 4250
F 0 "#PWR025" H 9825 4100 50  0001 C CNN
F 1 "+3V3" H 9840 4423 50  0000 C CNN
F 2 "" H 9825 4250 50  0001 C CNN
F 3 "" H 9825 4250 50  0001 C CNN
	1    9825 4250
	1    0    0    -1  
$EndComp
Wire Wire Line
	9825 4250 9825 4350
Wire Wire Line
	9825 4350 9625 4350
Wire Wire Line
	9625 4350 9625 4450
Connection ~ 9825 4350
Wire Wire Line
	9825 4350 9825 4450
$Comp
L power:+3V3 #PWR023
U 1 1 5FCD6685
P 10575 3875
F 0 "#PWR023" H 10575 3725 50  0001 C CNN
F 1 "+3V3" H 10590 4048 50  0000 C CNN
F 2 "" H 10575 3875 50  0001 C CNN
F 3 "" H 10575 3875 50  0001 C CNN
	1    10575 3875
	1    0    0    -1  
$EndComp
$Comp
L Device:C_Small C5
U 1 1 5FCD668B
P 10325 4200
F 0 "C5" H 10417 4246 50  0000 L CNN
F 1 "10uF" H 10417 4155 50  0000 L CNN
F 2 "Septeract7:C_0603_1608Metric_NOSILK" H 10325 4200 50  0001 C CNN
F 3 "~" H 10325 4200 50  0001 C CNN
	1    10325 4200
	1    0    0    -1  
$EndComp
$Comp
L Device:C_Small C6
U 1 1 5FCD6691
P 10825 4200
F 0 "C6" H 10917 4246 50  0000 L CNN
F 1 "100nF" H 10917 4155 50  0000 L CNN
F 2 "Septeract7:C_0402_1005Metric_NOSILK" H 10825 4200 50  0001 C CNN
F 3 "~" H 10825 4200 50  0001 C CNN
	1    10825 4200
	1    0    0    -1  
$EndComp
Wire Wire Line
	10575 3875 10575 4025
Wire Wire Line
	10575 4025 10325 4025
Wire Wire Line
	10575 4025 10825 4025
Connection ~ 10575 4025
$Comp
L power:GND #PWR027
U 1 1 5FCD669B
P 10575 4425
F 0 "#PWR027" H 10575 4175 50  0001 C CNN
F 1 "GND" H 10580 4252 50  0000 C CNN
F 2 "" H 10575 4425 50  0001 C CNN
F 3 "" H 10575 4425 50  0001 C CNN
	1    10575 4425
	1    0    0    -1  
$EndComp
Wire Wire Line
	10325 4400 10575 4400
Wire Wire Line
	10575 4400 10575 4425
Wire Wire Line
	10575 4400 10825 4400
Connection ~ 10575 4400
Wire Wire Line
	10325 4300 10325 4400
Wire Wire Line
	10825 4300 10825 4400
Wire Wire Line
	10825 4100 10825 4025
Wire Wire Line
	10325 4025 10325 4100
$Comp
L power:GND #PWR033
U 1 1 5FCE0EB8
P 9725 5625
F 0 "#PWR033" H 9725 5375 50  0001 C CNN
F 1 "GND" H 9730 5452 50  0000 C CNN
F 2 "" H 9725 5625 50  0001 C CNN
F 3 "" H 9725 5625 50  0001 C CNN
	1    9725 5625
	1    0    0    -1  
$EndComp
Wire Wire Line
	9725 5625 9725 5550
Text GLabel 9225 5150 0    50   Input ~ 0
I2C_SCL
Text GLabel 9225 5050 0    50   Input ~ 0
I2C_SDA
Text GLabel 9225 4750 0    50   Input ~ 0
ACCEL_INT1
Text GLabel 9225 4850 0    50   Input ~ 0
ACCEL_INT2
Wire Wire Line
	9225 5250 8500 5250
$Comp
L power:+3V3 #PWR030
U 1 1 5FCF77B7
P 8500 4775
F 0 "#PWR030" H 8500 4625 50  0001 C CNN
F 1 "+3V3" H 8515 4948 50  0000 C CNN
F 2 "" H 8500 4775 50  0001 C CNN
F 3 "" H 8500 4775 50  0001 C CNN
	1    8500 4775
	1    0    0    -1  
$EndComp
Wire Wire Line
	8500 4775 8500 4950
Wire Wire Line
	9225 4950 8500 4950
Connection ~ 8500 4950
Wire Wire Line
	8500 4950 8500 5250
Text GLabel 3675 6375 2    50   Input ~ 0
ACCEL_INT1
Text GLabel 3675 6475 2    50   Input ~ 0
ACCEL_INT2
Wire Notes Line
	7625 3500 7625 6225
Wire Notes Line
	7625 6225 11250 6225
Text Notes 7800 3750 0    118  ~ 0
Accelerometer
Text GLabel 1700 5925 0    50   Input ~ 0
TOUCH_AUX_1
Text GLabel 1700 6025 0    50   Input ~ 0
TOUCH_AUX_2
Text GLabel 3675 4675 2    50   Input ~ 0
D9
Text GLabel 3675 4775 2    50   Input ~ 0
D10
$Comp
L LED_Heart-rescue:CONN_01X01-conn J2
U 1 1 5FD3F381
P 14875 1500
F 0 "J2" H 14953 1541 50  0000 L CNN
F 1 "CONN_01X01" H 14953 1450 50  0000 L CNN
F 2 "Connector_PinHeader_1.00mm:PinHeader_1x01_P1.00mm_Vertical" H 14875 1500 50  0001 C CNN
F 3 "" H 14875 1500 50  0001 C CNN
	1    14875 1500
	1    0    0    -1  
$EndComp
$Comp
L LED_Heart-rescue:CONN_01X01-conn J5
U 1 1 5FD49E7E
P 14875 1750
F 0 "J5" H 14953 1791 50  0000 L CNN
F 1 "CONN_01X01" H 14953 1700 50  0000 L CNN
F 2 "Connector_PinHeader_1.00mm:PinHeader_1x01_P1.00mm_Vertical" H 14875 1750 50  0001 C CNN
F 3 "" H 14875 1750 50  0001 C CNN
	1    14875 1750
	1    0    0    -1  
$EndComp
$Comp
L LED_Heart-rescue:CONN_01X01-conn J7
U 1 1 5FD49E84
P 13575 2000
F 0 "J7" H 13653 2041 50  0000 L CNN
F 1 "CONN_01X01" H 13653 1950 50  0000 L CNN
F 2 "Connector_Wire:SolderWire-1sqmm_1x01_D1.4mm_OD2.7mm" H 13575 2000 50  0001 C CNN
F 3 "" H 13575 2000 50  0001 C CNN
	1    13575 2000
	1    0    0    -1  
$EndComp
$Comp
L LED_Heart-rescue:CONN_01X01-conn J8
U 1 1 5FD49E8A
P 13575 2250
F 0 "J8" H 13653 2291 50  0000 L CNN
F 1 "CONN_01X01" H 13653 2200 50  0000 L CNN
F 2 "Connector_Wire:SolderWire-1sqmm_1x01_D1.4mm_OD2.7mm" H 13575 2250 50  0001 C CNN
F 3 "" H 13575 2250 50  0001 C CNN
	1    13575 2250
	1    0    0    -1  
$EndComp
Text GLabel 14675 1500 0    50   Input ~ 0
D9
Text GLabel 14675 1750 0    50   Input ~ 0
D10
Text GLabel 13375 2250 0    50   Input ~ 0
TOUCH_AUX_2
Text GLabel 13375 2000 0    50   Input ~ 0
TOUCH_AUX_1
$Comp
L Device:LED_Small D6
U 1 1 5FD7100E
P 3900 2225
F 0 "D6" V 3946 2155 50  0000 R CNN
F 1 "Red" V 3855 2155 50  0000 R CNN
F 2 "Septeract7:LED_0603_NOSILK" V 3900 2225 50  0001 C CNN
F 3 "~" V 3900 2225 50  0001 C CNN
	1    3900 2225
	0    -1   -1   0   
$EndComp
$Comp
L power:GND #PWR016
U 1 1 5FD7DACD
P 3900 2400
F 0 "#PWR016" H 3900 2150 50  0001 C CNN
F 1 "GND" H 3905 2227 50  0000 C CNN
F 2 "" H 3900 2400 50  0001 C CNN
F 3 "" H 3900 2400 50  0001 C CNN
	1    3900 2400
	1    0    0    -1  
$EndComp
Wire Wire Line
	3900 1575 3900 1825
Wire Wire Line
	3900 2025 3900 2125
Wire Wire Line
	3900 2325 3900 2400
Wire Wire Line
	3525 1575 3900 1575
Connection ~ 3900 1575
$Comp
L power:GND #PWR018
U 1 1 5FDC3A43
P 11075 3075
F 0 "#PWR018" H 11075 2825 50  0001 C CNN
F 1 "GND" H 11080 2902 50  0000 C CNN
F 2 "" H 11075 3075 50  0001 C CNN
F 3 "" H 11075 3075 50  0001 C CNN
	1    11075 3075
	1    0    0    -1  
$EndComp
Wire Wire Line
	11200 2950 11075 2950
Wire Wire Line
	11075 2950 11075 3075
Text GLabel 11200 2850 0    50   Input ~ 0
VBAT
Text Notes 11100 1275 0    50   ~ 0
ICSP Header
Text Notes 12975 1150 0    50   ~ 0
Touch Buttons
Text Notes 14500 1275 0    50   ~ 0
Extra GPIO
Text Notes 11000 2675 0    50   ~ 0
Battery connectors
$Comp
L Device:Crystal_GND24_Small Y1
U 1 1 5FAE342C
P 5650 5250
F 0 "Y1" H 5750 5300 50  0000 L CNN
F 1 "8MHz" H 5725 5200 50  0000 L CNN
F 2 "Crystals:Crystal_SMD_3225-4pin_3.2x2.5mm" H 5650 5250 50  0001 C CNN
F 3 "~" H 5650 5250 50  0001 C CNN
	1    5650 5250
	1    0    0    -1  
$EndComp
Wire Wire Line
	5175 5250 5550 5250
Wire Wire Line
	5750 5250 6125 5250
Wire Wire Line
	5175 5700 5650 5700
Connection ~ 5650 5700
Wire Wire Line
	5650 5700 6125 5700
$Comp
L power:GND #PWR032
U 1 1 5FB1E206
P 5650 5450
F 0 "#PWR032" H 5650 5200 50  0001 C CNN
F 1 "GND" H 5655 5277 50  0000 C CNN
F 2 "" H 5650 5450 50  0001 C CNN
F 3 "" H 5650 5450 50  0001 C CNN
	1    5650 5450
	1    0    0    -1  
$EndComp
Wire Wire Line
	5650 5450 5650 5400
Wire Wire Line
	5650 5400 5500 5400
Wire Wire Line
	5500 5400 5500 5100
Wire Wire Line
	5500 5100 5650 5100
Wire Wire Line
	5650 5100 5650 5150
Connection ~ 5650 5400
Wire Wire Line
	5650 5400 5650 5350
$Comp
L Interface_USB:CH340C U4
U 1 1 5FB5726D
P 13925 5400
F 0 "U4" H 13650 5950 50  0000 C CNN
F 1 "CH340C" H 14100 4850 50  0000 C CNN
F 2 "Package_SO:SOIC-16_3.9x9.9mm_P1.27mm" H 13975 4850 50  0001 L CNN
F 3 "https://datasheet.lcsc.com/szlcsc/Jiangsu-Qin-Heng-CH340C_C84681.pdf" H 13575 6200 50  0001 C CNN
	1    13925 5400
	1    0    0    -1  
$EndComp
$Comp
L Connector:USB_C_Receptacle_USB2.0 J12
U 1 1 5FB5DC20
P 12075 5300
F 0 "J12" H 12182 6167 50  0000 C CNN
F 1 "USB_C_Receptacle_USB2.0" H 12182 6076 50  0000 C CNN
F 2 "Connector_USB:USB_C_Receptacle_XKB_U262-16XN-4BVC11" H 12225 5300 50  0001 C CNN
F 3 "https://www.usb.org/sites/default/files/documents/usb_type-c.zip" H 12225 5300 50  0001 C CNN
	1    12075 5300
	1    0    0    -1  
$EndComp
Wire Wire Line
	12675 5400 12975 5400
Wire Wire Line
	12975 5400 12975 5300
Wire Wire Line
	12975 5300 13275 5300
Wire Wire Line
	12675 5500 12975 5500
Wire Wire Line
	12975 5500 12975 5400
Connection ~ 12975 5400
Wire Wire Line
	13525 5400 13275 5400
Wire Wire Line
	13075 5400 13075 5200
Wire Wire Line
	13075 5200 12800 5200
Wire Wire Line
	12675 5300 12800 5300
Wire Wire Line
	12800 5300 12800 5200
Connection ~ 12800 5200
Wire Wire Line
	12800 5200 12675 5200
$Comp
L power:+5V #PWR029
U 1 1 5FB98165
P 12950 4700
F 0 "#PWR029" H 12950 4550 50  0001 C CNN
F 1 "+5V" H 12965 4873 50  0000 C CNN
F 2 "" H 12950 4700 50  0001 C CNN
F 3 "" H 12950 4700 50  0001 C CNN
	1    12950 4700
	0    1    1    0   
$EndComp
Wire Wire Line
	12950 4700 12675 4700
Wire Wire Line
	12075 6200 12075 6275
$Comp
L power:GND #PWR036
U 1 1 5FBAE09C
P 11775 6275
F 0 "#PWR036" H 11775 6025 50  0001 C CNN
F 1 "GND" H 11780 6102 50  0000 C CNN
F 2 "" H 11775 6275 50  0001 C CNN
F 3 "" H 11775 6275 50  0001 C CNN
	1    11775 6275
	1    0    0    -1  
$EndComp
Wire Wire Line
	11775 6275 11775 6200
NoConn ~ 12675 5800
NoConn ~ 12675 5900
$Comp
L Device:R_Small R10
U 1 1 5FBCC910
P 12950 6475
F 0 "R10" H 12800 6525 50  0000 L CNN
F 1 "5k1" H 12800 6425 50  0000 L CNN
F 2 "Septeract7:R_0402_1005Metric_NOSILK" H 12950 6475 50  0001 C CNN
F 3 "~" H 12950 6475 50  0001 C CNN
	1    12950 6475
	1    0    0    -1  
$EndComp
$Comp
L Device:R_Small R11
U 1 1 5FBCDC89
P 13175 6475
F 0 "R11" H 13025 6525 50  0000 L CNN
F 1 "5k1" H 13025 6425 50  0000 L CNN
F 2 "Septeract7:R_0402_1005Metric_NOSILK" H 13175 6475 50  0001 C CNN
F 3 "~" H 13175 6475 50  0001 C CNN
	1    13175 6475
	1    0    0    -1  
$EndComp
Text GLabel 12675 4900 2    50   Input ~ 0
USB_CC1
Text GLabel 12675 5000 2    50   Input ~ 0
USB_CC2
Text GLabel 12950 6325 1    50   Input ~ 0
USB_CC1
Text GLabel 13175 6325 1    50   Input ~ 0
USB_CC2
$Comp
L power:GND #PWR039
U 1 1 5FBCF4AF
P 12950 6650
F 0 "#PWR039" H 12950 6400 50  0001 C CNN
F 1 "GND" H 12955 6477 50  0000 C CNN
F 2 "" H 12950 6650 50  0001 C CNN
F 3 "" H 12950 6650 50  0001 C CNN
	1    12950 6650
	1    0    0    -1  
$EndComp
Wire Wire Line
	12950 6575 12950 6650
$Comp
L power:GND #PWR040
U 1 1 5FBD916F
P 13175 6650
F 0 "#PWR040" H 13175 6400 50  0001 C CNN
F 1 "GND" H 13180 6477 50  0000 C CNN
F 2 "" H 13175 6650 50  0001 C CNN
F 3 "" H 13175 6650 50  0001 C CNN
	1    13175 6650
	1    0    0    -1  
$EndComp
Wire Wire Line
	13175 6575 13175 6650
Wire Wire Line
	12950 6325 12950 6375
Wire Wire Line
	13175 6325 13175 6375
Wire Wire Line
	9025 1825 9025 1875
Wire Wire Line
	9025 1525 9025 1575
Wire Wire Line
	9025 1325 9025 1250
Connection ~ 9025 1250
Text Notes 600  3400 0    50   ~ 0
VDD = 5V ->PWR_SENSE = 5V*15K/(10K+15K) = 3V\nVDD = 3.5V -> PWR_SENSE = 3.5V*15K/(10K+15K) = 2.1V\n\nPWR_SENSE must be at least 0.6*3.3V = 1.98V
Text GLabel 8900 1575 0    50   Input ~ 0
USB_SENSE
Wire Wire Line
	8900 1575 9025 1575
Connection ~ 9025 1575
Wire Wire Line
	9025 1575 9025 1625
Text GLabel 3675 6575 2    50   Input ~ 0
USB_SENSE
$Comp
L power:+3V3 #PWR05
U 1 1 5FC5FD66
P 11675 1525
F 0 "#PWR05" H 11675 1375 50  0001 C CNN
F 1 "+3V3" H 11690 1698 50  0000 C CNN
F 2 "" H 11675 1525 50  0001 C CNN
F 3 "" H 11675 1525 50  0001 C CNN
	1    11675 1525
	1    0    0    -1  
$EndComp
$Comp
L LED_Heart-rescue:CONN_02X03-conn J3
U 1 1 5FC60550
P 11325 1675
F 0 "J3" H 11325 1990 50  0000 C CNN
F 1 "CONN_02X03" H 11325 1899 50  0000 C CNN
F 2 "Connector_PinHeader_2.54mm:PinHeader_2x03_P2.54mm_Vertical" H 11325 475 50  0001 C CNN
F 3 "" H 11325 475 50  0001 C CNN
	1    11325 1675
	1    0    0    -1  
$EndComp
Wire Wire Line
	11675 1775 11575 1775
Wire Wire Line
	11675 1575 11575 1575
Text GLabel 3675 6675 2    50   Input ~ 0
RGB_SIDE
Wire Wire Line
	3200 8875 4400 8875
Text GLabel 3200 8300 0    50   Input ~ 0
RGB_SIDE
$Comp
L Device:R_Small R17
U 1 1 5FCD5508
P 3350 8300
F 0 "R17" H 3200 8350 50  0000 L CNN
F 1 "0" H 3200 8250 50  0000 L CNN
F 2 "Septeract7:R_0402_1005Metric_NOSILK" H 3350 8300 50  0001 C CNN
F 3 "~" H 3350 8300 50  0001 C CNN
	1    3350 8300
	0    1    1    0   
$EndComp
Wire Wire Line
	3200 8300 3250 8300
Wire Wire Line
	3500 8300 3450 8300
Wire Wire Line
	5600 8875 6800 8875
Wire Wire Line
	4100 8300 5900 8300
Wire Wire Line
	5600 9925 6825 9925
Wire Wire Line
	3200 9925 4400 9925
NoConn ~ 3525 10475
Wire Wire Line
	6500 8300 9900 8300
Wire Wire Line
	9900 8300 9900 10475
Wire Wire Line
	9900 10475 6525 10475
Wire Wire Line
	5925 10475 4125 10475
$Comp
L LED_Heart-rescue:SK6812_Sideview-Septeract7 D104
U 1 1 5FDDAF15
P 3800 8300
F 0 "D104" H 3850 8550 50  0000 L CNN
F 1 "SK6812_Sideview" H 3825 8050 50  0000 L CNN
F 2 "Septeract7:LED_SK6812_SIDEVIEW_NOSILK" H 3850 8000 50  0001 L TNN
F 3 "https://cdn-shop.adafruit.com/product-files/1138/SK6812+LED+datasheet+.pdf" H 3900 7925 50  0001 L TNN
	1    3800 8300
	1    0    0    -1  
$EndComp
$Comp
L LED_Heart-rescue:SK6812_Sideview-Septeract7 D107
U 1 1 5FDDD3F4
P 6200 8300
F 0 "D107" H 6250 8550 50  0000 L CNN
F 1 "SK6812_Sideview" H 6225 8050 50  0000 L CNN
F 2 "Septeract7:LED_SK6812_SIDEVIEW_NOSILK" H 6250 8000 50  0001 L TNN
F 3 "https://cdn-shop.adafruit.com/product-files/1138/SK6812+LED+datasheet+.pdf" H 6300 7925 50  0001 L TNN
	1    6200 8300
	1    0    0    -1  
$EndComp
$Comp
L LED_Heart-rescue:SK6812_Sideview-Septeract7 D116
U 1 1 5FDDE246
P 6225 10475
F 0 "D116" H 6275 10725 50  0000 L CNN
F 1 "SK6812_Sideview" H 6250 10225 50  0000 L CNN
F 2 "Septeract7:LED_SK6812_SIDEVIEW_NOSILK" H 6275 10175 50  0001 L TNN
F 3 "https://cdn-shop.adafruit.com/product-files/1138/SK6812+LED+datasheet+.pdf" H 6325 10100 50  0001 L TNN
	1    6225 10475
	-1   0    0    1   
$EndComp
$Comp
L LED_Heart-rescue:SK6812_Sideview-Septeract7 D119
U 1 1 5FDDF0AE
P 3825 10475
F 0 "D119" H 3875 10725 50  0000 L CNN
F 1 "SK6812_Sideview" H 3850 10225 50  0000 L CNN
F 2 "Septeract7:LED_SK6812_SIDEVIEW_NOSILK" H 3875 10175 50  0001 L TNN
F 3 "https://cdn-shop.adafruit.com/product-files/1138/SK6812+LED+datasheet+.pdf" H 3925 10100 50  0001 L TNN
	1    3825 10475
	-1   0    0    1   
$EndComp
Text Notes 1325 7775 0    50   Italic 0
CHECK
$Comp
L Device:C_Small C14
U 1 1 5FAFB3F8
P 10400 8600
F 0 "C14" H 10492 8646 50  0000 L CNN
F 1 "100nF" H 10492 8555 50  0000 L CNN
F 2 "Septeract7:C_0402_1005Metric_NOSILK" H 10400 8600 50  0001 C CNN
F 3 "~" H 10400 8600 50  0001 C CNN
	1    10400 8600
	1    0    0    -1  
$EndComp
$Comp
L power:+3V3 #PWR050
U 1 1 5FAFD3FF
P 10400 8300
F 0 "#PWR050" H 10400 8150 50  0001 C CNN
F 1 "+3V3" H 10415 8473 50  0000 C CNN
F 2 "" H 10400 8300 50  0001 C CNN
F 3 "" H 10400 8300 50  0001 C CNN
	1    10400 8300
	1    0    0    -1  
$EndComp
$Comp
L power:GND #PWR064
U 1 1 5FAFD9F2
P 10400 8850
F 0 "#PWR064" H 10400 8600 50  0001 C CNN
F 1 "GND" H 10405 8677 50  0000 C CNN
F 2 "" H 10400 8850 50  0001 C CNN
F 3 "" H 10400 8850 50  0001 C CNN
	1    10400 8850
	1    0    0    -1  
$EndComp
Wire Wire Line
	10400 8300 10400 8500
Wire Wire Line
	10400 8700 10400 8850
Text Notes 10350 8025 0    50   ~ 0
AVCC
$Comp
L Device:C_Small C29
U 1 1 5FB559DF
P 14550 9550
F 0 "C29" H 14642 9596 50  0000 L CNN
F 1 "10uF" H 14642 9505 50  0000 L CNN
F 2 "Septeract7:C_0603_1608Metric_NOSILK" H 14550 9550 50  0001 C CNN
F 3 "~" H 14550 9550 50  0001 C CNN
	1    14550 9550
	1    0    0    -1  
$EndComp
$Comp
L Device:C_Small C30
U 1 1 5FB559E5
P 14950 9550
F 0 "C30" H 15042 9596 50  0000 L CNN
F 1 "10uF" H 15042 9505 50  0000 L CNN
F 2 "Septeract7:C_0603_1608Metric_NOSILK" H 14950 9550 50  0001 C CNN
F 3 "~" H 14950 9550 50  0001 C CNN
	1    14950 9550
	1    0    0    -1  
$EndComp
$Comp
L Device:C_Small C25
U 1 1 5FB602F0
P 12950 9550
F 0 "C25" H 13042 9596 50  0000 L CNN
F 1 "10uF" H 13042 9505 50  0000 L CNN
F 2 "Septeract7:C_0603_1608Metric_NOSILK" H 12950 9550 50  0001 C CNN
F 3 "~" H 12950 9550 50  0001 C CNN
	1    12950 9550
	1    0    0    -1  
$EndComp
$Comp
L Device:C_Small C26
U 1 1 5FB602F6
P 13350 9550
F 0 "C26" H 13442 9596 50  0000 L CNN
F 1 "10uF" H 13442 9505 50  0000 L CNN
F 2 "Septeract7:C_0603_1608Metric_NOSILK" H 13350 9550 50  0001 C CNN
F 3 "~" H 13350 9550 50  0001 C CNN
	1    13350 9550
	1    0    0    -1  
$EndComp
$Comp
L Device:C_Small C23
U 1 1 5FB6AAED
P 12150 9550
F 0 "C23" H 12242 9596 50  0000 L CNN
F 1 "10uF" H 12242 9505 50  0000 L CNN
F 2 "Septeract7:C_0603_1608Metric_NOSILK" H 12150 9550 50  0001 C CNN
F 3 "~" H 12150 9550 50  0001 C CNN
	1    12150 9550
	1    0    0    -1  
$EndComp
$Comp
L Device:C_Small C24
U 1 1 5FB6AAF3
P 12550 9550
F 0 "C24" H 12642 9596 50  0000 L CNN
F 1 "10uF" H 12642 9505 50  0000 L CNN
F 2 "Septeract7:C_0603_1608Metric_NOSILK" H 12550 9550 50  0001 C CNN
F 3 "~" H 12550 9550 50  0001 C CNN
	1    12550 9550
	1    0    0    -1  
$EndComp
$Comp
L Device:C_Small C31
U 1 1 5FB7FA65
P 15350 9550
F 0 "C31" H 15442 9596 50  0000 L CNN
F 1 "10uF" H 15442 9505 50  0000 L CNN
F 2 "Septeract7:C_0603_1608Metric_NOSILK" H 15350 9550 50  0001 C CNN
F 3 "~" H 15350 9550 50  0001 C CNN
	1    15350 9550
	1    0    0    -1  
$EndComp
$Comp
L Device:C_Small C32
U 1 1 5FB7FA6B
P 15750 9550
F 0 "C32" H 15842 9596 50  0000 L CNN
F 1 "10uF" H 15842 9505 50  0000 L CNN
F 2 "Septeract7:C_0603_1608Metric_NOSILK" H 15750 9550 50  0001 C CNN
F 3 "~" H 15750 9550 50  0001 C CNN
	1    15750 9550
	1    0    0    -1  
$EndComp
Connection ~ 12550 9450
Wire Wire Line
	12550 9450 12150 9450
Connection ~ 12950 9450
Wire Wire Line
	12950 9450 12550 9450
Connection ~ 13350 9450
Wire Wire Line
	13350 9450 12950 9450
Connection ~ 13750 9450
Wire Wire Line
	13750 9450 13350 9450
Connection ~ 14150 9450
Wire Wire Line
	14150 9450 14550 9450
Connection ~ 14550 9450
Wire Wire Line
	14550 9450 14950 9450
Connection ~ 14950 9450
Wire Wire Line
	14950 9450 15350 9450
Connection ~ 15350 9450
Wire Wire Line
	15350 9450 15750 9450
Wire Wire Line
	12150 9650 12550 9650
Connection ~ 12550 9650
Wire Wire Line
	12550 9650 12950 9650
Connection ~ 12950 9650
Wire Wire Line
	12950 9650 13350 9650
Connection ~ 13350 9650
Wire Wire Line
	13350 9650 13750 9650
Connection ~ 13750 9650
Wire Wire Line
	13750 9650 13950 9650
Connection ~ 14150 9650
Wire Wire Line
	14150 9650 14550 9650
Connection ~ 14550 9650
Wire Wire Line
	14550 9650 14950 9650
Connection ~ 14950 9650
Wire Wire Line
	14950 9650 15350 9650
Connection ~ 15350 9650
Wire Wire Line
	15350 9650 15750 9650
Connection ~ 13950 9650
Wire Wire Line
	13950 9650 14150 9650
$Comp
L power:GND #PWR066
U 1 1 5FB3882F
P 13825 8925
F 0 "#PWR066" H 13825 8675 50  0001 C CNN
F 1 "GND" H 13830 8752 50  0000 C CNN
F 2 "" H 13825 8925 50  0001 C CNN
F 3 "" H 13825 8925 50  0001 C CNN
	1    13825 8925
	1    0    0    -1  
$EndComp
Wire Wire Line
	14750 8925 14350 8925
Connection ~ 14750 8925
Wire Wire Line
	14350 8925 13950 8925
Connection ~ 14350 8925
Wire Wire Line
	13950 8925 13825 8925
Connection ~ 13950 8925
Wire Wire Line
	13550 8925 13150 8925
Connection ~ 13550 8925
Wire Wire Line
	13150 8925 12750 8925
Connection ~ 13150 8925
Wire Wire Line
	15150 8925 14750 8925
Wire Wire Line
	14750 8725 15150 8725
Connection ~ 14750 8725
Wire Wire Line
	14350 8725 14750 8725
Connection ~ 14350 8725
Wire Wire Line
	13950 8725 14350 8725
Connection ~ 13950 8725
Connection ~ 13550 8725
Wire Wire Line
	13150 8725 13550 8725
Connection ~ 13150 8725
Wire Wire Line
	12750 8725 13150 8725
$Comp
L Device:C_Small C17
U 1 1 5FBD0279
P 13150 8825
F 0 "C17" H 13242 8871 50  0000 L CNN
F 1 "10uF" H 13242 8780 50  0000 L CNN
F 2 "Septeract7:C_0603_1608Metric_NOSILK" H 13150 8825 50  0001 C CNN
F 3 "~" H 13150 8825 50  0001 C CNN
	1    13150 8825
	1    0    0    -1  
$EndComp
$Comp
L Device:C_Small C16
U 1 1 5FBD0273
P 12750 8825
F 0 "C16" H 12842 8871 50  0000 L CNN
F 1 "10uF" H 12842 8780 50  0000 L CNN
F 2 "Septeract7:C_0603_1608Metric_NOSILK" H 12750 8825 50  0001 C CNN
F 3 "~" H 12750 8825 50  0001 C CNN
	1    12750 8825
	1    0    0    -1  
$EndComp
$Comp
L Device:C_Small C19
U 1 1 5FBD026D
P 13950 8825
F 0 "C19" H 14042 8871 50  0000 L CNN
F 1 "10uF" H 14042 8780 50  0000 L CNN
F 2 "Septeract7:C_0603_1608Metric_NOSILK" H 13950 8825 50  0001 C CNN
F 3 "~" H 13950 8825 50  0001 C CNN
	1    13950 8825
	1    0    0    -1  
$EndComp
$Comp
L Device:C_Small C18
U 1 1 5FBD0267
P 13550 8825
F 0 "C18" H 13642 8871 50  0000 L CNN
F 1 "10uF" H 13642 8780 50  0000 L CNN
F 2 "Septeract7:C_0603_1608Metric_NOSILK" H 13550 8825 50  0001 C CNN
F 3 "~" H 13550 8825 50  0001 C CNN
	1    13550 8825
	1    0    0    -1  
$EndComp
$Comp
L Device:C_Small C22
U 1 1 5FBD0261
P 15150 8825
F 0 "C22" H 15242 8871 50  0000 L CNN
F 1 "10uF" H 15242 8780 50  0000 L CNN
F 2 "Septeract7:C_0603_1608Metric_NOSILK" H 15150 8825 50  0001 C CNN
F 3 "~" H 15150 8825 50  0001 C CNN
	1    15150 8825
	1    0    0    -1  
$EndComp
$Comp
L Device:C_Small C21
U 1 1 5FBD025B
P 14750 8825
F 0 "C21" H 14842 8871 50  0000 L CNN
F 1 "10uF" H 14842 8780 50  0000 L CNN
F 2 "Septeract7:C_0603_1608Metric_NOSILK" H 14750 8825 50  0001 C CNN
F 3 "~" H 14750 8825 50  0001 C CNN
	1    14750 8825
	1    0    0    -1  
$EndComp
$Comp
L Device:C_Small C20
U 1 1 5FBD0255
P 14350 8825
F 0 "C20" H 14442 8871 50  0000 L CNN
F 1 "10uF" H 14442 8780 50  0000 L CNN
F 2 "Septeract7:C_0603_1608Metric_NOSILK" H 14350 8825 50  0001 C CNN
F 3 "~" H 14350 8825 50  0001 C CNN
	1    14350 8825
	1    0    0    -1  
$EndComp
Text Notes 13750 8325 0    50   ~ 0
LED_Power\n(10V Caps)
Text Notes 11150 8075 0    50   ~ 0
AREF
Text Notes 11675 7900 0    50   ~ 0
ATMEGA VCC pins
Text Notes 11075 7800 0    50   Italic 0
CHECK
$Comp
L Device:C_Small C11
U 1 1 5FB41883
P 15125 8125
F 0 "C11" H 15217 8171 50  0000 L CNN
F 1 "10uF" H 15217 8080 50  0000 L CNN
F 2 "Septeract7:C_0603_1608Metric_NOSILK" H 15125 8125 50  0001 C CNN
F 3 "~" H 15125 8125 50  0001 C CNN
	1    15125 8125
	1    0    0    -1  
$EndComp
$Comp
L power:+5V #PWR045
U 1 1 5FB41D0D
P 15125 7975
F 0 "#PWR045" H 15125 7825 50  0001 C CNN
F 1 "+5V" H 15140 8148 50  0000 C CNN
F 2 "" H 15125 7975 50  0001 C CNN
F 3 "" H 15125 7975 50  0001 C CNN
	1    15125 7975
	1    0    0    -1  
$EndComp
$Comp
L power:GND #PWR049
U 1 1 5FB428CE
P 15125 8275
F 0 "#PWR049" H 15125 8025 50  0001 C CNN
F 1 "GND" H 15130 8102 50  0000 C CNN
F 2 "" H 15125 8275 50  0001 C CNN
F 3 "" H 15125 8275 50  0001 C CNN
	1    15125 8275
	1    0    0    -1  
$EndComp
Connection ~ 13825 8925
Wire Wire Line
	13825 8925 13550 8925
Text Notes 15300 7875 0    50   ~ 0
USB_Power\n(10V Caps)
Text Notes 11900 3750 0    50   Italic 0
CHECK
Text Notes 9925 825  0    50   Italic 0
CHECK
Text Notes 1575 1400 0    50   ~ 0
Use small\ndiode version\n1N4148WS
Text Notes 3575 775  0    50   Italic 0
CHECK
$Comp
L LED_Heart-rescue:CONN_01X01-conn J11
U 1 1 5FB6A694
P 15475 2875
F 0 "J11" H 15553 2916 50  0000 L CNN
F 1 "CONN_01X01" H 15553 2825 50  0000 L CNN
F 2 "Wire_Pads:SolderWirePad_single_SMD_5x10mm" H 15475 2875 50  0001 C CNN
F 3 "" H 15475 2875 50  0001 C CNN
	1    15475 2875
	1    0    0    -1  
$EndComp
Text Notes 15225 2725 0    50   ~ 0
Baby Pin
$Comp
L Mechanical:MountingHole_Pad H1
U 1 1 5FB7A1A0
P 14125 2875
F 0 "H1" H 14225 2924 50  0000 L CNN
F 1 "MountingHole_Pad" H 14225 2833 50  0000 L CNN
F 2 "Mounting_Holes:MountingHole_3.2mm_M3_Pad" H 14125 2875 50  0001 C CNN
F 3 "~" H 14125 2875 50  0001 C CNN
	1    14125 2875
	1    0    0    -1  
$EndComp
Text Notes 13800 2400 0    50   ~ 0
Chain
Text Notes 12375 1800 0    50   ~ 0
"battery cage"
Text Notes 9200 3725 0    50   Italic 0
CHECK
Wire Wire Line
	3600 4575 3675 4575
Wire Wire Line
	3600 4675 3675 4675
Wire Wire Line
	3600 4775 3675 4775
Wire Wire Line
	3600 4875 3675 4875
Wire Wire Line
	3600 4975 3675 4975
Wire Wire Line
	3600 5075 3675 5075
Wire Wire Line
	3600 5175 3675 5175
Wire Wire Line
	3600 5275 3675 5275
Wire Wire Line
	3600 5425 3675 5425
Wire Wire Line
	3600 5525 3675 5525
Wire Wire Line
	3600 5625 3675 5625
Wire Wire Line
	3600 5725 3675 5725
Wire Wire Line
	3600 5825 3675 5825
Wire Wire Line
	3600 5925 3675 5925
Wire Wire Line
	3600 6025 3675 6025
Wire Wire Line
	3600 6175 3675 6175
Wire Wire Line
	3600 6275 3675 6275
Wire Wire Line
	3600 6375 3675 6375
Wire Wire Line
	3600 6475 3675 6475
Wire Wire Line
	3600 6575 3675 6575
Wire Wire Line
	3600 6675 3675 6675
Wire Wire Line
	3600 6775 3675 6775
Wire Wire Line
	3600 6875 3675 6875
Text GLabel 6125 4125 1    50   Input ~ 0
VBAT
Text Notes 1250 3800 0    50   Italic 0
CHECK
Text Notes 12375 1550 0    50   ~ 0
pad 2
Text Notes 12375 1300 0    50   ~ 0
pad 1
Text Notes 13250 775  0    50   Italic 0
CHECK
Wire Wire Line
	15125 8275 15125 8225
Wire Wire Line
	15125 8025 15125 7975
Wire Wire Line
	13925 6075 13925 6000
$Comp
L Device:R_Small R3
U 1 1 5FC0DB08
P 9025 1725
F 0 "R3" H 9084 1771 50  0000 L CNN
F 1 "10k" H 9084 1680 50  0000 L CNN
F 2 "Septeract7:R_0402_1005Metric_NOSILK" H 9025 1725 50  0001 C CNN
F 3 "~" H 9025 1725 50  0001 C CNN
	1    9025 1725
	1    0    0    -1  
$EndComp
$Comp
L Device:R_Small R2
U 1 1 5FAFB07E
P 9025 1425
F 0 "R2" H 9084 1471 50  0000 L CNN
F 1 "10k" H 9084 1380 50  0000 L CNN
F 2 "Septeract7:R_0402_1005Metric_NOSILK" H 9025 1425 50  0001 C CNN
F 3 "~" H 9025 1425 50  0001 C CNN
	1    9025 1425
	1    0    0    -1  
$EndComp
$Comp
L Device:R_Small R1
U 1 1 5FA03038
P 6275 1400
F 0 "R1" H 6334 1446 50  0000 L CNN
F 1 "1k" H 6334 1355 50  0000 L CNN
F 2 "Septeract7:R_0402_1005Metric_NOSILK" H 6275 1400 50  0001 C CNN
F 3 "~" H 6275 1400 50  0001 C CNN
	1    6275 1400
	1    0    0    -1  
$EndComp
$Comp
L Device:R_Small R4
U 1 1 5FD7EDD1
P 3900 1925
F 0 "R4" H 3959 1971 50  0000 L CNN
F 1 "1k" H 3959 1880 50  0000 L CNN
F 2 "Septeract7:R_0402_1005Metric_NOSILK" H 3900 1925 50  0001 C CNN
F 3 "~" H 3900 1925 50  0001 C CNN
	1    3900 1925
	1    0    0    -1  
$EndComp
NoConn ~ 15275 2875
NoConn ~ 14125 2975
Text GLabel 13275 5250 1    50   Input ~ 0
USB_D+
Wire Wire Line
	13275 5250 13275 5300
Connection ~ 13275 5300
Wire Wire Line
	13275 5300 13525 5300
Text GLabel 13275 5450 3    50   Input ~ 0
USB_D-
Wire Wire Line
	13275 5450 13275 5400
Connection ~ 13275 5400
Wire Wire Line
	13275 5400 13075 5400
$Comp
L Mechanical:MountingHole_Pad H2
U 1 1 5FE4501C
P 13250 2875
F 0 "H2" H 13350 2924 50  0000 L CNN
F 1 "MountingHole_Pad" H 13350 2833 50  0000 L CNN
F 2 "Mounting_Holes:MountingHole_3.2mm_M3_Pad" H 13250 2875 50  0001 C CNN
F 3 "~" H 13250 2875 50  0001 C CNN
	1    13250 2875
	1    0    0    -1  
$EndComp
NoConn ~ 13250 2975
$Comp
L LED_Heart-rescue:CONN_01X02-conn J9
U 1 1 5FCD2D74
P 11400 2900
F 0 "J9" H 11478 2941 50  0000 L CNN
F 1 "CONN_01X02" H 11478 2850 50  0000 L CNN
F 2 "Connector_PinHeader_2.54mm:PinHeader_1x02_P2.54mm_Vertical" H 11400 2900 50  0001 C CNN
F 3 "" H 11400 2900 50  0001 C CNN
	1    11400 2900
	1    0    0    -1  
$EndComp
Wire Wire Line
	13750 9450 13950 9450
Wire Wire Line
	13550 8725 13850 8725
Wire Wire Line
	13950 9400 13950 9450
Connection ~ 13950 9450
Wire Wire Line
	13950 9450 14150 9450
Text GLabel 13850 8700 1    50   Input ~ 0
LED+
Wire Wire Line
	13850 8700 13850 8725
Connection ~ 13850 8725
Wire Wire Line
	13850 8725 13950 8725
Text GLabel 1700 8575 1    50   Input ~ 0
LED+
Text GLabel 2300 8575 1    50   Input ~ 0
LED+
Text GLabel 2900 8575 1    50   Input ~ 0
LED+
Text GLabel 13950 9400 1    50   Input ~ 0
LED+
Text GLabel 4700 8575 1    50   Input ~ 0
LED+
Text GLabel 5300 8575 1    50   Input ~ 0
LED+
Text GLabel 3800 8000 1    50   Input ~ 0
LED+
Text GLabel 6200 8000 1    50   Input ~ 0
LED+
Text GLabel 8300 8575 1    50   Input ~ 0
LED+
Text GLabel 8900 8575 1    50   Input ~ 0
LED+
Text GLabel 7100 8575 1    50   Input ~ 0
LED+
Text GLabel 7700 8575 1    50   Input ~ 0
LED+
Text GLabel 2900 10225 3    50   Input ~ 0
LED+
Text GLabel 2300 10225 3    50   Input ~ 0
LED+
Text GLabel 5300 10225 3    50   Input ~ 0
LED+
Text GLabel 4700 10225 3    50   Input ~ 0
LED+
Text GLabel 8925 10225 3    50   Input ~ 0
LED+
Text GLabel 8325 10225 3    50   Input ~ 0
LED+
Text GLabel 7725 10225 3    50   Input ~ 0
LED+
Text GLabel 7125 10225 3    50   Input ~ 0
LED+
Text GLabel 6225 10775 3    50   Input ~ 0
LED+
Text GLabel 3825 10775 3    50   Input ~ 0
LED+
Text GLabel 2400 1875 3    50   Input ~ 0
EN
Wire Wire Line
	2400 1875 2400 1675
Connection ~ 2400 1675
Wire Wire Line
	2400 1675 2850 1675
Text GLabel 4375 1775 2    50   Input ~ 0
LED+
Wire Wire Line
	3900 1575 4175 1575
Wire Wire Line
	4175 1575 4175 1775
Wire Wire Line
	4175 1775 4375 1775
Connection ~ 4175 1575
Wire Wire Line
	4175 1575 4375 1575
Wire Notes Line
	475  7500 16075 7500
$EndSCHEMATC
