(module LOGO (layer F.Cu)
  (at 0 0)
 (fp_text reference "G***" (at 0 0) (layer F.SilkS) hide
  (effects (font (thickness 0.3)))
  )
  (fp_text value "LOGO" (at 0.75 0) (layer F.SilkS) hide
  (effects (font (thickness 0.3)))
  )
  (fp_poly (pts (xy -5.453673 -31.873301) (xy -4.772338 -31.183207) (xy -4.115290 -30.517841) (xy -3.487694 -29.882425) (xy -2.894715 -29.282185) (xy -2.341519 -28.722345) (xy -1.833272 -28.208129) (xy -1.375139 -27.744761)
     (xy -0.972284 -27.337467) (xy -0.629875 -26.991470) (xy -0.353075 -26.711995) (xy -0.147051 -26.504266) (xy -0.016968 -26.373508) (xy 0.032009 -26.324944) (xy 0.032262 -26.324757) (xy 0.075758 -26.367767)
     (xy 0.200697 -26.493315) (xy 0.401912 -26.696175) (xy 0.674241 -26.971124) (xy 1.012515 -27.312937) (xy 1.411571 -27.716389) (xy 1.866243 -28.176256) (xy 2.371366 -28.687314) (xy 2.921773 -29.244337)
     (xy 3.512301 -29.842102) (xy 4.137782 -30.475385) (xy 4.793053 -31.138960) (xy 5.472947 -31.827603) (xy 5.518060 -31.873301) (xy 10.995525 -37.421844) (xy 24.444632 -37.421844) (xy 31.056539 -30.809723)
     (xy 37.668446 -24.197601) (xy 37.668446 -0.154050) (xy 18.849598 18.664722) (xy 0.030749 37.483495) (xy -18.788024 18.664647) (xy -37.606796 -0.154202) (xy -37.606796 -24.198030) (xy -30.994675 -30.809937)
     (xy -24.382553 -37.421844) (xy -10.931275 -37.421844) (xy -5.453673 -31.873301) )(layer Edge.Cuts) (width  0.010000)
  )
)
