G04 #@! TF.GenerationSoftware,KiCad,Pcbnew,(5.1.7)-1*
G04 #@! TF.CreationDate,2020-12-03T17:33:47+01:00*
G04 #@! TF.ProjectId,LED_Heart,4c45445f-4865-4617-9274-2e6b69636164,rev?*
G04 #@! TF.SameCoordinates,Original*
G04 #@! TF.FileFunction,Soldermask,Bot*
G04 #@! TF.FilePolarity,Negative*
%FSLAX46Y46*%
G04 Gerber Fmt 4.6, Leading zero omitted, Abs format (unit mm)*
G04 Created by KiCad (PCBNEW (5.1.7)-1) date 2020-12-03 17:33:47*
%MOMM*%
%LPD*%
G01*
G04 APERTURE LIST*
%ADD10C,0.100000*%
%ADD11O,1.700000X1.700000*%
%ADD12R,1.700000X1.700000*%
%ADD13C,2.000000*%
%ADD14R,0.850000X0.850000*%
%ADD15R,20.000000X4.000000*%
%ADD16C,4.200000*%
%ADD17C,0.650000*%
G04 APERTURE END LIST*
D10*
G36*
X177925090Y-110934513D02*
G01*
X177920402Y-110933084D01*
X177916083Y-110930768D01*
X177912346Y-110927701D01*
X176027346Y-109047701D01*
X176024232Y-109043917D01*
X176021916Y-109039598D01*
X176020487Y-109034910D01*
X176020000Y-109030000D01*
X176020000Y-107825000D01*
X176020480Y-107820123D01*
X176021903Y-107815433D01*
X176024213Y-107811111D01*
X176027322Y-107807322D01*
X176687322Y-107147322D01*
X176691111Y-107144213D01*
X176695433Y-107141903D01*
X176700123Y-107140480D01*
X176705000Y-107140000D01*
X177560000Y-107140000D01*
X177564877Y-107140480D01*
X177569567Y-107141903D01*
X177573889Y-107144213D01*
X177577678Y-107147322D01*
X177930000Y-107499644D01*
X178282322Y-107147322D01*
X178286111Y-107144213D01*
X178290433Y-107141903D01*
X178295123Y-107140480D01*
X178300000Y-107140000D01*
X179155000Y-107140000D01*
X179159877Y-107140480D01*
X179164567Y-107141903D01*
X179168889Y-107144213D01*
X179172678Y-107147322D01*
X179832678Y-107807322D01*
X179835787Y-107811111D01*
X179838097Y-107815433D01*
X179839520Y-107820123D01*
X179840000Y-107825000D01*
X179840000Y-109030000D01*
X179839520Y-109034877D01*
X179838097Y-109039567D01*
X179835787Y-109043889D01*
X179832654Y-109047701D01*
X177947654Y-110927701D01*
X177943862Y-110930805D01*
X177939536Y-110933110D01*
X177934845Y-110934526D01*
X177929967Y-110935000D01*
X177925090Y-110934513D01*
G37*
D11*
X167140000Y-103020000D03*
D12*
X167140000Y-105560000D03*
G36*
G01*
X157311505Y-122909816D02*
X157523637Y-122697684D01*
G75*
G02*
X157735769Y-122697684I106066J-106066D01*
G01*
X158902495Y-123864410D01*
G75*
G02*
X158902495Y-124076542I-106066J-106066D01*
G01*
X158690363Y-124288674D01*
G75*
G02*
X158478231Y-124288674I-106066J106066D01*
G01*
X157311505Y-123121948D01*
G75*
G02*
X157311505Y-122909816I106066J106066D01*
G01*
G37*
G36*
G01*
X158209530Y-122011790D02*
X158421662Y-121799658D01*
G75*
G02*
X158633794Y-121799658I106066J-106066D01*
G01*
X159800520Y-122966384D01*
G75*
G02*
X159800520Y-123178516I-106066J-106066D01*
G01*
X159588388Y-123390648D01*
G75*
G02*
X159376256Y-123390648I-106066J106066D01*
G01*
X158209530Y-122223922D01*
G75*
G02*
X158209530Y-122011790I106066J106066D01*
G01*
G37*
G36*
G01*
X159107556Y-121113765D02*
X159319688Y-120901633D01*
G75*
G02*
X159531820Y-120901633I106066J-106066D01*
G01*
X160698546Y-122068359D01*
G75*
G02*
X160698546Y-122280491I-106066J-106066D01*
G01*
X160486414Y-122492623D01*
G75*
G02*
X160274282Y-122492623I-106066J106066D01*
G01*
X159107556Y-121325897D01*
G75*
G02*
X159107556Y-121113765I106066J106066D01*
G01*
G37*
G36*
G01*
X160005581Y-120215739D02*
X160217713Y-120003607D01*
G75*
G02*
X160429845Y-120003607I106066J-106066D01*
G01*
X161596571Y-121170333D01*
G75*
G02*
X161596571Y-121382465I-106066J-106066D01*
G01*
X161384439Y-121594597D01*
G75*
G02*
X161172307Y-121594597I-106066J106066D01*
G01*
X160005581Y-120427871D01*
G75*
G02*
X160005581Y-120215739I106066J106066D01*
G01*
G37*
G36*
G01*
X160903607Y-119317713D02*
X161115739Y-119105581D01*
G75*
G02*
X161327871Y-119105581I106066J-106066D01*
G01*
X162494597Y-120272307D01*
G75*
G02*
X162494597Y-120484439I-106066J-106066D01*
G01*
X162282465Y-120696571D01*
G75*
G02*
X162070333Y-120696571I-106066J106066D01*
G01*
X160903607Y-119529845D01*
G75*
G02*
X160903607Y-119317713I106066J106066D01*
G01*
G37*
G36*
G01*
X161801633Y-118419688D02*
X162013765Y-118207556D01*
G75*
G02*
X162225897Y-118207556I106066J-106066D01*
G01*
X163392623Y-119374282D01*
G75*
G02*
X163392623Y-119586414I-106066J-106066D01*
G01*
X163180491Y-119798546D01*
G75*
G02*
X162968359Y-119798546I-106066J106066D01*
G01*
X161801633Y-118631820D01*
G75*
G02*
X161801633Y-118419688I106066J106066D01*
G01*
G37*
G36*
G01*
X162699658Y-117521662D02*
X162911790Y-117309530D01*
G75*
G02*
X163123922Y-117309530I106066J-106066D01*
G01*
X164290648Y-118476256D01*
G75*
G02*
X164290648Y-118688388I-106066J-106066D01*
G01*
X164078516Y-118900520D01*
G75*
G02*
X163866384Y-118900520I-106066J106066D01*
G01*
X162699658Y-117733794D01*
G75*
G02*
X162699658Y-117521662I106066J106066D01*
G01*
G37*
G36*
G01*
X163597684Y-116623637D02*
X163809816Y-116411505D01*
G75*
G02*
X164021948Y-116411505I106066J-106066D01*
G01*
X165188674Y-117578231D01*
G75*
G02*
X165188674Y-117790363I-106066J-106066D01*
G01*
X164976542Y-118002495D01*
G75*
G02*
X164764410Y-118002495I-106066J106066D01*
G01*
X163597684Y-116835769D01*
G75*
G02*
X163597684Y-116623637I106066J106066D01*
G01*
G37*
G36*
G01*
X160097505Y-113123458D02*
X160309637Y-112911326D01*
G75*
G02*
X160521769Y-112911326I106066J-106066D01*
G01*
X161688495Y-114078052D01*
G75*
G02*
X161688495Y-114290184I-106066J-106066D01*
G01*
X161476363Y-114502316D01*
G75*
G02*
X161264231Y-114502316I-106066J106066D01*
G01*
X160097505Y-113335590D01*
G75*
G02*
X160097505Y-113123458I106066J106066D01*
G01*
G37*
G36*
G01*
X159199480Y-114021484D02*
X159411612Y-113809352D01*
G75*
G02*
X159623744Y-113809352I106066J-106066D01*
G01*
X160790470Y-114976078D01*
G75*
G02*
X160790470Y-115188210I-106066J-106066D01*
G01*
X160578338Y-115400342D01*
G75*
G02*
X160366206Y-115400342I-106066J106066D01*
G01*
X159199480Y-114233616D01*
G75*
G02*
X159199480Y-114021484I106066J106066D01*
G01*
G37*
G36*
G01*
X158301454Y-114919509D02*
X158513586Y-114707377D01*
G75*
G02*
X158725718Y-114707377I106066J-106066D01*
G01*
X159892444Y-115874103D01*
G75*
G02*
X159892444Y-116086235I-106066J-106066D01*
G01*
X159680312Y-116298367D01*
G75*
G02*
X159468180Y-116298367I-106066J106066D01*
G01*
X158301454Y-115131641D01*
G75*
G02*
X158301454Y-114919509I106066J106066D01*
G01*
G37*
G36*
G01*
X157403429Y-115817535D02*
X157615561Y-115605403D01*
G75*
G02*
X157827693Y-115605403I106066J-106066D01*
G01*
X158994419Y-116772129D01*
G75*
G02*
X158994419Y-116984261I-106066J-106066D01*
G01*
X158782287Y-117196393D01*
G75*
G02*
X158570155Y-117196393I-106066J106066D01*
G01*
X157403429Y-116029667D01*
G75*
G02*
X157403429Y-115817535I106066J106066D01*
G01*
G37*
G36*
G01*
X156505403Y-116715561D02*
X156717535Y-116503429D01*
G75*
G02*
X156929667Y-116503429I106066J-106066D01*
G01*
X158096393Y-117670155D01*
G75*
G02*
X158096393Y-117882287I-106066J-106066D01*
G01*
X157884261Y-118094419D01*
G75*
G02*
X157672129Y-118094419I-106066J106066D01*
G01*
X156505403Y-116927693D01*
G75*
G02*
X156505403Y-116715561I106066J106066D01*
G01*
G37*
G36*
G01*
X155607377Y-117613586D02*
X155819509Y-117401454D01*
G75*
G02*
X156031641Y-117401454I106066J-106066D01*
G01*
X157198367Y-118568180D01*
G75*
G02*
X157198367Y-118780312I-106066J-106066D01*
G01*
X156986235Y-118992444D01*
G75*
G02*
X156774103Y-118992444I-106066J106066D01*
G01*
X155607377Y-117825718D01*
G75*
G02*
X155607377Y-117613586I106066J106066D01*
G01*
G37*
G36*
G01*
X154709352Y-118511612D02*
X154921484Y-118299480D01*
G75*
G02*
X155133616Y-118299480I106066J-106066D01*
G01*
X156300342Y-119466206D01*
G75*
G02*
X156300342Y-119678338I-106066J-106066D01*
G01*
X156088210Y-119890470D01*
G75*
G02*
X155876078Y-119890470I-106066J106066D01*
G01*
X154709352Y-118723744D01*
G75*
G02*
X154709352Y-118511612I106066J106066D01*
G01*
G37*
G36*
G01*
X153811326Y-119409637D02*
X154023458Y-119197505D01*
G75*
G02*
X154235590Y-119197505I106066J-106066D01*
G01*
X155402316Y-120364231D01*
G75*
G02*
X155402316Y-120576363I-106066J-106066D01*
G01*
X155190184Y-120788495D01*
G75*
G02*
X154978052Y-120788495I-106066J106066D01*
G01*
X153811326Y-119621769D01*
G75*
G02*
X153811326Y-119409637I106066J106066D01*
G01*
G37*
D13*
X156750000Y-102750000D03*
X156750000Y-107250000D03*
X163250000Y-102750000D03*
X163250000Y-107250000D03*
X173780000Y-69130000D03*
X176961981Y-65948019D03*
X178376195Y-73726194D03*
X181558175Y-70544213D03*
D12*
X140100000Y-72000000D03*
D11*
X140100000Y-69460000D03*
X142640000Y-72000000D03*
X142640000Y-69460000D03*
X145180000Y-72000000D03*
X145180000Y-69460000D03*
D14*
X159600000Y-110700000D03*
X158200000Y-110700000D03*
G36*
G01*
X160682807Y-123557609D02*
X160442391Y-123317193D01*
G75*
G02*
X160442391Y-123119203I98995J98995D01*
G01*
X160640381Y-122921213D01*
G75*
G02*
X160838371Y-122921213I98995J-98995D01*
G01*
X161078787Y-123161629D01*
G75*
G02*
X161078787Y-123359619I-98995J-98995D01*
G01*
X160880797Y-123557609D01*
G75*
G02*
X160682807Y-123557609I-98995J98995D01*
G01*
G37*
G36*
G01*
X161361629Y-122878787D02*
X161121213Y-122638371D01*
G75*
G02*
X161121213Y-122440381I98995J98995D01*
G01*
X161319203Y-122242391D01*
G75*
G02*
X161517193Y-122242391I98995J-98995D01*
G01*
X161757609Y-122482807D01*
G75*
G02*
X161757609Y-122680797I-98995J-98995D01*
G01*
X161559619Y-122878787D01*
G75*
G02*
X161361629Y-122878787I-98995J98995D01*
G01*
G37*
G36*
G01*
X156842391Y-124382807D02*
X157082807Y-124142391D01*
G75*
G02*
X157280797Y-124142391I98995J-98995D01*
G01*
X157478787Y-124340381D01*
G75*
G02*
X157478787Y-124538371I-98995J-98995D01*
G01*
X157238371Y-124778787D01*
G75*
G02*
X157040381Y-124778787I-98995J98995D01*
G01*
X156842391Y-124580797D01*
G75*
G02*
X156842391Y-124382807I98995J98995D01*
G01*
G37*
G36*
G01*
X157521213Y-125061629D02*
X157761629Y-124821213D01*
G75*
G02*
X157959619Y-124821213I98995J-98995D01*
G01*
X158157609Y-125019203D01*
G75*
G02*
X158157609Y-125217193I-98995J-98995D01*
G01*
X157917193Y-125457609D01*
G75*
G02*
X157719203Y-125457609I-98995J98995D01*
G01*
X157521213Y-125259619D01*
G75*
G02*
X157521213Y-125061629I98995J98995D01*
G01*
G37*
G36*
G01*
X155482357Y-117020728D02*
X155220728Y-117282357D01*
G75*
G02*
X155029810Y-117282357I-95459J95459D01*
G01*
X154838891Y-117091438D01*
G75*
G02*
X154838891Y-116900520I95459J95459D01*
G01*
X155100520Y-116638891D01*
G75*
G02*
X155291438Y-116638891I95459J-95459D01*
G01*
X155482357Y-116829810D01*
G75*
G02*
X155482357Y-117020728I-95459J-95459D01*
G01*
G37*
G36*
G01*
X154761109Y-116299480D02*
X154499480Y-116561109D01*
G75*
G02*
X154308562Y-116561109I-95459J95459D01*
G01*
X154117643Y-116370190D01*
G75*
G02*
X154117643Y-116179272I95459J95459D01*
G01*
X154379272Y-115917643D01*
G75*
G02*
X154570190Y-115917643I95459J-95459D01*
G01*
X154761109Y-116108562D01*
G75*
G02*
X154761109Y-116299480I-95459J-95459D01*
G01*
G37*
G36*
G01*
X154572357Y-117940728D02*
X154310728Y-118202357D01*
G75*
G02*
X154119810Y-118202357I-95459J95459D01*
G01*
X153928891Y-118011438D01*
G75*
G02*
X153928891Y-117820520I95459J95459D01*
G01*
X154190520Y-117558891D01*
G75*
G02*
X154381438Y-117558891I95459J-95459D01*
G01*
X154572357Y-117749810D01*
G75*
G02*
X154572357Y-117940728I-95459J-95459D01*
G01*
G37*
G36*
G01*
X153851109Y-117219480D02*
X153589480Y-117481109D01*
G75*
G02*
X153398562Y-117481109I-95459J95459D01*
G01*
X153207643Y-117290190D01*
G75*
G02*
X153207643Y-117099272I95459J95459D01*
G01*
X153469272Y-116837643D01*
G75*
G02*
X153660190Y-116837643I95459J-95459D01*
G01*
X153851109Y-117028562D01*
G75*
G02*
X153851109Y-117219480I-95459J-95459D01*
G01*
G37*
G36*
G01*
X182625000Y-75625002D02*
X182625000Y-73374998D01*
G75*
G02*
X182874998Y-73125000I249998J0D01*
G01*
X185125002Y-73125000D01*
G75*
G02*
X185375000Y-73374998I0J-249998D01*
G01*
X185375000Y-75625002D01*
G75*
G02*
X185125002Y-75875000I-249998J0D01*
G01*
X182874998Y-75875000D01*
G75*
G02*
X182625000Y-75625002I0J249998D01*
G01*
G37*
G36*
G01*
X170625000Y-75625002D02*
X170625000Y-73374998D01*
G75*
G02*
X170874998Y-73125000I249998J0D01*
G01*
X173125002Y-73125000D01*
G75*
G02*
X173375000Y-73374998I0J-249998D01*
G01*
X173375000Y-75625002D01*
G75*
G02*
X173125002Y-75875000I-249998J0D01*
G01*
X170874998Y-75875000D01*
G75*
G02*
X170625000Y-75625002I0J249998D01*
G01*
G37*
G36*
G01*
X158625000Y-75625002D02*
X158625000Y-73374998D01*
G75*
G02*
X158874998Y-73125000I249998J0D01*
G01*
X161125002Y-73125000D01*
G75*
G02*
X161375000Y-73374998I0J-249998D01*
G01*
X161375000Y-75625002D01*
G75*
G02*
X161125002Y-75875000I-249998J0D01*
G01*
X158874998Y-75875000D01*
G75*
G02*
X158625000Y-75625002I0J249998D01*
G01*
G37*
D15*
X160000000Y-70910000D03*
G36*
G01*
X146625000Y-75625002D02*
X146625000Y-73374998D01*
G75*
G02*
X146874998Y-73125000I249998J0D01*
G01*
X149125002Y-73125000D01*
G75*
G02*
X149375000Y-73374998I0J-249998D01*
G01*
X149375000Y-75625002D01*
G75*
G02*
X149125002Y-75875000I-249998J0D01*
G01*
X146874998Y-75875000D01*
G75*
G02*
X146625000Y-75625002I0J249998D01*
G01*
G37*
G36*
G01*
X134625000Y-75625002D02*
X134625000Y-73374998D01*
G75*
G02*
X134874998Y-73125000I249998J0D01*
G01*
X137125002Y-73125000D01*
G75*
G02*
X137375000Y-73374998I0J-249998D01*
G01*
X137375000Y-75625002D01*
G75*
G02*
X137125002Y-75875000I-249998J0D01*
G01*
X134874998Y-75875000D01*
G75*
G02*
X134625000Y-75625002I0J249998D01*
G01*
G37*
D16*
X183500000Y-66500000D03*
X136500000Y-66500000D03*
G36*
G01*
X166823779Y-119007270D02*
X167601597Y-119785088D01*
G75*
G02*
X167601597Y-120492194I-353553J-353553D01*
G01*
X167601597Y-120492194D01*
G75*
G02*
X166894491Y-120492194I-353553J353553D01*
G01*
X166116673Y-119714376D01*
G75*
G02*
X166116673Y-119007270I353553J353553D01*
G01*
X166116673Y-119007270D01*
G75*
G02*
X166823779Y-119007270I353553J-353553D01*
G01*
G37*
G36*
G01*
X160714376Y-125116673D02*
X161492194Y-125894491D01*
G75*
G02*
X161492194Y-126601597I-353553J-353553D01*
G01*
X161492194Y-126601597D01*
G75*
G02*
X160785088Y-126601597I-353553J353553D01*
G01*
X160007270Y-125823779D01*
G75*
G02*
X160007270Y-125116673I353553J353553D01*
G01*
X160007270Y-125116673D01*
G75*
G02*
X160714376Y-125116673I353553J-353553D01*
G01*
G37*
G36*
G01*
X169956262Y-122139753D02*
X170380526Y-122564017D01*
G75*
G02*
X170380526Y-123271123I-353553J-353553D01*
G01*
X170380526Y-123271123D01*
G75*
G02*
X169673420Y-123271123I-353553J353553D01*
G01*
X169249156Y-122846859D01*
G75*
G02*
X169249156Y-122139753I353553J353553D01*
G01*
X169249156Y-122139753D01*
G75*
G02*
X169956262Y-122139753I353553J-353553D01*
G01*
G37*
G36*
G01*
X163846859Y-128249156D02*
X164271123Y-128673420D01*
G75*
G02*
X164271123Y-129380526I-353553J-353553D01*
G01*
X164271123Y-129380526D01*
G75*
G02*
X163564017Y-129380526I-353553J353553D01*
G01*
X163139753Y-128956262D01*
G75*
G02*
X163139753Y-128249156I353553J353553D01*
G01*
X163139753Y-128249156D01*
G75*
G02*
X163846859Y-128249156I353553J-353553D01*
G01*
G37*
D17*
X162114448Y-125201525D03*
X166201525Y-121114448D03*
D10*
G36*
X160947722Y-124048942D02*
G01*
X161760894Y-124862114D01*
X161548762Y-125074246D01*
X160735590Y-124261074D01*
X160947722Y-124048942D01*
G37*
G36*
X161513408Y-123483256D02*
G01*
X162326580Y-124296428D01*
X162114448Y-124508560D01*
X161301276Y-123695388D01*
X161513408Y-123483256D01*
G37*
G36*
X161866961Y-123129703D02*
G01*
X162680133Y-123942875D01*
X162468001Y-124155007D01*
X161654829Y-123341835D01*
X161866961Y-123129703D01*
G37*
G36*
X162220515Y-122776150D02*
G01*
X163033687Y-123589322D01*
X162821555Y-123801454D01*
X162008383Y-122988282D01*
X162220515Y-122776150D01*
G37*
G36*
X162574068Y-122422596D02*
G01*
X163387240Y-123235768D01*
X163175108Y-123447900D01*
X162361936Y-122634728D01*
X162574068Y-122422596D01*
G37*
G36*
X162927621Y-122069043D02*
G01*
X163740793Y-122882215D01*
X163528661Y-123094347D01*
X162715489Y-122281175D01*
X162927621Y-122069043D01*
G37*
G36*
X163281175Y-121715489D02*
G01*
X164094347Y-122528661D01*
X163882215Y-122740793D01*
X163069043Y-121927621D01*
X163281175Y-121715489D01*
G37*
G36*
X163634728Y-121361936D02*
G01*
X164447900Y-122175108D01*
X164235768Y-122387240D01*
X163422596Y-121574068D01*
X163634728Y-121361936D01*
G37*
G36*
X163988282Y-121008383D02*
G01*
X164801454Y-121821555D01*
X164589322Y-122033687D01*
X163776150Y-121220515D01*
X163988282Y-121008383D01*
G37*
G36*
X164341835Y-120654829D02*
G01*
X165155007Y-121468001D01*
X164942875Y-121680133D01*
X164129703Y-120866961D01*
X164341835Y-120654829D01*
G37*
G36*
X164907520Y-120089144D02*
G01*
X165720692Y-120902316D01*
X165508560Y-121114448D01*
X164695388Y-120301276D01*
X164907520Y-120089144D01*
G37*
G36*
X165473206Y-119523458D02*
G01*
X166286378Y-120336630D01*
X166074246Y-120548762D01*
X165261074Y-119735590D01*
X165473206Y-119523458D01*
G37*
G36*
X165261074Y-119735590D02*
G01*
X166074246Y-120548762D01*
X165862114Y-120760894D01*
X165048942Y-119947722D01*
X165261074Y-119735590D01*
G37*
G36*
X164695388Y-120301276D02*
G01*
X165508560Y-121114448D01*
X165296428Y-121326580D01*
X164483256Y-120513408D01*
X164695388Y-120301276D01*
G37*
G36*
X161301276Y-123695388D02*
G01*
X162114448Y-124508560D01*
X161902316Y-124720692D01*
X161089144Y-123907520D01*
X161301276Y-123695388D01*
G37*
G36*
X160735590Y-124261074D02*
G01*
X161548762Y-125074246D01*
X161336630Y-125286378D01*
X160523458Y-124473206D01*
X160735590Y-124261074D01*
G37*
G36*
G01*
X182625000Y-98625002D02*
X182625000Y-96374998D01*
G75*
G02*
X182874998Y-96125000I249998J0D01*
G01*
X185125002Y-96125000D01*
G75*
G02*
X185375000Y-96374998I0J-249998D01*
G01*
X185375000Y-98625002D01*
G75*
G02*
X185125002Y-98875000I-249998J0D01*
G01*
X182874998Y-98875000D01*
G75*
G02*
X182625000Y-98625002I0J249998D01*
G01*
G37*
G36*
G01*
X158625000Y-98625002D02*
X158625000Y-96374998D01*
G75*
G02*
X158874998Y-96125000I249998J0D01*
G01*
X161125002Y-96125000D01*
G75*
G02*
X161375000Y-96374998I0J-249998D01*
G01*
X161375000Y-98625002D01*
G75*
G02*
X161125002Y-98875000I-249998J0D01*
G01*
X158874998Y-98875000D01*
G75*
G02*
X158625000Y-98625002I0J249998D01*
G01*
G37*
G36*
G01*
X134625000Y-98625002D02*
X134625000Y-96374998D01*
G75*
G02*
X134874998Y-96125000I249998J0D01*
G01*
X137125002Y-96125000D01*
G75*
G02*
X137375000Y-96374998I0J-249998D01*
G01*
X137375000Y-98625002D01*
G75*
G02*
X137125002Y-98875000I-249998J0D01*
G01*
X134874998Y-98875000D01*
G75*
G02*
X134625000Y-98625002I0J249998D01*
G01*
G37*
G36*
G01*
X170625000Y-98625002D02*
X170625000Y-96374998D01*
G75*
G02*
X170874998Y-96125000I249998J0D01*
G01*
X173125002Y-96125000D01*
G75*
G02*
X173375000Y-96374998I0J-249998D01*
G01*
X173375000Y-98625002D01*
G75*
G02*
X173125002Y-98875000I-249998J0D01*
G01*
X170874998Y-98875000D01*
G75*
G02*
X170625000Y-98625002I0J249998D01*
G01*
G37*
G36*
G01*
X146625000Y-98625002D02*
X146625000Y-96374998D01*
G75*
G02*
X146874998Y-96125000I249998J0D01*
G01*
X149125002Y-96125000D01*
G75*
G02*
X149375000Y-96374998I0J-249998D01*
G01*
X149375000Y-98625002D01*
G75*
G02*
X149125002Y-98875000I-249998J0D01*
G01*
X146874998Y-98875000D01*
G75*
G02*
X146625000Y-98625002I0J249998D01*
G01*
G37*
M02*
