G04 #@! TF.GenerationSoftware,KiCad,Pcbnew,(5.1.7)-1*
G04 #@! TF.CreationDate,2020-12-03T17:33:47+01:00*
G04 #@! TF.ProjectId,LED_Heart,4c45445f-4865-4617-9274-2e6b69636164,rev?*
G04 #@! TF.SameCoordinates,Original*
G04 #@! TF.FileFunction,Soldermask,Top*
G04 #@! TF.FilePolarity,Negative*
%FSLAX46Y46*%
G04 Gerber Fmt 4.6, Leading zero omitted, Abs format (unit mm)*
G04 Created by KiCad (PCBNEW (5.1.7)-1) date 2020-12-03 17:33:47*
%MOMM*%
%LPD*%
G01*
G04 APERTURE LIST*
%ADD10O,1.700000X1.700000*%
%ADD11R,1.700000X1.700000*%
%ADD12C,2.000000*%
%ADD13R,0.850000X0.850000*%
%ADD14R,0.800000X0.900000*%
%ADD15R,1.200000X1.400000*%
%ADD16R,0.800000X0.800000*%
%ADD17R,0.450000X0.600000*%
%ADD18R,0.600000X0.450000*%
%ADD19C,0.100000*%
%ADD20R,1.350000X0.700000*%
%ADD21R,1.350000X0.450000*%
%ADD22R,1.000000X1.500000*%
%ADD23R,1.500000X1.000000*%
%ADD24R,1.600000X0.550000*%
%ADD25R,0.550000X1.600000*%
%ADD26C,4.200000*%
%ADD27C,0.650000*%
G04 APERTURE END LIST*
D10*
X167140000Y-103020000D03*
D11*
X167140000Y-105560000D03*
D12*
X156750000Y-102750000D03*
X156750000Y-107250000D03*
X163250000Y-102750000D03*
X163250000Y-107250000D03*
X173780000Y-69130000D03*
X176961981Y-65948019D03*
X178376195Y-73726194D03*
X181558175Y-70544213D03*
D11*
X140100000Y-72000000D03*
D10*
X140100000Y-69460000D03*
X142640000Y-72000000D03*
X142640000Y-69460000D03*
X145180000Y-72000000D03*
X145180000Y-69460000D03*
D13*
X159600000Y-110700000D03*
X158200000Y-110700000D03*
G36*
G01*
X148950000Y-105575000D02*
X149250000Y-105575000D01*
G75*
G02*
X149400000Y-105725000I0J-150000D01*
G01*
X149400000Y-106750000D01*
G75*
G02*
X149250000Y-106900000I-150000J0D01*
G01*
X148950000Y-106900000D01*
G75*
G02*
X148800000Y-106750000I0J150000D01*
G01*
X148800000Y-105725000D01*
G75*
G02*
X148950000Y-105575000I150000J0D01*
G01*
G37*
G36*
G01*
X147050000Y-105575000D02*
X147350000Y-105575000D01*
G75*
G02*
X147500000Y-105725000I0J-150000D01*
G01*
X147500000Y-106750000D01*
G75*
G02*
X147350000Y-106900000I-150000J0D01*
G01*
X147050000Y-106900000D01*
G75*
G02*
X146900000Y-106750000I0J150000D01*
G01*
X146900000Y-105725000D01*
G75*
G02*
X147050000Y-105575000I150000J0D01*
G01*
G37*
G36*
G01*
X147050000Y-103300000D02*
X147350000Y-103300000D01*
G75*
G02*
X147500000Y-103450000I0J-150000D01*
G01*
X147500000Y-104475000D01*
G75*
G02*
X147350000Y-104625000I-150000J0D01*
G01*
X147050000Y-104625000D01*
G75*
G02*
X146900000Y-104475000I0J150000D01*
G01*
X146900000Y-103450000D01*
G75*
G02*
X147050000Y-103300000I150000J0D01*
G01*
G37*
G36*
G01*
X148000000Y-103300000D02*
X148300000Y-103300000D01*
G75*
G02*
X148450000Y-103450000I0J-150000D01*
G01*
X148450000Y-104475000D01*
G75*
G02*
X148300000Y-104625000I-150000J0D01*
G01*
X148000000Y-104625000D01*
G75*
G02*
X147850000Y-104475000I0J150000D01*
G01*
X147850000Y-103450000D01*
G75*
G02*
X148000000Y-103300000I150000J0D01*
G01*
G37*
G36*
G01*
X148950000Y-103300000D02*
X149250000Y-103300000D01*
G75*
G02*
X149400000Y-103450000I0J-150000D01*
G01*
X149400000Y-104475000D01*
G75*
G02*
X149250000Y-104625000I-150000J0D01*
G01*
X148950000Y-104625000D01*
G75*
G02*
X148800000Y-104475000I0J150000D01*
G01*
X148800000Y-103450000D01*
G75*
G02*
X148950000Y-103300000I150000J0D01*
G01*
G37*
D14*
X171070000Y-107200000D03*
X172020000Y-109200000D03*
X170120000Y-109200000D03*
D15*
X166600000Y-114400000D03*
X166600000Y-112200000D03*
X168300000Y-112200000D03*
X168300000Y-114400000D03*
G36*
G01*
X169950000Y-112005000D02*
X170450000Y-112005000D01*
G75*
G02*
X170675000Y-112230000I0J-225000D01*
G01*
X170675000Y-112680000D01*
G75*
G02*
X170450000Y-112905000I-225000J0D01*
G01*
X169950000Y-112905000D01*
G75*
G02*
X169725000Y-112680000I0J225000D01*
G01*
X169725000Y-112230000D01*
G75*
G02*
X169950000Y-112005000I225000J0D01*
G01*
G37*
G36*
G01*
X169950000Y-113555000D02*
X170450000Y-113555000D01*
G75*
G02*
X170675000Y-113780000I0J-225000D01*
G01*
X170675000Y-114230000D01*
G75*
G02*
X170450000Y-114455000I-225000J0D01*
G01*
X169950000Y-114455000D01*
G75*
G02*
X169725000Y-114230000I0J225000D01*
G01*
X169725000Y-113780000D01*
G75*
G02*
X169950000Y-113555000I225000J0D01*
G01*
G37*
G36*
G01*
X158085000Y-101730000D02*
X158085000Y-101230000D01*
G75*
G02*
X158310000Y-101005000I225000J0D01*
G01*
X158760000Y-101005000D01*
G75*
G02*
X158985000Y-101230000I0J-225000D01*
G01*
X158985000Y-101730000D01*
G75*
G02*
X158760000Y-101955000I-225000J0D01*
G01*
X158310000Y-101955000D01*
G75*
G02*
X158085000Y-101730000I0J225000D01*
G01*
G37*
G36*
G01*
X159635000Y-101730000D02*
X159635000Y-101230000D01*
G75*
G02*
X159860000Y-101005000I225000J0D01*
G01*
X160310000Y-101005000D01*
G75*
G02*
X160535000Y-101230000I0J-225000D01*
G01*
X160535000Y-101730000D01*
G75*
G02*
X160310000Y-101955000I-225000J0D01*
G01*
X159860000Y-101955000D01*
G75*
G02*
X159635000Y-101730000I0J225000D01*
G01*
G37*
G36*
G01*
X169420000Y-106025000D02*
X168920000Y-106025000D01*
G75*
G02*
X168695000Y-105800000I0J225000D01*
G01*
X168695000Y-105350000D01*
G75*
G02*
X168920000Y-105125000I225000J0D01*
G01*
X169420000Y-105125000D01*
G75*
G02*
X169645000Y-105350000I0J-225000D01*
G01*
X169645000Y-105800000D01*
G75*
G02*
X169420000Y-106025000I-225000J0D01*
G01*
G37*
G36*
G01*
X169420000Y-104475000D02*
X168920000Y-104475000D01*
G75*
G02*
X168695000Y-104250000I0J225000D01*
G01*
X168695000Y-103800000D01*
G75*
G02*
X168920000Y-103575000I225000J0D01*
G01*
X169420000Y-103575000D01*
G75*
G02*
X169645000Y-103800000I0J-225000D01*
G01*
X169645000Y-104250000D01*
G75*
G02*
X169420000Y-104475000I-225000J0D01*
G01*
G37*
G36*
G01*
X145002899Y-119907988D02*
X144649345Y-119554434D01*
G75*
G02*
X144649345Y-119236236I159099J159099D01*
G01*
X144967543Y-118918038D01*
G75*
G02*
X145285741Y-118918038I159099J-159099D01*
G01*
X145639295Y-119271592D01*
G75*
G02*
X145639295Y-119589790I-159099J-159099D01*
G01*
X145321097Y-119907988D01*
G75*
G02*
X145002899Y-119907988I-159099J159099D01*
G01*
G37*
G36*
G01*
X146098915Y-118811972D02*
X145745361Y-118458418D01*
G75*
G02*
X145745361Y-118140220I159099J159099D01*
G01*
X146063559Y-117822022D01*
G75*
G02*
X146381757Y-117822022I159099J-159099D01*
G01*
X146735311Y-118175576D01*
G75*
G02*
X146735311Y-118493774I-159099J-159099D01*
G01*
X146417113Y-118811972D01*
G75*
G02*
X146098915Y-118811972I-159099J159099D01*
G01*
G37*
G36*
G01*
X143747784Y-118617518D02*
X143394230Y-118263964D01*
G75*
G02*
X143394230Y-117945766I159099J159099D01*
G01*
X143712428Y-117627568D01*
G75*
G02*
X144030626Y-117627568I159099J-159099D01*
G01*
X144384180Y-117981122D01*
G75*
G02*
X144384180Y-118299320I-159099J-159099D01*
G01*
X144065982Y-118617518D01*
G75*
G02*
X143747784Y-118617518I-159099J159099D01*
G01*
G37*
G36*
G01*
X144843800Y-117521502D02*
X144490246Y-117167948D01*
G75*
G02*
X144490246Y-116849750I159099J159099D01*
G01*
X144808444Y-116531552D01*
G75*
G02*
X145126642Y-116531552I159099J-159099D01*
G01*
X145480196Y-116885106D01*
G75*
G02*
X145480196Y-117203304I-159099J-159099D01*
G01*
X145161998Y-117521502D01*
G75*
G02*
X144843800Y-117521502I-159099J159099D01*
G01*
G37*
G36*
G01*
X126974237Y-102599149D02*
X126620683Y-102245595D01*
G75*
G02*
X126620683Y-101927397I159099J159099D01*
G01*
X126938881Y-101609199D01*
G75*
G02*
X127257079Y-101609199I159099J-159099D01*
G01*
X127610633Y-101962753D01*
G75*
G02*
X127610633Y-102280951I-159099J-159099D01*
G01*
X127292435Y-102599149D01*
G75*
G02*
X126974237Y-102599149I-159099J159099D01*
G01*
G37*
G36*
G01*
X128070253Y-101503133D02*
X127716699Y-101149579D01*
G75*
G02*
X127716699Y-100831381I159099J159099D01*
G01*
X128034897Y-100513183D01*
G75*
G02*
X128353095Y-100513183I159099J-159099D01*
G01*
X128706649Y-100866737D01*
G75*
G02*
X128706649Y-101184935I-159099J-159099D01*
G01*
X128388451Y-101503133D01*
G75*
G02*
X128070253Y-101503133I-159099J159099D01*
G01*
G37*
G36*
G01*
X125701445Y-101326357D02*
X125347891Y-100972803D01*
G75*
G02*
X125347891Y-100654605I159099J159099D01*
G01*
X125666089Y-100336407D01*
G75*
G02*
X125984287Y-100336407I159099J-159099D01*
G01*
X126337841Y-100689961D01*
G75*
G02*
X126337841Y-101008159I-159099J-159099D01*
G01*
X126019643Y-101326357D01*
G75*
G02*
X125701445Y-101326357I-159099J159099D01*
G01*
G37*
G36*
G01*
X126797461Y-100230341D02*
X126443907Y-99876787D01*
G75*
G02*
X126443907Y-99558589I159099J159099D01*
G01*
X126762105Y-99240391D01*
G75*
G02*
X127080303Y-99240391I159099J-159099D01*
G01*
X127433857Y-99593945D01*
G75*
G02*
X127433857Y-99912143I-159099J-159099D01*
G01*
X127115659Y-100230341D01*
G75*
G02*
X126797461Y-100230341I-159099J159099D01*
G01*
G37*
G36*
G01*
X126009009Y-74062563D02*
X126362563Y-73709009D01*
G75*
G02*
X126680761Y-73709009I159099J-159099D01*
G01*
X126998959Y-74027207D01*
G75*
G02*
X126998959Y-74345405I-159099J-159099D01*
G01*
X126645405Y-74698959D01*
G75*
G02*
X126327207Y-74698959I-159099J159099D01*
G01*
X126009009Y-74380761D01*
G75*
G02*
X126009009Y-74062563I159099J159099D01*
G01*
G37*
G36*
G01*
X127105025Y-75158579D02*
X127458579Y-74805025D01*
G75*
G02*
X127776777Y-74805025I159099J-159099D01*
G01*
X128094975Y-75123223D01*
G75*
G02*
X128094975Y-75441421I-159099J-159099D01*
G01*
X127741421Y-75794975D01*
G75*
G02*
X127423223Y-75794975I-159099J159099D01*
G01*
X127105025Y-75476777D01*
G75*
G02*
X127105025Y-75158579I159099J159099D01*
G01*
G37*
G36*
G01*
X127189689Y-72875576D02*
X127543243Y-72522022D01*
G75*
G02*
X127861441Y-72522022I159099J-159099D01*
G01*
X128179639Y-72840220D01*
G75*
G02*
X128179639Y-73158418I-159099J-159099D01*
G01*
X127826085Y-73511972D01*
G75*
G02*
X127507887Y-73511972I-159099J159099D01*
G01*
X127189689Y-73193774D01*
G75*
G02*
X127189689Y-72875576I159099J159099D01*
G01*
G37*
G36*
G01*
X128285705Y-73971592D02*
X128639259Y-73618038D01*
G75*
G02*
X128957457Y-73618038I159099J-159099D01*
G01*
X129275655Y-73936236D01*
G75*
G02*
X129275655Y-74254434I-159099J-159099D01*
G01*
X128922101Y-74607988D01*
G75*
G02*
X128603903Y-74607988I-159099J159099D01*
G01*
X128285705Y-74289790D01*
G75*
G02*
X128285705Y-73971592I159099J159099D01*
G01*
G37*
G36*
G01*
X151189429Y-62957017D02*
X151542983Y-63310571D01*
G75*
G02*
X151542983Y-63628769I-159099J-159099D01*
G01*
X151224785Y-63946967D01*
G75*
G02*
X150906587Y-63946967I-159099J159099D01*
G01*
X150553033Y-63593413D01*
G75*
G02*
X150553033Y-63275215I159099J159099D01*
G01*
X150871231Y-62957017D01*
G75*
G02*
X151189429Y-62957017I159099J-159099D01*
G01*
G37*
G36*
G01*
X150093413Y-64053033D02*
X150446967Y-64406587D01*
G75*
G02*
X150446967Y-64724785I-159099J-159099D01*
G01*
X150128769Y-65042983D01*
G75*
G02*
X149810571Y-65042983I-159099J159099D01*
G01*
X149457017Y-64689429D01*
G75*
G02*
X149457017Y-64371231I159099J159099D01*
G01*
X149775215Y-64053033D01*
G75*
G02*
X150093413Y-64053033I159099J-159099D01*
G01*
G37*
G36*
G01*
X152441421Y-64205025D02*
X152794975Y-64558579D01*
G75*
G02*
X152794975Y-64876777I-159099J-159099D01*
G01*
X152476777Y-65194975D01*
G75*
G02*
X152158579Y-65194975I-159099J159099D01*
G01*
X151805025Y-64841421D01*
G75*
G02*
X151805025Y-64523223I159099J159099D01*
G01*
X152123223Y-64205025D01*
G75*
G02*
X152441421Y-64205025I159099J-159099D01*
G01*
G37*
G36*
G01*
X151345405Y-65301041D02*
X151698959Y-65654595D01*
G75*
G02*
X151698959Y-65972793I-159099J-159099D01*
G01*
X151380761Y-66290991D01*
G75*
G02*
X151062563Y-66290991I-159099J159099D01*
G01*
X150709009Y-65937437D01*
G75*
G02*
X150709009Y-65619239I159099J159099D01*
G01*
X151027207Y-65301041D01*
G75*
G02*
X151345405Y-65301041I159099J-159099D01*
G01*
G37*
G36*
G01*
X170450000Y-63000000D02*
X170950000Y-63000000D01*
G75*
G02*
X171175000Y-63225000I0J-225000D01*
G01*
X171175000Y-63675000D01*
G75*
G02*
X170950000Y-63900000I-225000J0D01*
G01*
X170450000Y-63900000D01*
G75*
G02*
X170225000Y-63675000I0J225000D01*
G01*
X170225000Y-63225000D01*
G75*
G02*
X170450000Y-63000000I225000J0D01*
G01*
G37*
G36*
G01*
X170450000Y-64550000D02*
X170950000Y-64550000D01*
G75*
G02*
X171175000Y-64775000I0J-225000D01*
G01*
X171175000Y-65225000D01*
G75*
G02*
X170950000Y-65450000I-225000J0D01*
G01*
X170450000Y-65450000D01*
G75*
G02*
X170225000Y-65225000I0J225000D01*
G01*
X170225000Y-64775000D01*
G75*
G02*
X170450000Y-64550000I225000J0D01*
G01*
G37*
G36*
G01*
X172250000Y-63000000D02*
X172750000Y-63000000D01*
G75*
G02*
X172975000Y-63225000I0J-225000D01*
G01*
X172975000Y-63675000D01*
G75*
G02*
X172750000Y-63900000I-225000J0D01*
G01*
X172250000Y-63900000D01*
G75*
G02*
X172025000Y-63675000I0J225000D01*
G01*
X172025000Y-63225000D01*
G75*
G02*
X172250000Y-63000000I225000J0D01*
G01*
G37*
G36*
G01*
X172250000Y-64550000D02*
X172750000Y-64550000D01*
G75*
G02*
X172975000Y-64775000I0J-225000D01*
G01*
X172975000Y-65225000D01*
G75*
G02*
X172750000Y-65450000I-225000J0D01*
G01*
X172250000Y-65450000D01*
G75*
G02*
X172025000Y-65225000I0J225000D01*
G01*
X172025000Y-64775000D01*
G75*
G02*
X172250000Y-64550000I225000J0D01*
G01*
G37*
G36*
G01*
X196050000Y-76450000D02*
X196050000Y-76950000D01*
G75*
G02*
X195825000Y-77175000I-225000J0D01*
G01*
X195375000Y-77175000D01*
G75*
G02*
X195150000Y-76950000I0J225000D01*
G01*
X195150000Y-76450000D01*
G75*
G02*
X195375000Y-76225000I225000J0D01*
G01*
X195825000Y-76225000D01*
G75*
G02*
X196050000Y-76450000I0J-225000D01*
G01*
G37*
G36*
G01*
X194500000Y-76450000D02*
X194500000Y-76950000D01*
G75*
G02*
X194275000Y-77175000I-225000J0D01*
G01*
X193825000Y-77175000D01*
G75*
G02*
X193600000Y-76950000I0J225000D01*
G01*
X193600000Y-76450000D01*
G75*
G02*
X193825000Y-76225000I225000J0D01*
G01*
X194275000Y-76225000D01*
G75*
G02*
X194500000Y-76450000I0J-225000D01*
G01*
G37*
G36*
G01*
X196050000Y-78250000D02*
X196050000Y-78750000D01*
G75*
G02*
X195825000Y-78975000I-225000J0D01*
G01*
X195375000Y-78975000D01*
G75*
G02*
X195150000Y-78750000I0J225000D01*
G01*
X195150000Y-78250000D01*
G75*
G02*
X195375000Y-78025000I225000J0D01*
G01*
X195825000Y-78025000D01*
G75*
G02*
X196050000Y-78250000I0J-225000D01*
G01*
G37*
G36*
G01*
X194500000Y-78250000D02*
X194500000Y-78750000D01*
G75*
G02*
X194275000Y-78975000I-225000J0D01*
G01*
X193825000Y-78975000D01*
G75*
G02*
X193600000Y-78750000I0J225000D01*
G01*
X193600000Y-78250000D01*
G75*
G02*
X193825000Y-78025000I225000J0D01*
G01*
X194275000Y-78025000D01*
G75*
G02*
X194500000Y-78250000I0J-225000D01*
G01*
G37*
G36*
G01*
X192442983Y-102389429D02*
X192089429Y-102742983D01*
G75*
G02*
X191771231Y-102742983I-159099J159099D01*
G01*
X191453033Y-102424785D01*
G75*
G02*
X191453033Y-102106587I159099J159099D01*
G01*
X191806587Y-101753033D01*
G75*
G02*
X192124785Y-101753033I159099J-159099D01*
G01*
X192442983Y-102071231D01*
G75*
G02*
X192442983Y-102389429I-159099J-159099D01*
G01*
G37*
G36*
G01*
X191346967Y-101293413D02*
X190993413Y-101646967D01*
G75*
G02*
X190675215Y-101646967I-159099J159099D01*
G01*
X190357017Y-101328769D01*
G75*
G02*
X190357017Y-101010571I159099J159099D01*
G01*
X190710571Y-100657017D01*
G75*
G02*
X191028769Y-100657017I159099J-159099D01*
G01*
X191346967Y-100975215D01*
G75*
G02*
X191346967Y-101293413I-159099J-159099D01*
G01*
G37*
G36*
G01*
X191242983Y-103589429D02*
X190889429Y-103942983D01*
G75*
G02*
X190571231Y-103942983I-159099J159099D01*
G01*
X190253033Y-103624785D01*
G75*
G02*
X190253033Y-103306587I159099J159099D01*
G01*
X190606587Y-102953033D01*
G75*
G02*
X190924785Y-102953033I159099J-159099D01*
G01*
X191242983Y-103271231D01*
G75*
G02*
X191242983Y-103589429I-159099J-159099D01*
G01*
G37*
G36*
G01*
X190146967Y-102493413D02*
X189793413Y-102846967D01*
G75*
G02*
X189475215Y-102846967I-159099J159099D01*
G01*
X189157017Y-102528769D01*
G75*
G02*
X189157017Y-102210571I159099J159099D01*
G01*
X189510571Y-101857017D01*
G75*
G02*
X189828769Y-101857017I159099J-159099D01*
G01*
X190146967Y-102175215D01*
G75*
G02*
X190146967Y-102493413I-159099J-159099D01*
G01*
G37*
G36*
G01*
X175490991Y-119437437D02*
X175137437Y-119790991D01*
G75*
G02*
X174819239Y-119790991I-159099J159099D01*
G01*
X174501041Y-119472793D01*
G75*
G02*
X174501041Y-119154595I159099J159099D01*
G01*
X174854595Y-118801041D01*
G75*
G02*
X175172793Y-118801041I159099J-159099D01*
G01*
X175490991Y-119119239D01*
G75*
G02*
X175490991Y-119437437I-159099J-159099D01*
G01*
G37*
G36*
G01*
X174394975Y-118341421D02*
X174041421Y-118694975D01*
G75*
G02*
X173723223Y-118694975I-159099J159099D01*
G01*
X173405025Y-118376777D01*
G75*
G02*
X173405025Y-118058579I159099J159099D01*
G01*
X173758579Y-117705025D01*
G75*
G02*
X174076777Y-117705025I159099J-159099D01*
G01*
X174394975Y-118023223D01*
G75*
G02*
X174394975Y-118341421I-159099J-159099D01*
G01*
G37*
G36*
G01*
X174294975Y-120641421D02*
X173941421Y-120994975D01*
G75*
G02*
X173623223Y-120994975I-159099J159099D01*
G01*
X173305025Y-120676777D01*
G75*
G02*
X173305025Y-120358579I159099J159099D01*
G01*
X173658579Y-120005025D01*
G75*
G02*
X173976777Y-120005025I159099J-159099D01*
G01*
X174294975Y-120323223D01*
G75*
G02*
X174294975Y-120641421I-159099J-159099D01*
G01*
G37*
G36*
G01*
X173198959Y-119545405D02*
X172845405Y-119898959D01*
G75*
G02*
X172527207Y-119898959I-159099J159099D01*
G01*
X172209009Y-119580761D01*
G75*
G02*
X172209009Y-119262563I159099J159099D01*
G01*
X172562563Y-118909009D01*
G75*
G02*
X172880761Y-118909009I159099J-159099D01*
G01*
X173198959Y-119227207D01*
G75*
G02*
X173198959Y-119545405I-159099J-159099D01*
G01*
G37*
G36*
G01*
X157137437Y-128409009D02*
X157490991Y-128762563D01*
G75*
G02*
X157490991Y-129080761I-159099J-159099D01*
G01*
X157172793Y-129398959D01*
G75*
G02*
X156854595Y-129398959I-159099J159099D01*
G01*
X156501041Y-129045405D01*
G75*
G02*
X156501041Y-128727207I159099J159099D01*
G01*
X156819239Y-128409009D01*
G75*
G02*
X157137437Y-128409009I159099J-159099D01*
G01*
G37*
G36*
G01*
X156041421Y-129505025D02*
X156394975Y-129858579D01*
G75*
G02*
X156394975Y-130176777I-159099J-159099D01*
G01*
X156076777Y-130494975D01*
G75*
G02*
X155758579Y-130494975I-159099J159099D01*
G01*
X155405025Y-130141421D01*
G75*
G02*
X155405025Y-129823223I159099J159099D01*
G01*
X155723223Y-129505025D01*
G75*
G02*
X156041421Y-129505025I159099J-159099D01*
G01*
G37*
G36*
G01*
X154070000Y-116460000D02*
X154410000Y-116460000D01*
G75*
G02*
X154550000Y-116600000I0J-140000D01*
G01*
X154550000Y-116880000D01*
G75*
G02*
X154410000Y-117020000I-140000J0D01*
G01*
X154070000Y-117020000D01*
G75*
G02*
X153930000Y-116880000I0J140000D01*
G01*
X153930000Y-116600000D01*
G75*
G02*
X154070000Y-116460000I140000J0D01*
G01*
G37*
G36*
G01*
X154070000Y-117420000D02*
X154410000Y-117420000D01*
G75*
G02*
X154550000Y-117560000I0J-140000D01*
G01*
X154550000Y-117840000D01*
G75*
G02*
X154410000Y-117980000I-140000J0D01*
G01*
X154070000Y-117980000D01*
G75*
G02*
X153930000Y-117840000I0J140000D01*
G01*
X153930000Y-117560000D01*
G75*
G02*
X154070000Y-117420000I140000J0D01*
G01*
G37*
G36*
G01*
X152230000Y-116460000D02*
X152570000Y-116460000D01*
G75*
G02*
X152710000Y-116600000I0J-140000D01*
G01*
X152710000Y-116880000D01*
G75*
G02*
X152570000Y-117020000I-140000J0D01*
G01*
X152230000Y-117020000D01*
G75*
G02*
X152090000Y-116880000I0J140000D01*
G01*
X152090000Y-116600000D01*
G75*
G02*
X152230000Y-116460000I140000J0D01*
G01*
G37*
G36*
G01*
X152230000Y-117420000D02*
X152570000Y-117420000D01*
G75*
G02*
X152710000Y-117560000I0J-140000D01*
G01*
X152710000Y-117840000D01*
G75*
G02*
X152570000Y-117980000I-140000J0D01*
G01*
X152230000Y-117980000D01*
G75*
G02*
X152090000Y-117840000I0J140000D01*
G01*
X152090000Y-117560000D01*
G75*
G02*
X152230000Y-117420000I140000J0D01*
G01*
G37*
G36*
G01*
X165610000Y-115560000D02*
X165950000Y-115560000D01*
G75*
G02*
X166090000Y-115700000I0J-140000D01*
G01*
X166090000Y-115980000D01*
G75*
G02*
X165950000Y-116120000I-140000J0D01*
G01*
X165610000Y-116120000D01*
G75*
G02*
X165470000Y-115980000I0J140000D01*
G01*
X165470000Y-115700000D01*
G75*
G02*
X165610000Y-115560000I140000J0D01*
G01*
G37*
G36*
G01*
X165610000Y-116520000D02*
X165950000Y-116520000D01*
G75*
G02*
X166090000Y-116660000I0J-140000D01*
G01*
X166090000Y-116940000D01*
G75*
G02*
X165950000Y-117080000I-140000J0D01*
G01*
X165610000Y-117080000D01*
G75*
G02*
X165470000Y-116940000I0J140000D01*
G01*
X165470000Y-116660000D01*
G75*
G02*
X165610000Y-116520000I140000J0D01*
G01*
G37*
G36*
G01*
X153150000Y-116460000D02*
X153490000Y-116460000D01*
G75*
G02*
X153630000Y-116600000I0J-140000D01*
G01*
X153630000Y-116880000D01*
G75*
G02*
X153490000Y-117020000I-140000J0D01*
G01*
X153150000Y-117020000D01*
G75*
G02*
X153010000Y-116880000I0J140000D01*
G01*
X153010000Y-116600000D01*
G75*
G02*
X153150000Y-116460000I140000J0D01*
G01*
G37*
G36*
G01*
X153150000Y-117420000D02*
X153490000Y-117420000D01*
G75*
G02*
X153630000Y-117560000I0J-140000D01*
G01*
X153630000Y-117840000D01*
G75*
G02*
X153490000Y-117980000I-140000J0D01*
G01*
X153150000Y-117980000D01*
G75*
G02*
X153010000Y-117840000I0J140000D01*
G01*
X153010000Y-117560000D01*
G75*
G02*
X153150000Y-117420000I140000J0D01*
G01*
G37*
G36*
G01*
X166590000Y-110670000D02*
X166590000Y-110330000D01*
G75*
G02*
X166730000Y-110190000I140000J0D01*
G01*
X167010000Y-110190000D01*
G75*
G02*
X167150000Y-110330000I0J-140000D01*
G01*
X167150000Y-110670000D01*
G75*
G02*
X167010000Y-110810000I-140000J0D01*
G01*
X166730000Y-110810000D01*
G75*
G02*
X166590000Y-110670000I0J140000D01*
G01*
G37*
G36*
G01*
X167550000Y-110670000D02*
X167550000Y-110330000D01*
G75*
G02*
X167690000Y-110190000I140000J0D01*
G01*
X167970000Y-110190000D01*
G75*
G02*
X168110000Y-110330000I0J-140000D01*
G01*
X168110000Y-110670000D01*
G75*
G02*
X167970000Y-110810000I-140000J0D01*
G01*
X167690000Y-110810000D01*
G75*
G02*
X167550000Y-110670000I0J140000D01*
G01*
G37*
G36*
G01*
X168110000Y-115930000D02*
X168110000Y-116270000D01*
G75*
G02*
X167970000Y-116410000I-140000J0D01*
G01*
X167690000Y-116410000D01*
G75*
G02*
X167550000Y-116270000I0J140000D01*
G01*
X167550000Y-115930000D01*
G75*
G02*
X167690000Y-115790000I140000J0D01*
G01*
X167970000Y-115790000D01*
G75*
G02*
X168110000Y-115930000I0J-140000D01*
G01*
G37*
G36*
G01*
X167150000Y-115930000D02*
X167150000Y-116270000D01*
G75*
G02*
X167010000Y-116410000I-140000J0D01*
G01*
X166730000Y-116410000D01*
G75*
G02*
X166590000Y-116270000I0J140000D01*
G01*
X166590000Y-115930000D01*
G75*
G02*
X166730000Y-115790000I140000J0D01*
G01*
X167010000Y-115790000D01*
G75*
G02*
X167150000Y-115930000I0J-140000D01*
G01*
G37*
G36*
G01*
X158260000Y-102900000D02*
X158260000Y-102560000D01*
G75*
G02*
X158400000Y-102420000I140000J0D01*
G01*
X158680000Y-102420000D01*
G75*
G02*
X158820000Y-102560000I0J-140000D01*
G01*
X158820000Y-102900000D01*
G75*
G02*
X158680000Y-103040000I-140000J0D01*
G01*
X158400000Y-103040000D01*
G75*
G02*
X158260000Y-102900000I0J140000D01*
G01*
G37*
G36*
G01*
X159220000Y-102900000D02*
X159220000Y-102560000D01*
G75*
G02*
X159360000Y-102420000I140000J0D01*
G01*
X159640000Y-102420000D01*
G75*
G02*
X159780000Y-102560000I0J-140000D01*
G01*
X159780000Y-102900000D01*
G75*
G02*
X159640000Y-103040000I-140000J0D01*
G01*
X159360000Y-103040000D01*
G75*
G02*
X159220000Y-102900000I0J140000D01*
G01*
G37*
G36*
G01*
X150820000Y-106360000D02*
X150480000Y-106360000D01*
G75*
G02*
X150340000Y-106220000I0J140000D01*
G01*
X150340000Y-105940000D01*
G75*
G02*
X150480000Y-105800000I140000J0D01*
G01*
X150820000Y-105800000D01*
G75*
G02*
X150960000Y-105940000I0J-140000D01*
G01*
X150960000Y-106220000D01*
G75*
G02*
X150820000Y-106360000I-140000J0D01*
G01*
G37*
G36*
G01*
X150820000Y-105400000D02*
X150480000Y-105400000D01*
G75*
G02*
X150340000Y-105260000I0J140000D01*
G01*
X150340000Y-104980000D01*
G75*
G02*
X150480000Y-104840000I140000J0D01*
G01*
X150820000Y-104840000D01*
G75*
G02*
X150960000Y-104980000I0J-140000D01*
G01*
X150960000Y-105260000D01*
G75*
G02*
X150820000Y-105400000I-140000J0D01*
G01*
G37*
G36*
G01*
X149410000Y-102430000D02*
X149410000Y-102770000D01*
G75*
G02*
X149270000Y-102910000I-140000J0D01*
G01*
X148990000Y-102910000D01*
G75*
G02*
X148850000Y-102770000I0J140000D01*
G01*
X148850000Y-102430000D01*
G75*
G02*
X148990000Y-102290000I140000J0D01*
G01*
X149270000Y-102290000D01*
G75*
G02*
X149410000Y-102430000I0J-140000D01*
G01*
G37*
G36*
G01*
X148450000Y-102430000D02*
X148450000Y-102770000D01*
G75*
G02*
X148310000Y-102910000I-140000J0D01*
G01*
X148030000Y-102910000D01*
G75*
G02*
X147890000Y-102770000I0J140000D01*
G01*
X147890000Y-102430000D01*
G75*
G02*
X148030000Y-102290000I140000J0D01*
G01*
X148310000Y-102290000D01*
G75*
G02*
X148450000Y-102430000I0J-140000D01*
G01*
G37*
G36*
G01*
X174410000Y-108870000D02*
X174410000Y-108530000D01*
G75*
G02*
X174550000Y-108390000I140000J0D01*
G01*
X174830000Y-108390000D01*
G75*
G02*
X174970000Y-108530000I0J-140000D01*
G01*
X174970000Y-108870000D01*
G75*
G02*
X174830000Y-109010000I-140000J0D01*
G01*
X174550000Y-109010000D01*
G75*
G02*
X174410000Y-108870000I0J140000D01*
G01*
G37*
G36*
G01*
X175370000Y-108870000D02*
X175370000Y-108530000D01*
G75*
G02*
X175510000Y-108390000I140000J0D01*
G01*
X175790000Y-108390000D01*
G75*
G02*
X175930000Y-108530000I0J-140000D01*
G01*
X175930000Y-108870000D01*
G75*
G02*
X175790000Y-109010000I-140000J0D01*
G01*
X175510000Y-109010000D01*
G75*
G02*
X175370000Y-108870000I0J140000D01*
G01*
G37*
D16*
X152150000Y-105300000D03*
X152150000Y-106900000D03*
X179170000Y-104900000D03*
X179170000Y-106500000D03*
X177670000Y-104900000D03*
X177670000Y-106500000D03*
G36*
G01*
X158472357Y-128220728D02*
X158210728Y-128482357D01*
G75*
G02*
X158019810Y-128482357I-95459J95459D01*
G01*
X157828891Y-128291438D01*
G75*
G02*
X157828891Y-128100520I95459J95459D01*
G01*
X158090520Y-127838891D01*
G75*
G02*
X158281438Y-127838891I95459J-95459D01*
G01*
X158472357Y-128029810D01*
G75*
G02*
X158472357Y-128220728I-95459J-95459D01*
G01*
G37*
G36*
G01*
X157751109Y-127499480D02*
X157489480Y-127761109D01*
G75*
G02*
X157298562Y-127761109I-95459J95459D01*
G01*
X157107643Y-127570190D01*
G75*
G02*
X157107643Y-127379272I95459J95459D01*
G01*
X157369272Y-127117643D01*
G75*
G02*
X157560190Y-127117643I95459J-95459D01*
G01*
X157751109Y-127308562D01*
G75*
G02*
X157751109Y-127499480I-95459J-95459D01*
G01*
G37*
G36*
G01*
X176610728Y-110427643D02*
X176872357Y-110689272D01*
G75*
G02*
X176872357Y-110880190I-95459J-95459D01*
G01*
X176681438Y-111071109D01*
G75*
G02*
X176490520Y-111071109I-95459J95459D01*
G01*
X176228891Y-110809480D01*
G75*
G02*
X176228891Y-110618562I95459J95459D01*
G01*
X176419810Y-110427643D01*
G75*
G02*
X176610728Y-110427643I95459J-95459D01*
G01*
G37*
G36*
G01*
X175889480Y-111148891D02*
X176151109Y-111410520D01*
G75*
G02*
X176151109Y-111601438I-95459J-95459D01*
G01*
X175960190Y-111792357D01*
G75*
G02*
X175769272Y-111792357I-95459J95459D01*
G01*
X175507643Y-111530728D01*
G75*
G02*
X175507643Y-111339810I95459J95459D01*
G01*
X175698562Y-111148891D01*
G75*
G02*
X175889480Y-111148891I95459J-95459D01*
G01*
G37*
G36*
G01*
X159020000Y-107935000D02*
X159020000Y-107565000D01*
G75*
G02*
X159155000Y-107430000I135000J0D01*
G01*
X159425000Y-107430000D01*
G75*
G02*
X159560000Y-107565000I0J-135000D01*
G01*
X159560000Y-107935000D01*
G75*
G02*
X159425000Y-108070000I-135000J0D01*
G01*
X159155000Y-108070000D01*
G75*
G02*
X159020000Y-107935000I0J135000D01*
G01*
G37*
G36*
G01*
X160040000Y-107935000D02*
X160040000Y-107565000D01*
G75*
G02*
X160175000Y-107430000I135000J0D01*
G01*
X160445000Y-107430000D01*
G75*
G02*
X160580000Y-107565000I0J-135000D01*
G01*
X160580000Y-107935000D01*
G75*
G02*
X160445000Y-108070000I-135000J0D01*
G01*
X160175000Y-108070000D01*
G75*
G02*
X160040000Y-107935000I0J135000D01*
G01*
G37*
G36*
G01*
X164045000Y-104000000D02*
X164415000Y-104000000D01*
G75*
G02*
X164550000Y-104135000I0J-135000D01*
G01*
X164550000Y-104405000D01*
G75*
G02*
X164415000Y-104540000I-135000J0D01*
G01*
X164045000Y-104540000D01*
G75*
G02*
X163910000Y-104405000I0J135000D01*
G01*
X163910000Y-104135000D01*
G75*
G02*
X164045000Y-104000000I135000J0D01*
G01*
G37*
G36*
G01*
X164045000Y-105020000D02*
X164415000Y-105020000D01*
G75*
G02*
X164550000Y-105155000I0J-135000D01*
G01*
X164550000Y-105425000D01*
G75*
G02*
X164415000Y-105560000I-135000J0D01*
G01*
X164045000Y-105560000D01*
G75*
G02*
X163910000Y-105425000I0J135000D01*
G01*
X163910000Y-105155000D01*
G75*
G02*
X164045000Y-105020000I135000J0D01*
G01*
G37*
G36*
G01*
X157720000Y-124685000D02*
X157720000Y-124315000D01*
G75*
G02*
X157855000Y-124180000I135000J0D01*
G01*
X158125000Y-124180000D01*
G75*
G02*
X158260000Y-124315000I0J-135000D01*
G01*
X158260000Y-124685000D01*
G75*
G02*
X158125000Y-124820000I-135000J0D01*
G01*
X157855000Y-124820000D01*
G75*
G02*
X157720000Y-124685000I0J135000D01*
G01*
G37*
G36*
G01*
X158740000Y-124685000D02*
X158740000Y-124315000D01*
G75*
G02*
X158875000Y-124180000I135000J0D01*
G01*
X159145000Y-124180000D01*
G75*
G02*
X159280000Y-124315000I0J-135000D01*
G01*
X159280000Y-124685000D01*
G75*
G02*
X159145000Y-124820000I-135000J0D01*
G01*
X158875000Y-124820000D01*
G75*
G02*
X158740000Y-124685000I0J135000D01*
G01*
G37*
G36*
G01*
X165311550Y-126191485D02*
X165049921Y-125929856D01*
G75*
G02*
X165049921Y-125738938I95459J95459D01*
G01*
X165240840Y-125548019D01*
G75*
G02*
X165431758Y-125548019I95459J-95459D01*
G01*
X165693387Y-125809648D01*
G75*
G02*
X165693387Y-126000566I-95459J-95459D01*
G01*
X165502468Y-126191485D01*
G75*
G02*
X165311550Y-126191485I-95459J95459D01*
G01*
G37*
G36*
G01*
X166032798Y-125470237D02*
X165771169Y-125208608D01*
G75*
G02*
X165771169Y-125017690I95459J95459D01*
G01*
X165962088Y-124826771D01*
G75*
G02*
X166153006Y-124826771I95459J-95459D01*
G01*
X166414635Y-125088400D01*
G75*
G02*
X166414635Y-125279318I-95459J-95459D01*
G01*
X166223716Y-125470237D01*
G75*
G02*
X166032798Y-125470237I-95459J95459D01*
G01*
G37*
G36*
G01*
X164549272Y-125432357D02*
X164287643Y-125170728D01*
G75*
G02*
X164287643Y-124979810I95459J95459D01*
G01*
X164478562Y-124788891D01*
G75*
G02*
X164669480Y-124788891I95459J-95459D01*
G01*
X164931109Y-125050520D01*
G75*
G02*
X164931109Y-125241438I-95459J-95459D01*
G01*
X164740190Y-125432357D01*
G75*
G02*
X164549272Y-125432357I-95459J95459D01*
G01*
G37*
G36*
G01*
X165270520Y-124711109D02*
X165008891Y-124449480D01*
G75*
G02*
X165008891Y-124258562I95459J95459D01*
G01*
X165199810Y-124067643D01*
G75*
G02*
X165390728Y-124067643I95459J-95459D01*
G01*
X165652357Y-124329272D01*
G75*
G02*
X165652357Y-124520190I-95459J-95459D01*
G01*
X165461438Y-124711109D01*
G75*
G02*
X165270520Y-124711109I-95459J95459D01*
G01*
G37*
G36*
G01*
X167775000Y-108770000D02*
X167405000Y-108770000D01*
G75*
G02*
X167270000Y-108635000I0J135000D01*
G01*
X167270000Y-108365000D01*
G75*
G02*
X167405000Y-108230000I135000J0D01*
G01*
X167775000Y-108230000D01*
G75*
G02*
X167910000Y-108365000I0J-135000D01*
G01*
X167910000Y-108635000D01*
G75*
G02*
X167775000Y-108770000I-135000J0D01*
G01*
G37*
G36*
G01*
X167775000Y-107750000D02*
X167405000Y-107750000D01*
G75*
G02*
X167270000Y-107615000I0J135000D01*
G01*
X167270000Y-107345000D01*
G75*
G02*
X167405000Y-107210000I135000J0D01*
G01*
X167775000Y-107210000D01*
G75*
G02*
X167910000Y-107345000I0J-135000D01*
G01*
X167910000Y-107615000D01*
G75*
G02*
X167775000Y-107750000I-135000J0D01*
G01*
G37*
G36*
G01*
X168405000Y-107210000D02*
X168775000Y-107210000D01*
G75*
G02*
X168910000Y-107345000I0J-135000D01*
G01*
X168910000Y-107615000D01*
G75*
G02*
X168775000Y-107750000I-135000J0D01*
G01*
X168405000Y-107750000D01*
G75*
G02*
X168270000Y-107615000I0J135000D01*
G01*
X168270000Y-107345000D01*
G75*
G02*
X168405000Y-107210000I135000J0D01*
G01*
G37*
G36*
G01*
X168405000Y-108230000D02*
X168775000Y-108230000D01*
G75*
G02*
X168910000Y-108365000I0J-135000D01*
G01*
X168910000Y-108635000D01*
G75*
G02*
X168775000Y-108770000I-135000J0D01*
G01*
X168405000Y-108770000D01*
G75*
G02*
X168270000Y-108635000I0J135000D01*
G01*
X168270000Y-108365000D01*
G75*
G02*
X168405000Y-108230000I135000J0D01*
G01*
G37*
G36*
G01*
X174050000Y-102215000D02*
X174050000Y-102585000D01*
G75*
G02*
X173915000Y-102720000I-135000J0D01*
G01*
X173645000Y-102720000D01*
G75*
G02*
X173510000Y-102585000I0J135000D01*
G01*
X173510000Y-102215000D01*
G75*
G02*
X173645000Y-102080000I135000J0D01*
G01*
X173915000Y-102080000D01*
G75*
G02*
X174050000Y-102215000I0J-135000D01*
G01*
G37*
G36*
G01*
X173030000Y-102215000D02*
X173030000Y-102585000D01*
G75*
G02*
X172895000Y-102720000I-135000J0D01*
G01*
X172625000Y-102720000D01*
G75*
G02*
X172490000Y-102585000I0J135000D01*
G01*
X172490000Y-102215000D01*
G75*
G02*
X172625000Y-102080000I135000J0D01*
G01*
X172895000Y-102080000D01*
G75*
G02*
X173030000Y-102215000I0J-135000D01*
G01*
G37*
G36*
G01*
X166185000Y-108770000D02*
X165815000Y-108770000D01*
G75*
G02*
X165680000Y-108635000I0J135000D01*
G01*
X165680000Y-108365000D01*
G75*
G02*
X165815000Y-108230000I135000J0D01*
G01*
X166185000Y-108230000D01*
G75*
G02*
X166320000Y-108365000I0J-135000D01*
G01*
X166320000Y-108635000D01*
G75*
G02*
X166185000Y-108770000I-135000J0D01*
G01*
G37*
G36*
G01*
X166185000Y-107750000D02*
X165815000Y-107750000D01*
G75*
G02*
X165680000Y-107615000I0J135000D01*
G01*
X165680000Y-107345000D01*
G75*
G02*
X165815000Y-107210000I135000J0D01*
G01*
X166185000Y-107210000D01*
G75*
G02*
X166320000Y-107345000I0J-135000D01*
G01*
X166320000Y-107615000D01*
G75*
G02*
X166185000Y-107750000I-135000J0D01*
G01*
G37*
G36*
G01*
X164815000Y-107220000D02*
X165185000Y-107220000D01*
G75*
G02*
X165320000Y-107355000I0J-135000D01*
G01*
X165320000Y-107625000D01*
G75*
G02*
X165185000Y-107760000I-135000J0D01*
G01*
X164815000Y-107760000D01*
G75*
G02*
X164680000Y-107625000I0J135000D01*
G01*
X164680000Y-107355000D01*
G75*
G02*
X164815000Y-107220000I135000J0D01*
G01*
G37*
G36*
G01*
X164815000Y-108240000D02*
X165185000Y-108240000D01*
G75*
G02*
X165320000Y-108375000I0J-135000D01*
G01*
X165320000Y-108645000D01*
G75*
G02*
X165185000Y-108780000I-135000J0D01*
G01*
X164815000Y-108780000D01*
G75*
G02*
X164680000Y-108645000I0J135000D01*
G01*
X164680000Y-108375000D01*
G75*
G02*
X164815000Y-108240000I135000J0D01*
G01*
G37*
G36*
G01*
X149870000Y-107285000D02*
X149870000Y-106915000D01*
G75*
G02*
X150005000Y-106780000I135000J0D01*
G01*
X150275000Y-106780000D01*
G75*
G02*
X150410000Y-106915000I0J-135000D01*
G01*
X150410000Y-107285000D01*
G75*
G02*
X150275000Y-107420000I-135000J0D01*
G01*
X150005000Y-107420000D01*
G75*
G02*
X149870000Y-107285000I0J135000D01*
G01*
G37*
G36*
G01*
X150890000Y-107285000D02*
X150890000Y-106915000D01*
G75*
G02*
X151025000Y-106780000I135000J0D01*
G01*
X151295000Y-106780000D01*
G75*
G02*
X151430000Y-106915000I0J-135000D01*
G01*
X151430000Y-107285000D01*
G75*
G02*
X151295000Y-107420000I-135000J0D01*
G01*
X151025000Y-107420000D01*
G75*
G02*
X150890000Y-107285000I0J135000D01*
G01*
G37*
G36*
G01*
X172720000Y-113595000D02*
X172720000Y-113965000D01*
G75*
G02*
X172585000Y-114100000I-135000J0D01*
G01*
X172315000Y-114100000D01*
G75*
G02*
X172180000Y-113965000I0J135000D01*
G01*
X172180000Y-113595000D01*
G75*
G02*
X172315000Y-113460000I135000J0D01*
G01*
X172585000Y-113460000D01*
G75*
G02*
X172720000Y-113595000I0J-135000D01*
G01*
G37*
G36*
G01*
X171700000Y-113595000D02*
X171700000Y-113965000D01*
G75*
G02*
X171565000Y-114100000I-135000J0D01*
G01*
X171295000Y-114100000D01*
G75*
G02*
X171160000Y-113965000I0J135000D01*
G01*
X171160000Y-113595000D01*
G75*
G02*
X171295000Y-113460000I135000J0D01*
G01*
X171565000Y-113460000D01*
G75*
G02*
X171700000Y-113595000I0J-135000D01*
G01*
G37*
G36*
G01*
X171160000Y-112865000D02*
X171160000Y-112495000D01*
G75*
G02*
X171295000Y-112360000I135000J0D01*
G01*
X171565000Y-112360000D01*
G75*
G02*
X171700000Y-112495000I0J-135000D01*
G01*
X171700000Y-112865000D01*
G75*
G02*
X171565000Y-113000000I-135000J0D01*
G01*
X171295000Y-113000000D01*
G75*
G02*
X171160000Y-112865000I0J135000D01*
G01*
G37*
G36*
G01*
X172180000Y-112865000D02*
X172180000Y-112495000D01*
G75*
G02*
X172315000Y-112360000I135000J0D01*
G01*
X172585000Y-112360000D01*
G75*
G02*
X172720000Y-112495000I0J-135000D01*
G01*
X172720000Y-112865000D01*
G75*
G02*
X172585000Y-113000000I-135000J0D01*
G01*
X172315000Y-113000000D01*
G75*
G02*
X172180000Y-112865000I0J135000D01*
G01*
G37*
G36*
G01*
X174390000Y-107885000D02*
X174390000Y-107515000D01*
G75*
G02*
X174525000Y-107380000I135000J0D01*
G01*
X174795000Y-107380000D01*
G75*
G02*
X174930000Y-107515000I0J-135000D01*
G01*
X174930000Y-107885000D01*
G75*
G02*
X174795000Y-108020000I-135000J0D01*
G01*
X174525000Y-108020000D01*
G75*
G02*
X174390000Y-107885000I0J135000D01*
G01*
G37*
G36*
G01*
X175410000Y-107885000D02*
X175410000Y-107515000D01*
G75*
G02*
X175545000Y-107380000I135000J0D01*
G01*
X175815000Y-107380000D01*
G75*
G02*
X175950000Y-107515000I0J-135000D01*
G01*
X175950000Y-107885000D01*
G75*
G02*
X175815000Y-108020000I-135000J0D01*
G01*
X175545000Y-108020000D01*
G75*
G02*
X175410000Y-107885000I0J135000D01*
G01*
G37*
D17*
X145430000Y-106090000D03*
X145430000Y-103990000D03*
D18*
X170020000Y-110700000D03*
X172120000Y-110700000D03*
D17*
X143450000Y-106090000D03*
X143450000Y-103990000D03*
D19*
G36*
X135489860Y-110280240D02*
G01*
X135100952Y-109891332D01*
X135383794Y-109608489D01*
X135065596Y-109290291D01*
X135454505Y-108901382D01*
X135772703Y-109219580D01*
X136055546Y-108936738D01*
X136444454Y-109325646D01*
X135489860Y-110280240D01*
G37*
G36*
X135843414Y-110633794D02*
G01*
X136798008Y-109679200D01*
X137292982Y-110174174D01*
X136338388Y-111128768D01*
X135843414Y-110633794D01*
G37*
G36*
X136656587Y-111446967D02*
G01*
X137611181Y-110492373D01*
X137929379Y-110810571D01*
X136974785Y-111765165D01*
X136656587Y-111446967D01*
G37*
G36*
X138282932Y-111164125D02*
G01*
X138671840Y-111553033D01*
X138388998Y-111835876D01*
X138707196Y-112154074D01*
X138318287Y-112542983D01*
X138000089Y-112224785D01*
X137717246Y-112507627D01*
X137328338Y-112118719D01*
X138282932Y-111164125D01*
G37*
G36*
X123825000Y-87700000D02*
G01*
X123825000Y-87150000D01*
X124225000Y-87150000D01*
X124225000Y-86700000D01*
X124775000Y-86700000D01*
X124775000Y-87150000D01*
X125175000Y-87150000D01*
X125175000Y-87700000D01*
X123825000Y-87700000D01*
G37*
D20*
X124500000Y-88550000D03*
D21*
X124500000Y-89575000D03*
D19*
G36*
X125175000Y-90300000D02*
G01*
X125175000Y-90850000D01*
X124775000Y-90850000D01*
X124775000Y-91300000D01*
X124225000Y-91300000D01*
X124225000Y-90850000D01*
X123825000Y-90850000D01*
X123825000Y-90300000D01*
X125175000Y-90300000D01*
G37*
G36*
X196175000Y-90250000D02*
G01*
X196175000Y-90800000D01*
X195775000Y-90800000D01*
X195775000Y-91250000D01*
X195225000Y-91250000D01*
X195225000Y-90800000D01*
X194825000Y-90800000D01*
X194825000Y-90250000D01*
X196175000Y-90250000D01*
G37*
D20*
X195500000Y-89400000D03*
D21*
X195500000Y-88375000D03*
D19*
G36*
X194825000Y-87650000D02*
G01*
X194825000Y-87100000D01*
X195225000Y-87100000D01*
X195225000Y-86650000D01*
X195775000Y-86650000D01*
X195775000Y-87100000D01*
X196175000Y-87100000D01*
X196175000Y-87650000D01*
X194825000Y-87650000D01*
G37*
G36*
X182530240Y-112010140D02*
G01*
X182141332Y-112399048D01*
X181858489Y-112116206D01*
X181540291Y-112434404D01*
X181151382Y-112045495D01*
X181469580Y-111727297D01*
X181186738Y-111444454D01*
X181575646Y-111055546D01*
X182530240Y-112010140D01*
G37*
G36*
X182883794Y-111656586D02*
G01*
X181929200Y-110701992D01*
X182424174Y-110207018D01*
X183378768Y-111161612D01*
X182883794Y-111656586D01*
G37*
G36*
X183696967Y-110843413D02*
G01*
X182742373Y-109888819D01*
X183060571Y-109570621D01*
X184015165Y-110525215D01*
X183696967Y-110843413D01*
G37*
G36*
X183414125Y-109217068D02*
G01*
X183803033Y-108828160D01*
X184085876Y-109111002D01*
X184404074Y-108792804D01*
X184792983Y-109181713D01*
X184474785Y-109499911D01*
X184757627Y-109782754D01*
X184368719Y-110171662D01*
X183414125Y-109217068D01*
G37*
G36*
X150782842Y-119812995D02*
G01*
X150075736Y-120520101D01*
X149015076Y-119459441D01*
X149722182Y-118752335D01*
X150782842Y-119812995D01*
G37*
G36*
X148520101Y-122075736D02*
G01*
X147812995Y-122782842D01*
X146752335Y-121722182D01*
X147459441Y-121015076D01*
X148520101Y-122075736D01*
G37*
G36*
X154247665Y-123277818D02*
G01*
X153540559Y-123984924D01*
X152479899Y-122924264D01*
X153187005Y-122217158D01*
X154247665Y-123277818D01*
G37*
G36*
X151984924Y-125540559D02*
G01*
X151277818Y-126247665D01*
X150217158Y-125187005D01*
X150924264Y-124479899D01*
X151984924Y-125540559D01*
G37*
G36*
X142282842Y-111312995D02*
G01*
X141575736Y-112020101D01*
X140515076Y-110959441D01*
X141222182Y-110252335D01*
X142282842Y-111312995D01*
G37*
G36*
X140020101Y-113575736D02*
G01*
X139312995Y-114282842D01*
X138252335Y-113222182D01*
X138959441Y-112515076D01*
X140020101Y-113575736D01*
G37*
G36*
X145747665Y-114777818D02*
G01*
X145040559Y-115484924D01*
X143979899Y-114424264D01*
X144687005Y-113717158D01*
X145747665Y-114777818D01*
G37*
G36*
X143484924Y-117040559D02*
G01*
X142777818Y-117747665D01*
X141717158Y-116687005D01*
X142424264Y-115979899D01*
X143484924Y-117040559D01*
G37*
G36*
X133782842Y-102812995D02*
G01*
X133075736Y-103520101D01*
X132015076Y-102459441D01*
X132722182Y-101752335D01*
X133782842Y-102812995D01*
G37*
G36*
X131520101Y-105075736D02*
G01*
X130812995Y-105782842D01*
X129752335Y-104722182D01*
X130459441Y-104015076D01*
X131520101Y-105075736D01*
G37*
G36*
X137247665Y-106277818D02*
G01*
X136540559Y-106984924D01*
X135479899Y-105924264D01*
X136187005Y-105217158D01*
X137247665Y-106277818D01*
G37*
G36*
X134984924Y-108540559D02*
G01*
X134277818Y-109247665D01*
X133217158Y-108187005D01*
X133924264Y-107479899D01*
X134984924Y-108540559D01*
G37*
D22*
X127600000Y-92550000D03*
X124400000Y-92550000D03*
X127600000Y-97450000D03*
X124400000Y-97450000D03*
X127600000Y-80550000D03*
X124400000Y-80550000D03*
X127600000Y-85450000D03*
X124400000Y-85450000D03*
D19*
G36*
X134687005Y-71282842D02*
G01*
X133979899Y-70575736D01*
X135040559Y-69515076D01*
X135747665Y-70222182D01*
X134687005Y-71282842D01*
G37*
G36*
X132424264Y-69020101D02*
G01*
X131717158Y-68312995D01*
X132777818Y-67252335D01*
X133484924Y-67959441D01*
X132424264Y-69020101D01*
G37*
G36*
X131222182Y-74747665D02*
G01*
X130515076Y-74040559D01*
X131575736Y-72979899D01*
X132282842Y-73687005D01*
X131222182Y-74747665D01*
G37*
G36*
X128959441Y-72484924D02*
G01*
X128252335Y-71777818D01*
X129312995Y-70717158D01*
X130020101Y-71424264D01*
X128959441Y-72484924D01*
G37*
D23*
X145450000Y-66600000D03*
X145450000Y-63400000D03*
X140550000Y-66600000D03*
X140550000Y-63400000D03*
D19*
G36*
X154118199Y-71687005D02*
G01*
X154825305Y-70979899D01*
X155885965Y-72040559D01*
X155178859Y-72747665D01*
X154118199Y-71687005D01*
G37*
G36*
X156380940Y-69424264D02*
G01*
X157088046Y-68717158D01*
X158148706Y-69777818D01*
X157441600Y-70484924D01*
X156380940Y-69424264D01*
G37*
G36*
X150653376Y-68222182D02*
G01*
X151360482Y-67515076D01*
X152421142Y-68575736D01*
X151714036Y-69282842D01*
X150653376Y-68222182D01*
G37*
G36*
X152916117Y-65959441D02*
G01*
X153623223Y-65252335D01*
X154683883Y-66312995D01*
X153976777Y-67020101D01*
X152916117Y-65959441D01*
G37*
G36*
X168287005Y-69282842D02*
G01*
X167579899Y-68575736D01*
X168640559Y-67515076D01*
X169347665Y-68222182D01*
X168287005Y-69282842D01*
G37*
G36*
X166024264Y-67020101D02*
G01*
X165317158Y-66312995D01*
X166377818Y-65252335D01*
X167084924Y-65959441D01*
X166024264Y-67020101D01*
G37*
G36*
X164822182Y-72747665D02*
G01*
X164115076Y-72040559D01*
X165175736Y-70979899D01*
X165882842Y-71687005D01*
X164822182Y-72747665D01*
G37*
G36*
X162559441Y-70484924D02*
G01*
X161852335Y-69777818D01*
X162912995Y-68717158D01*
X163620101Y-69424264D01*
X162559441Y-70484924D01*
G37*
D23*
X179450000Y-66600000D03*
X179450000Y-63400000D03*
X174550000Y-66600000D03*
X174550000Y-63400000D03*
D19*
G36*
X187717158Y-73687005D02*
G01*
X188424264Y-72979899D01*
X189484924Y-74040559D01*
X188777818Y-74747665D01*
X187717158Y-73687005D01*
G37*
G36*
X189979899Y-71424264D02*
G01*
X190687005Y-70717158D01*
X191747665Y-71777818D01*
X191040559Y-72484924D01*
X189979899Y-71424264D01*
G37*
G36*
X184252335Y-70222182D02*
G01*
X184959441Y-69515076D01*
X186020101Y-70575736D01*
X185312995Y-71282842D01*
X184252335Y-70222182D01*
G37*
G36*
X186515076Y-67959441D02*
G01*
X187222182Y-67252335D01*
X188282842Y-68312995D01*
X187575736Y-69020101D01*
X186515076Y-67959441D01*
G37*
D22*
X192400000Y-85450000D03*
X195600000Y-85450000D03*
X192400000Y-80550000D03*
X195600000Y-80550000D03*
X192400000Y-97450000D03*
X195600000Y-97450000D03*
X192400000Y-92550000D03*
X195600000Y-92550000D03*
D19*
G36*
X183812995Y-105217158D02*
G01*
X184520101Y-105924264D01*
X183459441Y-106984924D01*
X182752335Y-106277818D01*
X183812995Y-105217158D01*
G37*
G36*
X186075736Y-107479899D02*
G01*
X186782842Y-108187005D01*
X185722182Y-109247665D01*
X185015076Y-108540559D01*
X186075736Y-107479899D01*
G37*
G36*
X187277818Y-101752335D02*
G01*
X187984924Y-102459441D01*
X186924264Y-103520101D01*
X186217158Y-102812995D01*
X187277818Y-101752335D01*
G37*
G36*
X189540559Y-104015076D02*
G01*
X190247665Y-104722182D01*
X189187005Y-105782842D01*
X188479899Y-105075736D01*
X189540559Y-104015076D01*
G37*
G36*
X175312995Y-113717158D02*
G01*
X176020101Y-114424264D01*
X174959441Y-115484924D01*
X174252335Y-114777818D01*
X175312995Y-113717158D01*
G37*
G36*
X177575736Y-115979899D02*
G01*
X178282842Y-116687005D01*
X177222182Y-117747665D01*
X176515076Y-117040559D01*
X177575736Y-115979899D01*
G37*
G36*
X178777818Y-110252335D02*
G01*
X179484924Y-110959441D01*
X178424264Y-112020101D01*
X177717158Y-111312995D01*
X178777818Y-110252335D01*
G37*
G36*
X181040559Y-112515076D02*
G01*
X181747665Y-113222182D01*
X180687005Y-114282842D01*
X179979899Y-113575736D01*
X181040559Y-112515076D01*
G37*
G36*
X166812995Y-122217158D02*
G01*
X167520101Y-122924264D01*
X166459441Y-123984924D01*
X165752335Y-123277818D01*
X166812995Y-122217158D01*
G37*
G36*
X169075736Y-124479899D02*
G01*
X169782842Y-125187005D01*
X168722182Y-126247665D01*
X168015076Y-125540559D01*
X169075736Y-124479899D01*
G37*
G36*
X170277818Y-118752335D02*
G01*
X170984924Y-119459441D01*
X169924264Y-120520101D01*
X169217158Y-119812995D01*
X170277818Y-118752335D01*
G37*
G36*
X172540559Y-121015076D02*
G01*
X173247665Y-121722182D01*
X172187005Y-122782842D01*
X171479899Y-122075736D01*
X172540559Y-121015076D01*
G37*
G36*
X157312995Y-130717158D02*
G01*
X158020101Y-131424264D01*
X156959441Y-132484924D01*
X156252335Y-131777818D01*
X157312995Y-130717158D01*
G37*
G36*
X159575736Y-132979899D02*
G01*
X160282842Y-133687005D01*
X159222182Y-134747665D01*
X158515076Y-134040559D01*
X159575736Y-132979899D01*
G37*
G36*
X160777818Y-127252335D02*
G01*
X161484924Y-127959441D01*
X160424264Y-129020101D01*
X159717158Y-128312995D01*
X160777818Y-127252335D01*
G37*
G36*
X163040559Y-129515076D02*
G01*
X163747665Y-130222182D01*
X162687005Y-131282842D01*
X161979899Y-130575736D01*
X163040559Y-129515076D01*
G37*
G36*
G01*
X158962500Y-105675000D02*
X158287500Y-105675000D01*
G75*
G02*
X158200000Y-105587500I0J87500D01*
G01*
X158200000Y-105412500D01*
G75*
G02*
X158287500Y-105325000I87500J0D01*
G01*
X158962500Y-105325000D01*
G75*
G02*
X159050000Y-105412500I0J-87500D01*
G01*
X159050000Y-105587500D01*
G75*
G02*
X158962500Y-105675000I-87500J0D01*
G01*
G37*
G36*
G01*
X158962500Y-105175000D02*
X158287500Y-105175000D01*
G75*
G02*
X158200000Y-105087500I0J87500D01*
G01*
X158200000Y-104912500D01*
G75*
G02*
X158287500Y-104825000I87500J0D01*
G01*
X158962500Y-104825000D01*
G75*
G02*
X159050000Y-104912500I0J-87500D01*
G01*
X159050000Y-105087500D01*
G75*
G02*
X158962500Y-105175000I-87500J0D01*
G01*
G37*
G36*
G01*
X158962500Y-104675000D02*
X158287500Y-104675000D01*
G75*
G02*
X158200000Y-104587500I0J87500D01*
G01*
X158200000Y-104412500D01*
G75*
G02*
X158287500Y-104325000I87500J0D01*
G01*
X158962500Y-104325000D01*
G75*
G02*
X159050000Y-104412500I0J-87500D01*
G01*
X159050000Y-104587500D01*
G75*
G02*
X158962500Y-104675000I-87500J0D01*
G01*
G37*
G36*
G01*
X159087500Y-104050000D02*
X158912500Y-104050000D01*
G75*
G02*
X158825000Y-103962500I0J87500D01*
G01*
X158825000Y-103287500D01*
G75*
G02*
X158912500Y-103200000I87500J0D01*
G01*
X159087500Y-103200000D01*
G75*
G02*
X159175000Y-103287500I0J-87500D01*
G01*
X159175000Y-103962500D01*
G75*
G02*
X159087500Y-104050000I-87500J0D01*
G01*
G37*
G36*
G01*
X159587500Y-104050000D02*
X159412500Y-104050000D01*
G75*
G02*
X159325000Y-103962500I0J87500D01*
G01*
X159325000Y-103287500D01*
G75*
G02*
X159412500Y-103200000I87500J0D01*
G01*
X159587500Y-103200000D01*
G75*
G02*
X159675000Y-103287500I0J-87500D01*
G01*
X159675000Y-103962500D01*
G75*
G02*
X159587500Y-104050000I-87500J0D01*
G01*
G37*
G36*
G01*
X160087500Y-104050000D02*
X159912500Y-104050000D01*
G75*
G02*
X159825000Y-103962500I0J87500D01*
G01*
X159825000Y-103287500D01*
G75*
G02*
X159912500Y-103200000I87500J0D01*
G01*
X160087500Y-103200000D01*
G75*
G02*
X160175000Y-103287500I0J-87500D01*
G01*
X160175000Y-103962500D01*
G75*
G02*
X160087500Y-104050000I-87500J0D01*
G01*
G37*
G36*
G01*
X160587500Y-104050000D02*
X160412500Y-104050000D01*
G75*
G02*
X160325000Y-103962500I0J87500D01*
G01*
X160325000Y-103287500D01*
G75*
G02*
X160412500Y-103200000I87500J0D01*
G01*
X160587500Y-103200000D01*
G75*
G02*
X160675000Y-103287500I0J-87500D01*
G01*
X160675000Y-103962500D01*
G75*
G02*
X160587500Y-104050000I-87500J0D01*
G01*
G37*
G36*
G01*
X161087500Y-104050000D02*
X160912500Y-104050000D01*
G75*
G02*
X160825000Y-103962500I0J87500D01*
G01*
X160825000Y-103287500D01*
G75*
G02*
X160912500Y-103200000I87500J0D01*
G01*
X161087500Y-103200000D01*
G75*
G02*
X161175000Y-103287500I0J-87500D01*
G01*
X161175000Y-103962500D01*
G75*
G02*
X161087500Y-104050000I-87500J0D01*
G01*
G37*
G36*
G01*
X161712500Y-104675000D02*
X161037500Y-104675000D01*
G75*
G02*
X160950000Y-104587500I0J87500D01*
G01*
X160950000Y-104412500D01*
G75*
G02*
X161037500Y-104325000I87500J0D01*
G01*
X161712500Y-104325000D01*
G75*
G02*
X161800000Y-104412500I0J-87500D01*
G01*
X161800000Y-104587500D01*
G75*
G02*
X161712500Y-104675000I-87500J0D01*
G01*
G37*
G36*
G01*
X161712500Y-105175000D02*
X161037500Y-105175000D01*
G75*
G02*
X160950000Y-105087500I0J87500D01*
G01*
X160950000Y-104912500D01*
G75*
G02*
X161037500Y-104825000I87500J0D01*
G01*
X161712500Y-104825000D01*
G75*
G02*
X161800000Y-104912500I0J-87500D01*
G01*
X161800000Y-105087500D01*
G75*
G02*
X161712500Y-105175000I-87500J0D01*
G01*
G37*
G36*
G01*
X161712500Y-105675000D02*
X161037500Y-105675000D01*
G75*
G02*
X160950000Y-105587500I0J87500D01*
G01*
X160950000Y-105412500D01*
G75*
G02*
X161037500Y-105325000I87500J0D01*
G01*
X161712500Y-105325000D01*
G75*
G02*
X161800000Y-105412500I0J-87500D01*
G01*
X161800000Y-105587500D01*
G75*
G02*
X161712500Y-105675000I-87500J0D01*
G01*
G37*
G36*
G01*
X161087500Y-106800000D02*
X160912500Y-106800000D01*
G75*
G02*
X160825000Y-106712500I0J87500D01*
G01*
X160825000Y-106037500D01*
G75*
G02*
X160912500Y-105950000I87500J0D01*
G01*
X161087500Y-105950000D01*
G75*
G02*
X161175000Y-106037500I0J-87500D01*
G01*
X161175000Y-106712500D01*
G75*
G02*
X161087500Y-106800000I-87500J0D01*
G01*
G37*
G36*
G01*
X160587500Y-106800000D02*
X160412500Y-106800000D01*
G75*
G02*
X160325000Y-106712500I0J87500D01*
G01*
X160325000Y-106037500D01*
G75*
G02*
X160412500Y-105950000I87500J0D01*
G01*
X160587500Y-105950000D01*
G75*
G02*
X160675000Y-106037500I0J-87500D01*
G01*
X160675000Y-106712500D01*
G75*
G02*
X160587500Y-106800000I-87500J0D01*
G01*
G37*
G36*
G01*
X160087500Y-106800000D02*
X159912500Y-106800000D01*
G75*
G02*
X159825000Y-106712500I0J87500D01*
G01*
X159825000Y-106037500D01*
G75*
G02*
X159912500Y-105950000I87500J0D01*
G01*
X160087500Y-105950000D01*
G75*
G02*
X160175000Y-106037500I0J-87500D01*
G01*
X160175000Y-106712500D01*
G75*
G02*
X160087500Y-106800000I-87500J0D01*
G01*
G37*
G36*
G01*
X159587500Y-106800000D02*
X159412500Y-106800000D01*
G75*
G02*
X159325000Y-106712500I0J87500D01*
G01*
X159325000Y-106037500D01*
G75*
G02*
X159412500Y-105950000I87500J0D01*
G01*
X159587500Y-105950000D01*
G75*
G02*
X159675000Y-106037500I0J-87500D01*
G01*
X159675000Y-106712500D01*
G75*
G02*
X159587500Y-106800000I-87500J0D01*
G01*
G37*
G36*
G01*
X159087500Y-106800000D02*
X158912500Y-106800000D01*
G75*
G02*
X158825000Y-106712500I0J87500D01*
G01*
X158825000Y-106037500D01*
G75*
G02*
X158912500Y-105950000I87500J0D01*
G01*
X159087500Y-105950000D01*
G75*
G02*
X159175000Y-106037500I0J-87500D01*
G01*
X159175000Y-106712500D01*
G75*
G02*
X159087500Y-106800000I-87500J0D01*
G01*
G37*
G36*
G01*
X182625000Y-75625002D02*
X182625000Y-73374998D01*
G75*
G02*
X182874998Y-73125000I249998J0D01*
G01*
X185125002Y-73125000D01*
G75*
G02*
X185375000Y-73374998I0J-249998D01*
G01*
X185375000Y-75625002D01*
G75*
G02*
X185125002Y-75875000I-249998J0D01*
G01*
X182874998Y-75875000D01*
G75*
G02*
X182625000Y-75625002I0J249998D01*
G01*
G37*
G36*
G01*
X170625000Y-75625002D02*
X170625000Y-73374998D01*
G75*
G02*
X170874998Y-73125000I249998J0D01*
G01*
X173125002Y-73125000D01*
G75*
G02*
X173375000Y-73374998I0J-249998D01*
G01*
X173375000Y-75625002D01*
G75*
G02*
X173125002Y-75875000I-249998J0D01*
G01*
X170874998Y-75875000D01*
G75*
G02*
X170625000Y-75625002I0J249998D01*
G01*
G37*
G36*
G01*
X158625000Y-75625002D02*
X158625000Y-73374998D01*
G75*
G02*
X158874998Y-73125000I249998J0D01*
G01*
X161125002Y-73125000D01*
G75*
G02*
X161375000Y-73374998I0J-249998D01*
G01*
X161375000Y-75625002D01*
G75*
G02*
X161125002Y-75875000I-249998J0D01*
G01*
X158874998Y-75875000D01*
G75*
G02*
X158625000Y-75625002I0J249998D01*
G01*
G37*
G36*
G01*
X146625000Y-75625002D02*
X146625000Y-73374998D01*
G75*
G02*
X146874998Y-73125000I249998J0D01*
G01*
X149125002Y-73125000D01*
G75*
G02*
X149375000Y-73374998I0J-249998D01*
G01*
X149375000Y-75625002D01*
G75*
G02*
X149125002Y-75875000I-249998J0D01*
G01*
X146874998Y-75875000D01*
G75*
G02*
X146625000Y-75625002I0J249998D01*
G01*
G37*
G36*
G01*
X134625000Y-75625002D02*
X134625000Y-73374998D01*
G75*
G02*
X134874998Y-73125000I249998J0D01*
G01*
X137125002Y-73125000D01*
G75*
G02*
X137375000Y-73374998I0J-249998D01*
G01*
X137375000Y-75625002D01*
G75*
G02*
X137125002Y-75875000I-249998J0D01*
G01*
X134874998Y-75875000D01*
G75*
G02*
X134625000Y-75625002I0J249998D01*
G01*
G37*
D24*
X164250000Y-120000000D03*
X164250000Y-119200000D03*
X164250000Y-118400000D03*
X164250000Y-117600000D03*
X164250000Y-116800000D03*
X164250000Y-116000000D03*
X164250000Y-115200000D03*
X164250000Y-114400000D03*
D25*
X162800000Y-112950000D03*
X162000000Y-112950000D03*
X161200000Y-112950000D03*
X160400000Y-112950000D03*
X159600000Y-112950000D03*
X158800000Y-112950000D03*
X158000000Y-112950000D03*
X157200000Y-112950000D03*
D24*
X155750000Y-114400000D03*
X155750000Y-115200000D03*
X155750000Y-116000000D03*
X155750000Y-116800000D03*
X155750000Y-117600000D03*
X155750000Y-118400000D03*
X155750000Y-119200000D03*
X155750000Y-120000000D03*
D25*
X157200000Y-121450000D03*
X158000000Y-121450000D03*
X158800000Y-121450000D03*
X159600000Y-121450000D03*
X160400000Y-121450000D03*
X161200000Y-121450000D03*
X162000000Y-121450000D03*
X162800000Y-121450000D03*
D26*
X183500000Y-66500000D03*
X136500000Y-66500000D03*
G36*
G01*
X166823779Y-119007270D02*
X167601597Y-119785088D01*
G75*
G02*
X167601597Y-120492194I-353553J-353553D01*
G01*
X167601597Y-120492194D01*
G75*
G02*
X166894491Y-120492194I-353553J353553D01*
G01*
X166116673Y-119714376D01*
G75*
G02*
X166116673Y-119007270I353553J353553D01*
G01*
X166116673Y-119007270D01*
G75*
G02*
X166823779Y-119007270I353553J-353553D01*
G01*
G37*
G36*
G01*
X160714376Y-125116673D02*
X161492194Y-125894491D01*
G75*
G02*
X161492194Y-126601597I-353553J-353553D01*
G01*
X161492194Y-126601597D01*
G75*
G02*
X160785088Y-126601597I-353553J353553D01*
G01*
X160007270Y-125823779D01*
G75*
G02*
X160007270Y-125116673I353553J353553D01*
G01*
X160007270Y-125116673D01*
G75*
G02*
X160714376Y-125116673I353553J-353553D01*
G01*
G37*
G36*
G01*
X169956262Y-122139753D02*
X170380526Y-122564017D01*
G75*
G02*
X170380526Y-123271123I-353553J-353553D01*
G01*
X170380526Y-123271123D01*
G75*
G02*
X169673420Y-123271123I-353553J353553D01*
G01*
X169249156Y-122846859D01*
G75*
G02*
X169249156Y-122139753I353553J353553D01*
G01*
X169249156Y-122139753D01*
G75*
G02*
X169956262Y-122139753I353553J-353553D01*
G01*
G37*
G36*
G01*
X163846859Y-128249156D02*
X164271123Y-128673420D01*
G75*
G02*
X164271123Y-129380526I-353553J-353553D01*
G01*
X164271123Y-129380526D01*
G75*
G02*
X163564017Y-129380526I-353553J353553D01*
G01*
X163139753Y-128956262D01*
G75*
G02*
X163139753Y-128249156I353553J353553D01*
G01*
X163139753Y-128249156D01*
G75*
G02*
X163846859Y-128249156I353553J-353553D01*
G01*
G37*
D27*
X162114448Y-125201525D03*
X166201525Y-121114448D03*
G36*
G01*
X172645000Y-103900000D02*
X172645000Y-103600000D01*
G75*
G02*
X172795000Y-103450000I150000J0D01*
G01*
X173820000Y-103450000D01*
G75*
G02*
X173970000Y-103600000I0J-150000D01*
G01*
X173970000Y-103900000D01*
G75*
G02*
X173820000Y-104050000I-150000J0D01*
G01*
X172795000Y-104050000D01*
G75*
G02*
X172645000Y-103900000I0J150000D01*
G01*
G37*
G36*
G01*
X172645000Y-104850000D02*
X172645000Y-104550000D01*
G75*
G02*
X172795000Y-104400000I150000J0D01*
G01*
X173820000Y-104400000D01*
G75*
G02*
X173970000Y-104550000I0J-150000D01*
G01*
X173970000Y-104850000D01*
G75*
G02*
X173820000Y-105000000I-150000J0D01*
G01*
X172795000Y-105000000D01*
G75*
G02*
X172645000Y-104850000I0J150000D01*
G01*
G37*
G36*
G01*
X172645000Y-105800000D02*
X172645000Y-105500000D01*
G75*
G02*
X172795000Y-105350000I150000J0D01*
G01*
X173820000Y-105350000D01*
G75*
G02*
X173970000Y-105500000I0J-150000D01*
G01*
X173970000Y-105800000D01*
G75*
G02*
X173820000Y-105950000I-150000J0D01*
G01*
X172795000Y-105950000D01*
G75*
G02*
X172645000Y-105800000I0J150000D01*
G01*
G37*
G36*
G01*
X170370000Y-105800000D02*
X170370000Y-105500000D01*
G75*
G02*
X170520000Y-105350000I150000J0D01*
G01*
X171545000Y-105350000D01*
G75*
G02*
X171695000Y-105500000I0J-150000D01*
G01*
X171695000Y-105800000D01*
G75*
G02*
X171545000Y-105950000I-150000J0D01*
G01*
X170520000Y-105950000D01*
G75*
G02*
X170370000Y-105800000I0J150000D01*
G01*
G37*
G36*
G01*
X170370000Y-104850000D02*
X170370000Y-104550000D01*
G75*
G02*
X170520000Y-104400000I150000J0D01*
G01*
X171545000Y-104400000D01*
G75*
G02*
X171695000Y-104550000I0J-150000D01*
G01*
X171695000Y-104850000D01*
G75*
G02*
X171545000Y-105000000I-150000J0D01*
G01*
X170520000Y-105000000D01*
G75*
G02*
X170370000Y-104850000I0J150000D01*
G01*
G37*
G36*
G01*
X170370000Y-103900000D02*
X170370000Y-103600000D01*
G75*
G02*
X170520000Y-103450000I150000J0D01*
G01*
X171545000Y-103450000D01*
G75*
G02*
X171695000Y-103600000I0J-150000D01*
G01*
X171695000Y-103900000D01*
G75*
G02*
X171545000Y-104050000I-150000J0D01*
G01*
X170520000Y-104050000D01*
G75*
G02*
X170370000Y-103900000I0J150000D01*
G01*
G37*
G36*
G01*
X182625000Y-98625002D02*
X182625000Y-96374998D01*
G75*
G02*
X182874998Y-96125000I249998J0D01*
G01*
X185125002Y-96125000D01*
G75*
G02*
X185375000Y-96374998I0J-249998D01*
G01*
X185375000Y-98625002D01*
G75*
G02*
X185125002Y-98875000I-249998J0D01*
G01*
X182874998Y-98875000D01*
G75*
G02*
X182625000Y-98625002I0J249998D01*
G01*
G37*
G36*
G01*
X158625000Y-98625002D02*
X158625000Y-96374998D01*
G75*
G02*
X158874998Y-96125000I249998J0D01*
G01*
X161125002Y-96125000D01*
G75*
G02*
X161375000Y-96374998I0J-249998D01*
G01*
X161375000Y-98625002D01*
G75*
G02*
X161125002Y-98875000I-249998J0D01*
G01*
X158874998Y-98875000D01*
G75*
G02*
X158625000Y-98625002I0J249998D01*
G01*
G37*
G36*
G01*
X134625000Y-98625002D02*
X134625000Y-96374998D01*
G75*
G02*
X134874998Y-96125000I249998J0D01*
G01*
X137125002Y-96125000D01*
G75*
G02*
X137375000Y-96374998I0J-249998D01*
G01*
X137375000Y-98625002D01*
G75*
G02*
X137125002Y-98875000I-249998J0D01*
G01*
X134874998Y-98875000D01*
G75*
G02*
X134625000Y-98625002I0J249998D01*
G01*
G37*
G36*
G01*
X170625000Y-98625002D02*
X170625000Y-96374998D01*
G75*
G02*
X170874998Y-96125000I249998J0D01*
G01*
X173125002Y-96125000D01*
G75*
G02*
X173375000Y-96374998I0J-249998D01*
G01*
X173375000Y-98625002D01*
G75*
G02*
X173125002Y-98875000I-249998J0D01*
G01*
X170874998Y-98875000D01*
G75*
G02*
X170625000Y-98625002I0J249998D01*
G01*
G37*
G36*
G01*
X146625000Y-98625002D02*
X146625000Y-96374998D01*
G75*
G02*
X146874998Y-96125000I249998J0D01*
G01*
X149125002Y-96125000D01*
G75*
G02*
X149375000Y-96374998I0J-249998D01*
G01*
X149375000Y-98625002D01*
G75*
G02*
X149125002Y-98875000I-249998J0D01*
G01*
X146874998Y-98875000D01*
G75*
G02*
X146625000Y-98625002I0J249998D01*
G01*
G37*
M02*
